%!PS-Adobe-3.0 EPSF-3.0
%%Title: ../img/gp1_mean_x_y.eps
%%Creator: matplotlib version 2.0.2, http://matplotlib.org/
%%CreationDate: Fri Jan  5 04:27:48 2018
%%Orientation: portrait
%%BoundingBox: 90 252 522 540
%%EndComments
%%BeginProlog
/mpldict 8 dict def
mpldict begin
/m { moveto } bind def
/l { lineto } bind def
/r { rlineto } bind def
/c { curveto } bind def
/cl { closepath } bind def
/box {
m
1 index 0 r
0 exch r
neg 0 r
cl
} bind def
/clipbox {
box
clip
newpath
} bind def
%!PS-Adobe-3.0 Resource-Font
%%Title: DejaVu Sans Bold
%%Copyright: Copyright (c) 2003 by Bitstream, Inc. All Rights Reserved. Copyright (c) 2006 by Tavmjong Bah. All Rights Reserved. DejaVu changes are in public domain 
%%Creator: Converted from TrueType to type 3 by PPR
25 dict begin
/_d{bind def}bind def
/_m{moveto}_d
/_l{lineto}_d
/_cl{closepath eofill}_d
/_c{curveto}_d
/_sc{7 -1 roll{setcachedevice}{pop pop pop pop pop pop}ifelse}_d
/_e{exec}_d
/FontName /DejaVuSans-Bold def
/PaintType 0 def
/FontMatrix[.001 0 0 .001 0 0]def
/FontBBox[-1069 -415 1975 1174]def
/FontType 3 def
/Encoding [ /space /period /zero /one /two /four /five /six /C /D /T /X /Z /a /c /d /e /f /i /m /n /o /r /t /minus ] def
/FontInfo 10 dict dup begin
/FamilyName (DejaVu Sans) def
/FullName (DejaVu Sans Bold) def
/Notice (Copyright (c) 2003 by Bitstream, Inc. All Rights Reserved. Copyright (c) 2006 by Tavmjong Bah. All Rights Reserved. DejaVu changes are in public domain ) def
/Weight (Bold) def
/Version (Version 2.35) def
/ItalicAngle 0.0 def
/isFixedPitch false def
/UnderlinePosition -130 def
/UnderlineThickness 90 def
end readonly def
/CharStrings 25 dict dup begin
/space{348 0 0 0 0 0 _sc
}_d
/period{380 0 102 0 278 189 _sc
102 189 _m
278 189 _l
278 0 _l
102 0 _l
102 189 _l
_cl}_d
/zero{696 0 48 -13 648 742 _sc
460 365 _m
460 456 451 520 434 558 _c
417 595 388 614 348 614 _c
308 614 279 595 262 558 _c
244 520 236 456 236 365 _c
236 273 244 208 262 170 _c
279 132 308 114 348 114 _c
388 114 416 132 434 170 _c
451 208 460 273 460 365 _c
648 364 _m
648 243 622 150 570 85 _c
518 19 444 -13 348 -13 _c
252 -13 178 19 126 85 _c
74 150 48 243 48 364 _c
48 484 74 577 126 643 _c
178 709 252 742 348 742 _c
444 742 518 709 570 643 _c
622 577 648 484 648 364 _c
_cl}_d
/one{696 0 113 0 627 729 _sc
117 130 _m
283 130 _l
283 601 _l
113 566 _l
113 694 _l
282 729 _l
461 729 _l
461 130 _l
627 130 _l
627 0 _l
117 0 _l
117 130 _l
_cl}_d
/two{696 0 79 0 609 742 _sc
288 138 _m
609 138 _l
609 0 _l
79 0 _l
79 138 _l
345 373 _l
369 394 386 415 398 436 _c
409 456 415 478 415 500 _c
415 534 403 561 380 582 _c
357 603 327 614 289 614 _c
259 614 227 607 193 595 _c
158 582 121 563 81 539 _c
81 699 _l
123 713 165 723 207 731 _c
248 738 288 742 328 742 _c
415 742 483 722 531 684 _c
579 646 604 592 604 524 _c
604 484 593 446 573 412 _c
552 378 509 332 444 275 _c
288 138 _l
_cl}_d
/four{696 0 45 0 650 729 _sc
368 574 _m
162 269 _l
368 269 _l
368 574 _l
337 729 _m
546 729 _l
546 269 _l
650 269 _l
650 133 _l
546 133 _l
546 0 _l
368 0 _l
368 133 _l
45 133 _l
45 294 _l
337 729 _l
_cl}_d
/five{{696 0 77 -13 626 729 _sc
106 729 _m
573 729 _l
573 591 _l
256 591 _l
256 478 _l
270 482 284 485 299 487 _c
313 489 328 490 344 490 _c
433 490 502 467 552 423 _c
601 379 626 317 626 238 _c
626 159 599 97 545 53 _c
491 9 416 -13 321 -13 _c
279 -13 238 -9 198 -1 _c
157 6 117 18 77 34 _c
77 182 _l
117 159 154 142 190 131 _c
226 119 259 114 291 114 _c
}_e{336 114 372 125 398 147 _c
424 169 438 200 438 238 _c
438 276 424 306 398 328 _c
372 350 336 362 291 362 _c
263 362 234 358 204 351 _c
174 344 141 333 106 319 _c
106 729 _l
_cl}_e}_d
/six{{696 0 62 -13 642 741 _sc
362 360 _m
329 360 304 349 288 328 _c
271 306 263 274 263 232 _c
263 189 271 157 288 136 _c
304 114 329 104 362 104 _c
395 104 420 114 436 136 _c
452 157 461 189 461 232 _c
461 274 452 306 436 328 _c
420 349 395 360 362 360 _c
594 710 _m
594 575 _l
563 589 534 600 507 607 _c
479 614 453 618 427 618 _c
371 618 327 602 296 571 _c
}_e{264 540 246 494 241 433 _c
262 449 285 461 311 469 _c
336 477 363 481 393 481 _c
467 481 527 459 573 415 _c
619 371 642 314 642 244 _c
642 166 616 103 565 57 _c
514 10 446 -13 360 -13 _c
265 -13 192 18 140 82 _c
88 146 62 236 62 354 _c
62 474 92 569 153 638 _c
213 706 297 741 403 741 _c
436 741 468 738 500 733 _c
532 728 563 720 594 710 _c
_cl}_e}_d
/C{{734 0 50 -13 670 742 _sc
670 40 _m
635 22 599 8 562 0 _c
524 -8 485 -13 445 -13 _c
323 -13 227 20 156 88 _c
85 155 50 247 50 364 _c
50 480 85 572 156 640 _c
227 708 323 742 445 742 _c
485 742 524 737 562 728 _c
599 719 635 706 670 688 _c
670 537 _l
635 561 601 578 567 589 _c
533 600 497 606 460 606 _c
392 606 339 584 301 541 _c
263 498 244 439 244 364 _c
}_e{244 288 263 229 301 186 _c
339 143 392 122 460 122 _c
497 122 533 127 567 138 _c
601 149 635 167 670 191 _c
670 40 _l
_cl}_e}_d
/D{830 0 92 0 778 729 _sc
280 587 _m
280 142 _l
347 142 _l
423 142 482 161 523 199 _c
563 237 584 292 584 365 _c
584 437 563 492 523 530 _c
483 568 424 587 347 587 _c
280 587 _l
92 729 _m
290 729 _l
400 729 483 721 537 705 _c
591 689 638 663 677 625 _c
711 592 736 554 753 511 _c
769 468 778 419 778 365 _c
778 310 769 261 753 218 _c
736 174 711 136 677 104 _c
637 66 590 39 536 23 _c
481 7 399 0 290 0 _c
92 0 _l
92 729 _l
_cl}_d
/T{682 0 5 0 677 729 _sc
5 729 _m
677 729 _l
677 587 _l
435 587 _l
435 0 _l
247 0 _l
247 587 _l
5 587 _l
5 729 _l
_cl}_d
/X{771 0 19 0 751 729 _sc
498 372 _m
751 0 _l
555 0 _l
385 249 _l
216 0 _l
19 0 _l
272 372 _l
29 729 _l
225 729 _l
385 494 _l
544 729 _l
741 729 _l
498 372 _l
_cl}_d
/Z{725 0 45 0 680 729 _sc
56 729 _m
669 729 _l
669 615 _l
278 142 _l
680 142 _l
680 0 _l
45 0 _l
45 114 _l
436 587 _l
56 587 _l
56 729 _l
_cl}_d
/a{{675 0 43 -13 596 560 _sc
329 246 _m
292 246 264 239 246 227 _c
228 215 219 197 219 173 _c
219 151 226 133 241 121 _c
256 108 277 102 303 102 _c
336 102 364 113 386 137 _c
408 161 420 190 420 226 _c
420 246 _l
329 246 _l
596 312 _m
596 0 _l
420 0 _l
420 81 _l
396 47 370 23 341 9 _c
311 -5 276 -13 234 -13 _c
177 -13 131 3 96 36 _c
60 68 43 111 43 164 _c
}_e{43 228 65 275 109 305 _c
153 335 222 350 317 350 _c
420 350 _l
420 364 _l
420 391 409 411 387 424 _c
365 437 331 444 285 444 _c
247 444 212 440 180 432 _c
148 424 118 413 91 399 _c
91 532 _l
128 541 165 548 203 553 _c
241 557 279 560 317 560 _c
415 560 486 540 530 501 _c
574 462 596 399 596 312 _c
_cl}_e}_d
/c{{593 0 43 -13 526 560 _sc
526 530 _m
526 387 _l
502 403 478 415 454 423 _c
430 431 405 435 380 435 _c
331 435 293 420 266 392 _c
238 364 225 324 225 273 _c
225 221 238 181 266 153 _c
293 125 331 111 380 111 _c
407 111 433 115 458 123 _c
482 131 505 143 526 159 _c
526 16 _l
498 6 470 -1 442 -6 _c
414 -10 386 -13 358 -13 _c
259 -13 182 12 126 62 _c
}_e{70 112 43 183 43 273 _c
43 363 70 433 126 484 _c
182 534 259 560 358 560 _c
386 560 414 557 442 552 _c
470 547 498 540 526 530 _c
_cl}_e}_d
/d{{716 0 45 -13 632 760 _sc
456 467 _m
456 760 _l
632 760 _l
632 0 _l
456 0 _l
456 79 _l
432 47 405 23 376 9 _c
347 -5 314 -13 276 -13 _c
208 -13 153 13 110 66 _c
66 119 45 188 45 273 _c
45 357 66 425 110 479 _c
153 533 208 560 276 560 _c
314 560 347 552 376 537 _c
405 522 432 499 456 467 _c
341 113 _m
378 113 406 126 426 154 _c
446 181 456 221 456 273 _c
}_e{456 325 446 364 426 392 _c
406 419 378 433 341 433 _c
303 433 275 419 255 392 _c
235 364 226 325 226 273 _c
226 221 235 181 255 154 _c
275 126 303 113 341 113 _c
_cl}_e}_d
/e{{678 0 43 -13 630 560 _sc
630 275 _m
630 225 _l
221 225 _l
225 184 240 153 266 133 _c
291 112 326 102 372 102 _c
408 102 446 107 485 118 _c
523 129 563 146 604 168 _c
604 33 _l
562 17 521 6 480 -1 _c
438 -9 397 -13 356 -13 _c
257 -13 180 12 125 62 _c
70 112 43 182 43 273 _c
43 362 70 432 124 483 _c
178 534 252 560 346 560 _c
432 560 500 534 552 482 _c
}_e{604 430 630 361 630 275 _c
450 333 _m
450 366 440 393 421 413 _c
401 433 376 444 345 444 _c
311 444 283 434 262 415 _c
241 396 228 369 223 333 _c
450 333 _l
_cl}_e}_d
/f{435 0 19 0 444 760 _sc
444 760 _m
444 645 _l
347 645 _l
322 645 305 640 295 631 _c
285 622 281 607 281 585 _c
281 547 _l
430 547 _l
430 422 _l
281 422 _l
281 0 _l
106 0 _l
106 422 _l
19 422 _l
19 547 _l
106 547 _l
106 585 _l
106 644 122 688 156 717 _c
189 745 240 760 310 760 _c
444 760 _l
_cl}_d
/i{343 0 84 0 259 760 _sc
84 547 _m
259 547 _l
259 0 _l
84 0 _l
84 547 _l
84 760 _m
259 760 _l
259 617 _l
84 617 _l
84 760 _l
_cl}_d
/m{{1042 0 83 0 963 560 _sc
591 456 _m
613 490 639 515 669 533 _c
699 551 733 560 770 560 _c
832 560 880 540 913 502 _c
946 463 963 407 963 333 _c
963 0 _l
787 0 _l
787 285 _l
787 289 788 294 788 298 _c
788 302 788 309 788 318 _c
788 356 782 384 771 402 _c
759 419 741 428 716 428 _c
682 428 657 414 639 387 _c
621 359 611 320 611 269 _c
611 0 _l
435 0 _l
435 285 _l
}_e{435 345 429 384 419 402 _c
409 419 390 428 364 428 _c
330 428 304 414 286 387 _c
268 359 259 320 259 269 _c
259 0 _l
83 0 _l
83 547 _l
259 547 _l
259 467 _l
280 497 305 520 333 536 _c
361 552 391 560 425 560 _c
462 560 495 550 524 532 _c
553 514 575 488 591 456 _c
_cl}_e}_d
/n{712 0 84 0 634 560 _sc
634 333 _m
634 0 _l
458 0 _l
458 54 _l
458 255 _l
458 302 457 334 455 352 _c
453 370 449 383 444 392 _c
437 403 428 412 416 418 _c
404 424 390 428 376 428 _c
339 428 310 414 290 386 _c
269 358 259 319 259 269 _c
259 0 _l
84 0 _l
84 547 _l
259 547 _l
259 467 _l
285 499 312 522 342 537 _c
372 552 405 560 441 560 _c
504 560 552 540 585 502 _c
617 463 634 407 634 333 _c
_cl}_d
/o{687 0 43 -13 644 560 _sc
344 435 _m
305 435 275 421 255 393 _c
235 365 225 325 225 273 _c
225 220 235 180 255 152 _c
275 124 305 111 344 111 _c
382 111 411 124 431 152 _c
451 180 462 220 462 273 _c
462 325 451 365 431 393 _c
411 421 382 435 344 435 _c
344 560 _m
438 560 511 534 564 484 _c
617 433 644 363 644 273 _c
644 183 617 112 564 62 _c
511 12 438 -13 344 -13 _c
250 -13 176 12 123 62 _c
69 112 43 183 43 273 _c
43 363 69 433 123 484 _c
176 534 250 560 344 560 _c
_cl}_d
/r{493 0 84 0 490 560 _sc
490 398 _m
474 405 459 410 444 414 _c
429 417 414 419 399 419 _c
354 419 319 404 295 376 _c
271 347 259 306 259 252 _c
259 0 _l
84 0 _l
84 547 _l
259 547 _l
259 457 _l
281 493 306 519 336 535 _c
365 551 400 560 441 560 _c
447 560 453 559 460 559 _c
466 559 476 558 490 556 _c
490 398 _l
_cl}_d
/t{478 0 13 0 455 702 _sc
275 702 _m
275 547 _l
455 547 _l
455 422 _l
275 422 _l
275 190 _l
275 164 280 147 290 138 _c
300 129 320 125 350 125 _c
440 125 _l
440 0 _l
290 0 _l
221 0 172 14 143 43 _c
114 71 100 120 100 190 _c
100 422 _l
13 422 _l
13 547 _l
100 547 _l
100 702 _l
275 702 _l
_cl}_d
/minus{838 0 106 256 732 371 _sc
106 371 _m
732 371 _l
732 256 _l
106 256 _l
106 371 _l
_cl}_d
end readonly def

/BuildGlyph
 {exch begin
 CharStrings exch
 2 copy known not{pop /.notdef}if
 true 3 1 roll get exec
 end}_d

/BuildChar {
 1 index /Encoding get exch get
 1 index /BuildGlyph get exec
}_d

FontName currentdict end definefont pop
end
%%EndProlog
mpldict begin
90 252 translate
432 288 0 0 clipbox
gsave
0 0 m
432 0 l
432 288 l
0 288 l
cl
1.000 setgray
fill
grestore
gsave
54 36 m
388.8 36 l
388.8 253.44 l
54 253.44 l
cl
1.000 setgray
fill
grestore
1.000 setlinewidth
1 setlinejoin
0 setlinecap
[] 0 setdash
0.000 0.000 1.000 setrgbcolor
gsave
334.8 217.4 54 36 clipbox
/o {
gsave
newpath
translate
1.0 setlinewidth
1 setlinejoin
0 setlinecap
0 -2.371708 m
0.628984 -2.371708 1.232292 -2.12181 1.677051 -1.677051 c
2.12181 -1.232292 2.371708 -0.628984 2.371708 0 c
2.371708 0.628984 2.12181 1.232292 1.677051 1.677051 c
1.232292 2.12181 0.628984 2.371708 0 2.371708 c
-0.628984 2.371708 -1.232292 2.12181 -1.677051 1.677051 c
-2.12181 1.232292 -2.371708 0.628984 -2.371708 0 c
-2.371708 -0.628984 -2.12181 -1.232292 -1.677051 -1.677051 c
-1.232292 -2.12181 -0.628984 -2.371708 0 -2.371708 c
cl

gsave
0.000 0.000 1.000 setrgbcolor
fill
grestore
stroke
grestore
} bind def
258.024 235.853 o
170.382 66.4785 o
157.719 81.2083 o
227.021 184.713 o
262.936 234.402 o
199.637 101.637 o
318.746 95.6296 o
255.538 235.492 o
211.988 137.817 o
193.018 86.0838 o
182.565 69.8644 o
264.983 232.958 o
202.94 110.59 o
122.013 182.394 o
194.284 88.7788 o
266.893 231.173 o
148.244 102.588 o
146.741 106.614 o
222.799 172.003 o
222.858 172.185 o
grestore
gsave
334.8 217.4 54 36 clipbox
/o {
gsave
newpath
translate
1.0 setlinewidth
1 setlinejoin
0 setlinecap
69.218182 195.557383 m
69.218182 236.112028 l
71.888038 238.365326 l
74.557895 240.289581 l
77.227751 241.824247 l
79.897608 242.913198 l
82.567464 243.505537 l
85.237321 243.556364 l
87.907177 243.027454 l
90.577033 241.887867 l
93.24689 240.114448 l
95.916746 237.692236 l
98.586603 234.614755 l
101.256459 230.884197 l
103.926316 226.511482 l
106.596172 221.516202 l
109.266029 215.926447 l
111.935885 209.778515 l
114.605742 203.116527 l
117.275598 195.991971 l
119.945455 188.463583 l
122.615311 180.613669 l
125.285167 172.522221 l
127.955024 164.207842 l
130.62488 155.752958 l
133.294737 147.244157 l
135.964593 138.768208 l
138.63445 130.411132 l
141.304306 122.257419 l
143.974163 114.389342 l
146.644019 106.886419 l
149.313876 99.824677 l
151.983732 93.273907 l
154.653589 87.297412 l
157.323445 81.954104 l
159.993301 77.297449 l
162.663158 73.374308 l
165.333014 70.22424 l
168.002871 67.879002 l
170.672727 66.362165 l
173.342584 65.688879 l
176.01244 65.865767 l
178.682297 66.890932 l
181.352153 68.754017 l
184.02201 71.436333 l
186.691866 74.911053 l
189.361722 79.143479 l
192.031579 84.091394 l
194.701435 89.705467 l
197.371292 95.929697 l
200.041148 102.701906 l
202.711005 109.954349 l
205.380861 117.614445 l
208.050718 125.605561 l
210.720574 133.847806 l
213.390431 142.258841 l
216.060287 150.754713 l
218.730144 159.25073 l
221.4 167.662324 l
224.069856 175.905782 l
226.739713 183.89882 l
229.409569 191.561331 l
232.079426 198.816383 l
234.749282 205.591124 l
237.419139 211.817547 l
240.088995 217.433174 l
242.758852 222.38171 l
245.428708 226.613626 l
248.098565 230.086693 l
250.768421 232.766433 l
253.438278 234.626479 l
256.108134 235.648767 l
258.77799 235.823493 l
261.447847 235.149068 l
264.117703 233.632977 l
266.78756 231.293382 l
269.457416 228.156288 l
272.127273 224.253976 l
274.797129 219.626628 l
277.466986 214.321812 l
280.136842 208.393699 l
282.806699 201.902318 l
285.476555 194.912772 l
288.146411 187.494404 l
290.816268 179.719905 l
293.486124 171.66438 l
296.155981 163.404384 l
298.825837 155.016939 l
301.495694 146.578552 l
304.16555 138.164236 l
306.835407 129.846568 l
309.505263 121.694775 l
312.17512 113.773887 l
314.844976 106.143955 l
317.514833 98.859571 l
320.184689 92.308072 l
322.854545 86.643588 l
325.524402 81.687655 l
328.194258 77.502995 l
330.864115 74.146361 l
333.533971 71.667894 l
336.203828 70.110683 l
338.873684 69.510416 l
341.543541 69.895102 l
344.213397 71.284865 l
346.883254 73.691822 l
349.55311 77.120041 l
352.222967 81.565563 l
354.892823 87.016523 l
357.562679 93.453331 l
360.232536 100.84893 l
362.902392 109.169133 l
365.572249 118.373012 l
368.242105 128.41336 l
370.911962 139.237202 l
373.581818 150.78636 l
373.581818 46.79928 l
373.581818 46.79928 l
370.911962 46.53668 l
368.242105 46.260522 l
365.572249 46.024643 l
362.902392 45.883636 l
360.232536 45.892078 l
357.562679 46.103721 l
354.892823 46.570683 l
352.222967 47.342625 l
349.55311 48.465949 l
346.883254 49.983024 l
344.213397 51.931444 l
341.543541 54.343346 l
338.873684 57.244793 l
336.203828 60.655226 l
333.533971 64.58701 l
330.864115 69.045077 l
328.194258 74.026665 l
325.524402 79.521169 l
322.854545 85.510096 l
320.184689 91.966979 l
317.514833 98.610969 l
314.844976 105.481533 l
312.17512 112.840129 l
309.505263 120.605474 l
306.835407 128.693109 l
304.16555 137.016377 l
301.495694 145.487218 l
298.825837 154.016967 l
296.155981 162.517152 l
293.486124 170.900296 l
290.816268 179.080708 l
288.146411 186.975261 l
285.476555 194.504142 l
282.806699 201.591581 l
280.136842 208.166534 l
277.466986 214.163328 l
274.797129 219.522254 l
272.127273 224.190092 l
269.457416 228.120542 l
266.78756 231.27446 l
264.117703 233.620208 l
261.447847 235.135973 l
258.77799 235.808727 l
256.108134 235.631722 l
253.438278 234.606262 l
250.768421 232.74253 l
248.098565 230.059346 l
245.428708 226.583737 l
242.758852 222.350583 l
240.088995 217.40226 l
237.419139 211.788223 l
234.749282 205.564522 l
232.079426 198.793248 l
229.409569 191.541912 l
226.739713 183.882764 l
224.069856 175.892092 l
221.4 167.649585 l
218.730144 159.237732 l
216.060287 150.740924 l
213.390431 142.244344 l
210.720574 133.83302 l
208.050718 125.590994 l
205.380861 117.600528 l
202.711005 109.94131 l
200.041148 102.689679 l
197.371292 95.917897 l
194.701435 89.693497 l
192.031579 84.078665 l
189.361722 79.129613 l
186.691866 74.895945 l
184.02201 71.42011 l
181.352153 68.736954 l
178.682297 66.87336 l
176.01244 65.847976 l
173.342584 65.671013 l
170.672727 66.344159 l
168.002871 67.860588 l
165.333014 70.205094 l
162.663158 73.354283 l
159.993301 77.276805 l
157.323445 81.933609 l
154.653589 87.27824 l
151.983732 93.257102 l
149.313876 99.809392 l
146.644019 106.867289 l
143.974163 114.359404 l
141.304306 122.212 l
138.63445 130.347805 l
135.964593 138.68691 l
133.294737 147.147934 l
130.62488 155.649059 l
127.955024 164.109005 l
125.285167 172.447851 l
122.615311 180.584779 l
119.945455 188.380098 l
117.275598 195.762081 l
114.605742 202.669434 l
111.935885 209.026846 l
109.266029 214.762643 l
106.596172 219.809852 l
103.926316 224.106801 l
101.256459 227.597615 l
98.586603 230.232644 l
95.916746 231.968835 l
93.24689 232.77004 l
90.577033 232.607253 l
87.907177 231.458789 l
85.237321 229.310397 l
82.567464 226.1553 l
79.897608 221.994178 l
77.227751 216.835078 l
74.557895 210.693269 l
71.888038 203.591031 l
69.218182 195.557383 l
cl

gsave
0.000 0.000 1.000 setrgbcolor
fill
grestore
stroke
grestore
} bind def
0 0 o
grestore
0.800 setlinewidth
0.000 setgray
gsave
/o {
gsave
newpath
translate
0.8 setlinewidth
1 setlinejoin
0 setlinecap
0 0 m
0 -3.5 l

gsave
0.000 setgray
fill
grestore
stroke
grestore
} bind def
55.8689 36 o
grestore
/DejaVuSans-Bold findfont
12.000 scalefont
setfont
gsave
46.665775 19.875000 translate
0.000000 rotate
0.000000 0.000000 m /minus glyphshow
10.054688 0.000000 m /six glyphshow
grestore
gsave
/o {
gsave
newpath
translate
0.8 setlinewidth
1 setlinejoin
0 setlinecap
0 0 m
0 -3.5 l

gsave
0.000 setgray
fill
grestore
stroke
grestore
} bind def
109.266 36 o
grestore
gsave
100.062904 19.875000 translate
0.000000 rotate
0.000000 0.000000 m /minus glyphshow
10.054688 0.000000 m /four glyphshow
grestore
gsave
/o {
gsave
newpath
translate
0.8 setlinewidth
1 setlinejoin
0 setlinecap
0 0 m
0 -3.5 l

gsave
0.000 setgray
fill
grestore
stroke
grestore
} bind def
162.663 36 o
grestore
gsave
153.460033 19.875000 translate
0.000000 rotate
0.000000 0.000000 m /minus glyphshow
10.054688 0.000000 m /two glyphshow
grestore
gsave
/o {
gsave
newpath
translate
0.8 setlinewidth
1 setlinejoin
0 setlinecap
0 0 m
0 -3.5 l

gsave
0.000 setgray
fill
grestore
stroke
grestore
} bind def
216.06 36 o
grestore
gsave
211.888412 19.875000 translate
0.000000 rotate
0.000000 0.000000 m /zero glyphshow
grestore
gsave
/o {
gsave
newpath
translate
0.8 setlinewidth
1 setlinejoin
0 setlinecap
0 0 m
0 -3.5 l

gsave
0.000 setgray
fill
grestore
stroke
grestore
} bind def
269.457 36 o
grestore
gsave
265.285541 19.875000 translate
0.000000 rotate
0.000000 0.000000 m /two glyphshow
grestore
gsave
/o {
gsave
newpath
translate
0.8 setlinewidth
1 setlinejoin
0 setlinecap
0 0 m
0 -3.5 l

gsave
0.000 setgray
fill
grestore
stroke
grestore
} bind def
322.855 36 o
grestore
gsave
318.682670 19.875000 translate
0.000000 rotate
0.000000 0.000000 m /four glyphshow
grestore
gsave
/o {
gsave
newpath
translate
0.8 setlinewidth
1 setlinejoin
0 setlinecap
0 0 m
0 -3.5 l

gsave
0.000 setgray
fill
grestore
stroke
grestore
} bind def
376.252 36 o
grestore
gsave
372.079800 19.875000 translate
0.000000 rotate
0.000000 0.000000 m /six glyphshow
grestore
gsave
216.775000 4.250000 translate
0.000000 rotate
0.000000 0.000000 m /X glyphshow
grestore
gsave
/o {
gsave
newpath
translate
0.8 setlinewidth
1 setlinejoin
0 setlinecap
0 0 m
-3.5 0 l

gsave
0.000 setgray
fill
grestore
stroke
grestore
} bind def
54 65.6448 o
grestore
gsave
15.687500 61.082279 translate
0.000000 rotate
0.000000 0.000000 m /minus glyphshow
10.054688 0.000000 m /one glyphshow
18.404297 0.000000 m /period glyphshow
22.962891 0.000000 m /zero glyphshow
grestore
gsave
/o {
gsave
newpath
translate
0.8 setlinewidth
1 setlinejoin
0 setlinecap
0 0 m
-3.5 0 l

gsave
0.000 setgray
fill
grestore
stroke
grestore
} bind def
54 108.197 o
grestore
gsave
15.687500 103.634340 translate
0.000000 rotate
0.000000 0.000000 m /minus glyphshow
10.054688 0.000000 m /zero glyphshow
18.404297 0.000000 m /period glyphshow
22.962891 0.000000 m /five glyphshow
grestore
gsave
/o {
gsave
newpath
translate
0.8 setlinewidth
1 setlinejoin
0 setlinecap
0 0 m
-3.5 0 l

gsave
0.000 setgray
fill
grestore
stroke
grestore
} bind def
54 150.749 o
grestore
gsave
25.750000 146.186401 translate
0.000000 rotate
0.000000 0.000000 m /zero glyphshow
8.349609 0.000000 m /period glyphshow
12.908203 0.000000 m /zero glyphshow
grestore
gsave
/o {
gsave
newpath
translate
0.8 setlinewidth
1 setlinejoin
0 setlinecap
0 0 m
-3.5 0 l

gsave
0.000 setgray
fill
grestore
stroke
grestore
} bind def
54 193.301 o
grestore
gsave
25.750000 188.738463 translate
0.000000 rotate
0.000000 0.000000 m /zero glyphshow
8.349609 0.000000 m /period glyphshow
12.908203 0.000000 m /five glyphshow
grestore
gsave
/o {
gsave
newpath
translate
0.8 setlinewidth
1 setlinejoin
0 setlinecap
0 0 m
-3.5 0 l

gsave
0.000 setgray
fill
grestore
stroke
grestore
} bind def
54 235.853 o
grestore
gsave
25.750000 231.290524 translate
0.000000 rotate
0.000000 0.000000 m /one glyphshow
8.349609 0.000000 m /period glyphshow
12.908203 0.000000 m /zero glyphshow
grestore
gsave
9.187500 140.368437 translate
90.000000 rotate
0.000000 0.000000 m /Z glyphshow
grestore
2.000 setlinewidth
2 setlinecap
0.392 0.584 1.000 setrgbcolor
gsave
334.8 217.4 54 36 clipbox
69.218182 215.834706 m
71.888038 220.978179 l
74.557895 225.491425 l
77.227751 229.329663 l
79.897608 232.453688 l
82.567464 234.830419 l
85.237321 236.43338 l
87.907177 237.243122 l
90.577033 237.24756 l
93.24689 236.442244 l
95.916746 234.830536 l
98.586603 232.423699 l
101.256459 229.240906 l
103.926316 225.309141 l
106.596172 220.663027 l
109.266029 215.344545 l
111.935885 209.402681 l
114.605742 202.892981 l
117.275598 195.877026 l
119.945455 188.42184 l
122.615311 180.599224 l
125.285167 172.485036 l
127.955024 164.158424 l
130.62488 155.701008 l
133.294737 147.196045 l
135.964593 138.727559 l
138.63445 130.379468 l
141.304306 122.234709 l
143.974163 114.374373 l
146.644019 106.876854 l
149.313876 99.817035 l
151.983732 93.265504 l
154.653589 87.287826 l
157.323445 81.943856 l
159.993301 77.287127 l
162.663158 73.364296 l
165.333014 70.214667 l
168.002871 67.869795 l
170.672727 66.353162 l
173.342584 65.679946 l
176.01244 65.856871 l
178.682297 66.882146 l
181.352153 68.745485 l
184.02201 71.428222 l
186.691866 74.903499 l
189.361722 79.136546 l
192.031579 84.085029 l
194.701435 89.699482 l
197.371292 95.923797 l
200.041148 102.695793 l
202.711005 109.94783 l
205.380861 117.607486 l
208.050718 125.598277 l
210.720574 133.840413 l
213.390431 142.251592 l
216.060287 150.747818 l
218.730144 159.244231 l
221.4 167.655955 l
224.069856 175.898937 l
226.739713 183.890792 l
229.409569 191.551621 l
232.079426 198.804815 l
234.749282 205.577823 l
237.419139 211.802885 l
240.088995 217.417717 l
242.758852 222.366147 l
245.428708 226.598682 l
248.098565 230.073019 l
250.768421 232.754482 l
253.438278 234.616371 l
256.108134 235.640245 l
258.77799 235.81611 l
261.447847 235.142521 l
264.117703 233.626592 l
266.78756 231.283921 l
269.457416 228.138415 l
272.127273 224.222034 l
274.797129 219.574441 l
277.466986 214.24257 l
280.136842 208.280117 l
282.806699 201.746949 l
285.476555 194.708457 l
288.146411 187.234832 l
290.816268 179.400307 l
293.486124 171.282338 l
296.155981 162.960768 l
298.825837 154.516953 l
301.495694 146.032885 l
304.16555 137.590306 l
306.835407 129.269838 l
309.505263 121.150124 l
312.17512 113.307008 l
314.844976 105.812744 l
317.514833 98.73527 l
320.184689 92.137525 l
322.854545 86.076842 l
325.524402 80.604412 l
328.194258 75.76483 l
330.864115 71.595719 l
333.533971 68.127452 l
336.203828 65.382954 l
338.873684 63.377605 l
341.543541 62.119224 l
344.213397 61.608154 l
346.883254 61.837423 l
349.55311 62.792995 l
352.222967 64.454094 l
354.892823 66.793603 l
357.562679 69.778526 l
360.232536 73.370504 l
362.902392 77.526385 l
365.572249 82.198827 l
368.242105 87.336941 l
370.911962 92.886941 l
373.581818 98.79282 l
stroke
grestore
0 setlinejoin
[] 0 setdash
0.000 setgray
gsave
54 36 m
54 253.44 l
stroke
grestore
gsave
388.8 36 m
388.8 253.44 l
stroke
grestore
gsave
54 36 m
388.8 36 l
stroke
grestore
gsave
54 253.44 m
388.8 253.44 l
stroke
grestore
1.000 setlinewidth
0 setlinecap
0.800 setgray
gsave
287.012 202.075575 m
381.902625 202.075575 l
383.235958 202.075575 383.902625 202.742242 383.902625 204.075575 c
383.902625 247.0912 l
383.902625 248.424533 383.235958 249.0912 381.902625 249.0912 c
287.012 249.0912 l
285.678667 249.0912 285.012 248.424533 285.012 247.0912 c
285.012 204.075575 l
285.012 202.742242 285.678667 202.075575 287.012 202.075575 c
cl
gsave
1.000 setgray
fill
grestore
stroke
grestore
2.000 setlinewidth
1 setlinejoin
2 setlinecap
[] 0 setdash
0.392 0.584 1.000 setrgbcolor
gsave
289.012 240.99745 m
309.012 240.99745 l
stroke
grestore
0.000 setgray
/DejaVuSans-Bold findfont
10.000 scalefont
setfont
gsave
317.012000 237.497450 translate
0.000000 rotate
0.000000 0.000000 m /m glyphshow
10.419922 0.000000 m /e glyphshow
17.202148 0.000000 m /a glyphshow
23.950195 0.000000 m /n glyphshow
grestore
1.000 setlinewidth
0 setlinecap
0.000 0.000 1.000 setrgbcolor
gsave
/o {
gsave
newpath
translate
1.0 setlinewidth
1 setlinejoin
0 setlinecap
0 -2.371708 m
0.628984 -2.371708 1.232292 -2.12181 1.677051 -1.677051 c
2.12181 -1.232292 2.371708 -0.628984 2.371708 0 c
2.371708 0.628984 2.12181 1.232292 1.677051 1.677051 c
1.232292 2.12181 0.628984 2.371708 0 2.371708 c
-0.628984 2.371708 -1.232292 2.12181 -1.677051 1.677051 c
-2.12181 1.232292 -2.371708 0.628984 -2.371708 0 c
-2.371708 -0.628984 -2.12181 -1.232292 -1.677051 -1.677051 c
-1.232292 -2.12181 -0.628984 -2.371708 0 -2.371708 c
cl

gsave
0.000 0.000 1.000 setrgbcolor
fill
grestore
stroke
grestore
} bind def
299.012 225.451 o
grestore
0.000 setgray
gsave
317.012000 222.825575 translate
0.000000 rotate
0.000000 0.000000 m /T glyphshow
6.805664 0.000000 m /r glyphshow
11.737305 0.000000 m /a glyphshow
18.485352 0.000000 m /i glyphshow
21.913086 0.000000 m /n glyphshow
29.032227 0.000000 m /space glyphshow
32.513672 0.000000 m /D glyphshow
40.814453 0.000000 m /a glyphshow
47.562500 0.000000 m /t glyphshow
52.342773 0.000000 m /a glyphshow
grestore
0 setlinejoin
[] 0 setdash
0.000 0.000 1.000 setrgbcolor
gsave
289.012 208.1537 m
309.012 208.1537 l
309.012 215.1537 l
289.012 215.1537 l
cl
gsave
fill
grestore
stroke
grestore
0.000 setgray
gsave
317.012000 208.153700 translate
0.000000 rotate
0.000000 0.000000 m /C glyphshow
7.338867 0.000000 m /o glyphshow
14.208984 0.000000 m /n glyphshow
21.328125 0.000000 m /f glyphshow
25.678711 0.000000 m /i glyphshow
29.106445 0.000000 m /d glyphshow
36.264648 0.000000 m /e glyphshow
43.046875 0.000000 m /n glyphshow
50.166016 0.000000 m /c glyphshow
56.093750 0.000000 m /e glyphshow
grestore

end
showpage
