%!PS-Adobe-3.0 EPSF-3.0
%%Title: ../img/gp2_mean_x_y.eps
%%Creator: matplotlib version 2.0.2, http://matplotlib.org/
%%CreationDate: Fri Jan  5 04:25:38 2018
%%Orientation: portrait
%%BoundingBox: 90 252 522 540
%%EndComments
%%BeginProlog
/mpldict 8 dict def
mpldict begin
/m { moveto } bind def
/l { lineto } bind def
/r { rlineto } bind def
/c { curveto } bind def
/cl { closepath } bind def
/box {
m
1 index 0 r
0 exch r
neg 0 r
cl
} bind def
/clipbox {
box
clip
newpath
} bind def
%!PS-Adobe-3.0 Resource-Font
%%Title: DejaVu Sans Bold
%%Copyright: Copyright (c) 2003 by Bitstream, Inc. All Rights Reserved. Copyright (c) 2006 by Tavmjong Bah. All Rights Reserved. DejaVu changes are in public domain 
%%Creator: Converted from TrueType to type 3 by PPR
25 dict begin
/_d{bind def}bind def
/_m{moveto}_d
/_l{lineto}_d
/_cl{closepath eofill}_d
/_c{curveto}_d
/_sc{7 -1 roll{setcachedevice}{pop pop pop pop pop pop}ifelse}_d
/_e{exec}_d
/FontName /DejaVuSans-Bold def
/PaintType 0 def
/FontMatrix[.001 0 0 .001 0 0]def
/FontBBox[-1069 -415 1975 1174]def
/FontType 3 def
/Encoding [ /space /period /zero /one /two /five /C /D /T /Y /Z /a /c /d /e /f /i /m /n /o /r /t /minus ] def
/FontInfo 10 dict dup begin
/FamilyName (DejaVu Sans) def
/FullName (DejaVu Sans Bold) def
/Notice (Copyright (c) 2003 by Bitstream, Inc. All Rights Reserved. Copyright (c) 2006 by Tavmjong Bah. All Rights Reserved. DejaVu changes are in public domain ) def
/Weight (Bold) def
/Version (Version 2.35) def
/ItalicAngle 0.0 def
/isFixedPitch false def
/UnderlinePosition -130 def
/UnderlineThickness 90 def
end readonly def
/CharStrings 23 dict dup begin
/space{348 0 0 0 0 0 _sc
}_d
/period{380 0 102 0 278 189 _sc
102 189 _m
278 189 _l
278 0 _l
102 0 _l
102 189 _l
_cl}_d
/zero{696 0 48 -13 648 742 _sc
460 365 _m
460 456 451 520 434 558 _c
417 595 388 614 348 614 _c
308 614 279 595 262 558 _c
244 520 236 456 236 365 _c
236 273 244 208 262 170 _c
279 132 308 114 348 114 _c
388 114 416 132 434 170 _c
451 208 460 273 460 365 _c
648 364 _m
648 243 622 150 570 85 _c
518 19 444 -13 348 -13 _c
252 -13 178 19 126 85 _c
74 150 48 243 48 364 _c
48 484 74 577 126 643 _c
178 709 252 742 348 742 _c
444 742 518 709 570 643 _c
622 577 648 484 648 364 _c
_cl}_d
/one{696 0 113 0 627 729 _sc
117 130 _m
283 130 _l
283 601 _l
113 566 _l
113 694 _l
282 729 _l
461 729 _l
461 130 _l
627 130 _l
627 0 _l
117 0 _l
117 130 _l
_cl}_d
/two{696 0 79 0 609 742 _sc
288 138 _m
609 138 _l
609 0 _l
79 0 _l
79 138 _l
345 373 _l
369 394 386 415 398 436 _c
409 456 415 478 415 500 _c
415 534 403 561 380 582 _c
357 603 327 614 289 614 _c
259 614 227 607 193 595 _c
158 582 121 563 81 539 _c
81 699 _l
123 713 165 723 207 731 _c
248 738 288 742 328 742 _c
415 742 483 722 531 684 _c
579 646 604 592 604 524 _c
604 484 593 446 573 412 _c
552 378 509 332 444 275 _c
288 138 _l
_cl}_d
/five{{696 0 77 -13 626 729 _sc
106 729 _m
573 729 _l
573 591 _l
256 591 _l
256 478 _l
270 482 284 485 299 487 _c
313 489 328 490 344 490 _c
433 490 502 467 552 423 _c
601 379 626 317 626 238 _c
626 159 599 97 545 53 _c
491 9 416 -13 321 -13 _c
279 -13 238 -9 198 -1 _c
157 6 117 18 77 34 _c
77 182 _l
117 159 154 142 190 131 _c
226 119 259 114 291 114 _c
}_e{336 114 372 125 398 147 _c
424 169 438 200 438 238 _c
438 276 424 306 398 328 _c
372 350 336 362 291 362 _c
263 362 234 358 204 351 _c
174 344 141 333 106 319 _c
106 729 _l
_cl}_e}_d
/C{{734 0 50 -13 670 742 _sc
670 40 _m
635 22 599 8 562 0 _c
524 -8 485 -13 445 -13 _c
323 -13 227 20 156 88 _c
85 155 50 247 50 364 _c
50 480 85 572 156 640 _c
227 708 323 742 445 742 _c
485 742 524 737 562 728 _c
599 719 635 706 670 688 _c
670 537 _l
635 561 601 578 567 589 _c
533 600 497 606 460 606 _c
392 606 339 584 301 541 _c
263 498 244 439 244 364 _c
}_e{244 288 263 229 301 186 _c
339 143 392 122 460 122 _c
497 122 533 127 567 138 _c
601 149 635 167 670 191 _c
670 40 _l
_cl}_e}_d
/D{830 0 92 0 778 729 _sc
280 587 _m
280 142 _l
347 142 _l
423 142 482 161 523 199 _c
563 237 584 292 584 365 _c
584 437 563 492 523 530 _c
483 568 424 587 347 587 _c
280 587 _l
92 729 _m
290 729 _l
400 729 483 721 537 705 _c
591 689 638 663 677 625 _c
711 592 736 554 753 511 _c
769 468 778 419 778 365 _c
778 310 769 261 753 218 _c
736 174 711 136 677 104 _c
637 66 590 39 536 23 _c
481 7 399 0 290 0 _c
92 0 _l
92 729 _l
_cl}_d
/T{682 0 5 0 677 729 _sc
5 729 _m
677 729 _l
677 587 _l
435 587 _l
435 0 _l
247 0 _l
247 587 _l
5 587 _l
5 729 _l
_cl}_d
/Y{724 0 -9 0 734 729 _sc
-9 729 _m
196 729 _l
362 469 _l
528 729 _l
734 729 _l
456 307 _l
456 0 _l
268 0 _l
268 307 _l
-9 729 _l
_cl}_d
/Z{725 0 45 0 680 729 _sc
56 729 _m
669 729 _l
669 615 _l
278 142 _l
680 142 _l
680 0 _l
45 0 _l
45 114 _l
436 587 _l
56 587 _l
56 729 _l
_cl}_d
/a{{675 0 43 -13 596 560 _sc
329 246 _m
292 246 264 239 246 227 _c
228 215 219 197 219 173 _c
219 151 226 133 241 121 _c
256 108 277 102 303 102 _c
336 102 364 113 386 137 _c
408 161 420 190 420 226 _c
420 246 _l
329 246 _l
596 312 _m
596 0 _l
420 0 _l
420 81 _l
396 47 370 23 341 9 _c
311 -5 276 -13 234 -13 _c
177 -13 131 3 96 36 _c
60 68 43 111 43 164 _c
}_e{43 228 65 275 109 305 _c
153 335 222 350 317 350 _c
420 350 _l
420 364 _l
420 391 409 411 387 424 _c
365 437 331 444 285 444 _c
247 444 212 440 180 432 _c
148 424 118 413 91 399 _c
91 532 _l
128 541 165 548 203 553 _c
241 557 279 560 317 560 _c
415 560 486 540 530 501 _c
574 462 596 399 596 312 _c
_cl}_e}_d
/c{{593 0 43 -13 526 560 _sc
526 530 _m
526 387 _l
502 403 478 415 454 423 _c
430 431 405 435 380 435 _c
331 435 293 420 266 392 _c
238 364 225 324 225 273 _c
225 221 238 181 266 153 _c
293 125 331 111 380 111 _c
407 111 433 115 458 123 _c
482 131 505 143 526 159 _c
526 16 _l
498 6 470 -1 442 -6 _c
414 -10 386 -13 358 -13 _c
259 -13 182 12 126 62 _c
}_e{70 112 43 183 43 273 _c
43 363 70 433 126 484 _c
182 534 259 560 358 560 _c
386 560 414 557 442 552 _c
470 547 498 540 526 530 _c
_cl}_e}_d
/d{{716 0 45 -13 632 760 _sc
456 467 _m
456 760 _l
632 760 _l
632 0 _l
456 0 _l
456 79 _l
432 47 405 23 376 9 _c
347 -5 314 -13 276 -13 _c
208 -13 153 13 110 66 _c
66 119 45 188 45 273 _c
45 357 66 425 110 479 _c
153 533 208 560 276 560 _c
314 560 347 552 376 537 _c
405 522 432 499 456 467 _c
341 113 _m
378 113 406 126 426 154 _c
446 181 456 221 456 273 _c
}_e{456 325 446 364 426 392 _c
406 419 378 433 341 433 _c
303 433 275 419 255 392 _c
235 364 226 325 226 273 _c
226 221 235 181 255 154 _c
275 126 303 113 341 113 _c
_cl}_e}_d
/e{{678 0 43 -13 630 560 _sc
630 275 _m
630 225 _l
221 225 _l
225 184 240 153 266 133 _c
291 112 326 102 372 102 _c
408 102 446 107 485 118 _c
523 129 563 146 604 168 _c
604 33 _l
562 17 521 6 480 -1 _c
438 -9 397 -13 356 -13 _c
257 -13 180 12 125 62 _c
70 112 43 182 43 273 _c
43 362 70 432 124 483 _c
178 534 252 560 346 560 _c
432 560 500 534 552 482 _c
}_e{604 430 630 361 630 275 _c
450 333 _m
450 366 440 393 421 413 _c
401 433 376 444 345 444 _c
311 444 283 434 262 415 _c
241 396 228 369 223 333 _c
450 333 _l
_cl}_e}_d
/f{435 0 19 0 444 760 _sc
444 760 _m
444 645 _l
347 645 _l
322 645 305 640 295 631 _c
285 622 281 607 281 585 _c
281 547 _l
430 547 _l
430 422 _l
281 422 _l
281 0 _l
106 0 _l
106 422 _l
19 422 _l
19 547 _l
106 547 _l
106 585 _l
106 644 122 688 156 717 _c
189 745 240 760 310 760 _c
444 760 _l
_cl}_d
/i{343 0 84 0 259 760 _sc
84 547 _m
259 547 _l
259 0 _l
84 0 _l
84 547 _l
84 760 _m
259 760 _l
259 617 _l
84 617 _l
84 760 _l
_cl}_d
/m{{1042 0 83 0 963 560 _sc
591 456 _m
613 490 639 515 669 533 _c
699 551 733 560 770 560 _c
832 560 880 540 913 502 _c
946 463 963 407 963 333 _c
963 0 _l
787 0 _l
787 285 _l
787 289 788 294 788 298 _c
788 302 788 309 788 318 _c
788 356 782 384 771 402 _c
759 419 741 428 716 428 _c
682 428 657 414 639 387 _c
621 359 611 320 611 269 _c
611 0 _l
435 0 _l
435 285 _l
}_e{435 345 429 384 419 402 _c
409 419 390 428 364 428 _c
330 428 304 414 286 387 _c
268 359 259 320 259 269 _c
259 0 _l
83 0 _l
83 547 _l
259 547 _l
259 467 _l
280 497 305 520 333 536 _c
361 552 391 560 425 560 _c
462 560 495 550 524 532 _c
553 514 575 488 591 456 _c
_cl}_e}_d
/n{712 0 84 0 634 560 _sc
634 333 _m
634 0 _l
458 0 _l
458 54 _l
458 255 _l
458 302 457 334 455 352 _c
453 370 449 383 444 392 _c
437 403 428 412 416 418 _c
404 424 390 428 376 428 _c
339 428 310 414 290 386 _c
269 358 259 319 259 269 _c
259 0 _l
84 0 _l
84 547 _l
259 547 _l
259 467 _l
285 499 312 522 342 537 _c
372 552 405 560 441 560 _c
504 560 552 540 585 502 _c
617 463 634 407 634 333 _c
_cl}_d
/o{687 0 43 -13 644 560 _sc
344 435 _m
305 435 275 421 255 393 _c
235 365 225 325 225 273 _c
225 220 235 180 255 152 _c
275 124 305 111 344 111 _c
382 111 411 124 431 152 _c
451 180 462 220 462 273 _c
462 325 451 365 431 393 _c
411 421 382 435 344 435 _c
344 560 _m
438 560 511 534 564 484 _c
617 433 644 363 644 273 _c
644 183 617 112 564 62 _c
511 12 438 -13 344 -13 _c
250 -13 176 12 123 62 _c
69 112 43 183 43 273 _c
43 363 69 433 123 484 _c
176 534 250 560 344 560 _c
_cl}_d
/r{493 0 84 0 490 560 _sc
490 398 _m
474 405 459 410 444 414 _c
429 417 414 419 399 419 _c
354 419 319 404 295 376 _c
271 347 259 306 259 252 _c
259 0 _l
84 0 _l
84 547 _l
259 547 _l
259 457 _l
281 493 306 519 336 535 _c
365 551 400 560 441 560 _c
447 560 453 559 460 559 _c
466 559 476 558 490 556 _c
490 398 _l
_cl}_d
/t{478 0 13 0 455 702 _sc
275 702 _m
275 547 _l
455 547 _l
455 422 _l
275 422 _l
275 190 _l
275 164 280 147 290 138 _c
300 129 320 125 350 125 _c
440 125 _l
440 0 _l
290 0 _l
221 0 172 14 143 43 _c
114 71 100 120 100 190 _c
100 422 _l
13 422 _l
13 547 _l
100 547 _l
100 702 _l
275 702 _l
_cl}_d
/minus{838 0 106 256 732 371 _sc
106 371 _m
732 371 _l
732 256 _l
106 256 _l
106 371 _l
_cl}_d
end readonly def

/BuildGlyph
 {exch begin
 CharStrings exch
 2 copy known not{pop /.notdef}if
 true 3 1 roll get exec
 end}_d

/BuildChar {
 1 index /Encoding get exch get
 1 index /BuildGlyph get exec
}_d

FontName currentdict end definefont pop
end
%%EndProlog
mpldict begin
90 252 translate
432 288 0 0 clipbox
gsave
0 0 m
432 0 l
432 288 l
0 288 l
cl
1.000 setgray
fill
grestore
gsave
54 36 m
388.8 36 l
388.8 253.44 l
54 253.44 l
cl
1.000 setgray
fill
grestore
1.000 setlinewidth
1 setlinejoin
0 setlinecap
[] 0 setdash
0.000 0.000 1.000 setrgbcolor
gsave
334.8 217.4 54 36 clipbox
/o {
gsave
newpath
translate
1.0 setlinewidth
1 setlinejoin
0 setlinecap
0 -2.371708 m
0.628984 -2.371708 1.232292 -2.12181 1.677051 -1.677051 c
2.12181 -1.232292 2.371708 -0.628984 2.371708 0 c
2.371708 0.628984 2.12181 1.232292 1.677051 1.677051 c
1.232292 2.12181 0.628984 2.371708 0 2.371708 c
-0.628984 2.371708 -1.232292 2.12181 -1.677051 1.677051 c
-2.12181 1.232292 -2.371708 0.628984 -2.371708 0 c
-2.371708 -0.628984 -2.12181 -1.232292 -1.677051 -1.677051 c
-1.232292 -2.12181 -0.628984 -2.371708 0 -2.371708 c
cl

gsave
0.000 0.000 1.000 setrgbcolor
fill
grestore
stroke
grestore
} bind def
331.601 133.716 o
122.723 132.004 o
140.888 104.531 o
268.533 59.8769 o
329.811 130.746 o
166.081 75.1371 o
158.673 82.7302 o
331.155 132.973 o
210.7 47.9166 o
146.901 96.596 o
126.898 125.223 o
328.03 127.842 o
177.122 65.4453 o
265.673 58.0318 o
150.224 92.4575 o
325.829 124.323 o
167.255 74.015 o
172.22 69.5091 o
252.859 51.3665 o
253.083 51.4607 o
grestore
gsave
334.8 217.4 54 36 clipbox
/o {
gsave
newpath
translate
1.0 setlinewidth
1 setlinejoin
0 setlinecap
69.218182 243.425088 m
69.218182 243.556364 l
79.71348 218.069017 l
90.208777 194.34233 l
100.704075 172.375799 l
111.199373 152.169035 l
121.694671 133.721242 l
132.189969 117.032133 l
142.685266 102.101255 l
153.180564 88.927164 l
163.675862 77.509085 l
174.17116 67.848033 l
184.666458 59.943983 l
195.161755 53.796406 l
205.657053 49.40547 l
216.152351 46.770814 l
226.647649 45.892566 l
237.142947 46.770261 l
247.638245 49.404967 l
258.133542 53.79596 l
268.62884 59.945033 l
279.124138 67.851081 l
289.619436 77.5134 l
300.114734 88.93151 l
310.610031 102.105087 l
321.105329 117.033574 l
331.600627 133.719381 l
342.095925 152.168259 l
352.591223 172.377303 l
363.08652 194.346759 l
373.581818 218.076839 l
373.581818 217.967613 l
373.581818 217.967613 l
363.08652 194.277327 l
352.591223 172.337824 l
342.095925 152.149556 l
331.600627 133.713066 l
321.105329 117.025724 l
310.610031 102.093429 l
300.114734 88.918809 l
289.619436 77.501511 l
279.124138 67.84128 l
268.62884 59.937783 l
258.133542 53.79041 l
247.638245 49.398103 l
237.142947 46.762765 l
226.647649 45.883636 l
216.152351 46.761884 l
205.657053 49.396956 l
195.161755 53.789032 l
184.666458 59.937668 l
174.17116 67.842996 l
163.675862 77.504422 l
153.180564 88.921779 l
142.685266 102.096041 l
132.189969 117.026265 l
121.694671 133.710814 l
111.199373 152.149067 l
100.704075 172.34054 l
90.208777 194.284162 l
79.71348 217.979253 l
69.218182 243.425088 l
cl

gsave
0.000 0.000 1.000 setrgbcolor
fill
grestore
stroke
grestore
} bind def
0 0 o
grestore
0.800 setlinewidth
0.000 setgray
gsave
/o {
gsave
newpath
translate
0.8 setlinewidth
1 setlinejoin
0 setlinecap
0 0 m
0 -3.5 l

gsave
0.000 setgray
fill
grestore
stroke
grestore
} bind def
69.2182 36 o
grestore
/DejaVuSans-Bold findfont
12.000 scalefont
setfont
gsave
53.561932 19.875000 translate
0.000000 rotate
0.000000 0.000000 m /minus glyphshow
10.054688 0.000000 m /one glyphshow
18.404297 0.000000 m /period glyphshow
22.962891 0.000000 m /five glyphshow
grestore
gsave
/o {
gsave
newpath
translate
0.8 setlinewidth
1 setlinejoin
0 setlinecap
0 0 m
0 -3.5 l

gsave
0.000 setgray
fill
grestore
stroke
grestore
} bind def
121.695 36 o
grestore
gsave
106.038421 19.875000 translate
0.000000 rotate
0.000000 0.000000 m /minus glyphshow
10.054688 0.000000 m /one glyphshow
18.404297 0.000000 m /period glyphshow
22.962891 0.000000 m /zero glyphshow
grestore
gsave
/o {
gsave
newpath
translate
0.8 setlinewidth
1 setlinejoin
0 setlinecap
0 0 m
0 -3.5 l

gsave
0.000 setgray
fill
grestore
stroke
grestore
} bind def
174.171 36 o
grestore
gsave
158.514910 19.875000 translate
0.000000 rotate
0.000000 0.000000 m /minus glyphshow
10.054688 0.000000 m /zero glyphshow
18.404297 0.000000 m /period glyphshow
22.962891 0.000000 m /five glyphshow
grestore
gsave
/o {
gsave
newpath
translate
0.8 setlinewidth
1 setlinejoin
0 setlinecap
0 0 m
0 -3.5 l

gsave
0.000 setgray
fill
grestore
stroke
grestore
} bind def
226.648 36 o
grestore
gsave
216.022649 19.875000 translate
0.000000 rotate
0.000000 0.000000 m /zero glyphshow
8.349609 0.000000 m /period glyphshow
12.908203 0.000000 m /zero glyphshow
grestore
gsave
/o {
gsave
newpath
translate
0.8 setlinewidth
1 setlinejoin
0 setlinecap
0 0 m
0 -3.5 l

gsave
0.000 setgray
fill
grestore
stroke
grestore
} bind def
279.124 36 o
grestore
gsave
268.499138 19.875000 translate
0.000000 rotate
0.000000 0.000000 m /zero glyphshow
8.349609 0.000000 m /period glyphshow
12.908203 0.000000 m /five glyphshow
grestore
gsave
/o {
gsave
newpath
translate
0.8 setlinewidth
1 setlinejoin
0 setlinecap
0 0 m
0 -3.5 l

gsave
0.000 setgray
fill
grestore
stroke
grestore
} bind def
331.601 36 o
grestore
gsave
320.975627 19.875000 translate
0.000000 rotate
0.000000 0.000000 m /one glyphshow
8.349609 0.000000 m /period glyphshow
12.908203 0.000000 m /zero glyphshow
grestore
gsave
/o {
gsave
newpath
translate
0.8 setlinewidth
1 setlinejoin
0 setlinecap
0 0 m
0 -3.5 l

gsave
0.000 setgray
fill
grestore
stroke
grestore
} bind def
384.077 36 o
grestore
gsave
373.452116 19.875000 translate
0.000000 rotate
0.000000 0.000000 m /one glyphshow
8.349609 0.000000 m /period glyphshow
12.908203 0.000000 m /five glyphshow
grestore
gsave
217.048438 4.250000 translate
0.000000 rotate
0.000000 0.000000 m /Z glyphshow
grestore
gsave
/o {
gsave
newpath
translate
0.8 setlinewidth
1 setlinejoin
0 setlinecap
0 0 m
-3.5 0 l

gsave
0.000 setgray
fill
grestore
stroke
grestore
} bind def
54 45.8887 o
grestore
gsave
25.750000 41.326164 translate
0.000000 rotate
0.000000 0.000000 m /zero glyphshow
8.349609 0.000000 m /period glyphshow
12.908203 0.000000 m /zero glyphshow
grestore
gsave
/o {
gsave
newpath
translate
0.8 setlinewidth
1 setlinejoin
0 setlinecap
0 0 m
-3.5 0 l

gsave
0.000 setgray
fill
grestore
stroke
grestore
} bind def
54 89.8025 o
grestore
gsave
25.750000 85.240041 translate
0.000000 rotate
0.000000 0.000000 m /zero glyphshow
8.349609 0.000000 m /period glyphshow
12.908203 0.000000 m /five glyphshow
grestore
gsave
/o {
gsave
newpath
translate
0.8 setlinewidth
1 setlinejoin
0 setlinecap
0 0 m
-3.5 0 l

gsave
0.000 setgray
fill
grestore
stroke
grestore
} bind def
54 133.716 o
grestore
gsave
25.750000 129.153918 translate
0.000000 rotate
0.000000 0.000000 m /one glyphshow
8.349609 0.000000 m /period glyphshow
12.908203 0.000000 m /zero glyphshow
grestore
gsave
/o {
gsave
newpath
translate
0.8 setlinewidth
1 setlinejoin
0 setlinecap
0 0 m
-3.5 0 l

gsave
0.000 setgray
fill
grestore
stroke
grestore
} bind def
54 177.63 o
grestore
gsave
25.750000 173.067795 translate
0.000000 rotate
0.000000 0.000000 m /one glyphshow
8.349609 0.000000 m /period glyphshow
12.908203 0.000000 m /five glyphshow
grestore
gsave
/o {
gsave
newpath
translate
0.8 setlinewidth
1 setlinejoin
0 setlinecap
0 0 m
-3.5 0 l

gsave
0.000 setgray
fill
grestore
stroke
grestore
} bind def
54 221.544 o
grestore
gsave
25.750000 216.981672 translate
0.000000 rotate
0.000000 0.000000 m /two glyphshow
8.349609 0.000000 m /period glyphshow
12.908203 0.000000 m /zero glyphshow
grestore
gsave
19.250000 140.376250 translate
90.000000 rotate
0.000000 0.000000 m /Y glyphshow
grestore
2.000 setlinewidth
2 setlinecap
0.392 0.584 1.000 setrgbcolor
gsave
334.8 217.4 54 36 clipbox
69.218182 243.490726 m
79.71348 218.024135 l
90.208777 194.313246 l
100.704075 172.358169 l
111.199373 152.159051 l
121.694671 133.716028 l
132.189969 117.029199 l
142.685266 102.098648 l
153.180564 88.924472 l
163.675862 77.506754 l
174.17116 67.845514 l
184.666458 59.940826 l
195.161755 53.792719 l
205.657053 49.401213 l
216.152351 46.766349 l
226.647649 45.888101 l
237.142947 46.766513 l
247.638245 49.401535 l
258.133542 53.793185 l
268.62884 59.941408 l
279.124138 67.84618 l
289.619436 77.507456 l
300.114734 88.925159 l
310.610031 102.099258 l
321.105329 117.029649 l
331.600627 133.716224 l
342.095925 152.158907 l
352.591223 172.357564 l
363.08652 194.312043 l
373.581818 218.022226 l
stroke
grestore
0 setlinejoin
[] 0 setdash
0.000 setgray
gsave
54 36 m
54 253.44 l
stroke
grestore
gsave
388.8 36 m
388.8 253.44 l
stroke
grestore
gsave
54 36 m
388.8 36 l
stroke
grestore
gsave
54 253.44 m
388.8 253.44 l
stroke
grestore
1.000 setlinewidth
0 setlinecap
0.800 setgray
gsave
189.92 202.075575 m
284.810625 202.075575 l
286.143958 202.075575 286.810625 202.742242 286.810625 204.075575 c
286.810625 247.0912 l
286.810625 248.424533 286.143958 249.0912 284.810625 249.0912 c
189.92 249.0912 l
188.586667 249.0912 187.92 248.424533 187.92 247.0912 c
187.92 204.075575 l
187.92 202.742242 188.586667 202.075575 189.92 202.075575 c
cl
gsave
1.000 setgray
fill
grestore
stroke
grestore
2.000 setlinewidth
1 setlinejoin
2 setlinecap
[] 0 setdash
0.392 0.584 1.000 setrgbcolor
gsave
191.92 240.99745 m
211.92 240.99745 l
stroke
grestore
0.000 setgray
/DejaVuSans-Bold findfont
10.000 scalefont
setfont
gsave
219.920000 237.497450 translate
0.000000 rotate
0.000000 0.000000 m /m glyphshow
10.419922 0.000000 m /e glyphshow
17.202148 0.000000 m /a glyphshow
23.950195 0.000000 m /n glyphshow
grestore
1.000 setlinewidth
0 setlinecap
0.000 0.000 1.000 setrgbcolor
gsave
/o {
gsave
newpath
translate
1.0 setlinewidth
1 setlinejoin
0 setlinecap
0 -2.371708 m
0.628984 -2.371708 1.232292 -2.12181 1.677051 -1.677051 c
2.12181 -1.232292 2.371708 -0.628984 2.371708 0 c
2.371708 0.628984 2.12181 1.232292 1.677051 1.677051 c
1.232292 2.12181 0.628984 2.371708 0 2.371708 c
-0.628984 2.371708 -1.232292 2.12181 -1.677051 1.677051 c
-2.12181 1.232292 -2.371708 0.628984 -2.371708 0 c
-2.371708 -0.628984 -2.12181 -1.232292 -1.677051 -1.677051 c
-1.232292 -2.12181 -0.628984 -2.371708 0 -2.371708 c
cl

gsave
0.000 0.000 1.000 setrgbcolor
fill
grestore
stroke
grestore
} bind def
201.92 225.451 o
grestore
0.000 setgray
gsave
219.920000 222.825575 translate
0.000000 rotate
0.000000 0.000000 m /T glyphshow
6.805664 0.000000 m /r glyphshow
11.737305 0.000000 m /a glyphshow
18.485352 0.000000 m /i glyphshow
21.913086 0.000000 m /n glyphshow
29.032227 0.000000 m /space glyphshow
32.513672 0.000000 m /D glyphshow
40.814453 0.000000 m /a glyphshow
47.562500 0.000000 m /t glyphshow
52.342773 0.000000 m /a glyphshow
grestore
0 setlinejoin
[] 0 setdash
0.000 0.000 1.000 setrgbcolor
gsave
191.92 208.1537 m
211.92 208.1537 l
211.92 215.1537 l
191.92 215.1537 l
cl
gsave
fill
grestore
stroke
grestore
0.000 setgray
gsave
219.920000 208.153700 translate
0.000000 rotate
0.000000 0.000000 m /C glyphshow
7.338867 0.000000 m /o glyphshow
14.208984 0.000000 m /n glyphshow
21.328125 0.000000 m /f glyphshow
25.678711 0.000000 m /i glyphshow
29.106445 0.000000 m /d glyphshow
36.264648 0.000000 m /e glyphshow
43.046875 0.000000 m /n glyphshow
50.166016 0.000000 m /c glyphshow
56.093750 0.000000 m /e glyphshow
grestore

end
showpage
