%!PS-Adobe-3.0 EPSF-3.0
%%Title: ../img/oned_z_y.eps
%%Creator: matplotlib version 2.0.2, http://matplotlib.org/
%%CreationDate: Fri Jan  5 05:09:54 2018
%%Orientation: portrait
%%BoundingBox: 90 252 522 540
%%EndComments
%%BeginProlog
/mpldict 8 dict def
mpldict begin
/m { moveto } bind def
/l { lineto } bind def
/r { rlineto } bind def
/c { curveto } bind def
/cl { closepath } bind def
/box {
m
1 index 0 r
0 exch r
neg 0 r
cl
} bind def
/clipbox {
box
clip
newpath
} bind def
%!PS-Adobe-3.0 Resource-Font
%%Title: DejaVu Sans Bold
%%Copyright: Copyright (c) 2003 by Bitstream, Inc. All Rights Reserved. Copyright (c) 2006 by Tavmjong Bah. All Rights Reserved. DejaVu changes are in public domain 
%%Creator: Converted from TrueType to type 3 by PPR
25 dict begin
/_d{bind def}bind def
/_m{moveto}_d
/_l{lineto}_d
/_cl{closepath eofill}_d
/_c{curveto}_d
/_sc{7 -1 roll{setcachedevice}{pop pop pop pop pop pop}ifelse}_d
/_e{exec}_d
/FontName /DejaVuSans-Bold def
/PaintType 0 def
/FontMatrix[.001 0 0 .001 0 0]def
/FontBBox[-1069 -415 1975 1174]def
/FontType 3 def
/Encoding [ /period /zero /one /two /three /four /five /C /D /M /Y /Z /a /c /d /e /f /i /n /o /t /minus ] def
/FontInfo 10 dict dup begin
/FamilyName (DejaVu Sans) def
/FullName (DejaVu Sans Bold) def
/Notice (Copyright (c) 2003 by Bitstream, Inc. All Rights Reserved. Copyright (c) 2006 by Tavmjong Bah. All Rights Reserved. DejaVu changes are in public domain ) def
/Weight (Bold) def
/Version (Version 2.35) def
/ItalicAngle 0.0 def
/isFixedPitch false def
/UnderlinePosition -130 def
/UnderlineThickness 90 def
end readonly def
/CharStrings 22 dict dup begin
/period{380 0 102 0 278 189 _sc
102 189 _m
278 189 _l
278 0 _l
102 0 _l
102 189 _l
_cl}_d
/zero{696 0 48 -13 648 742 _sc
460 365 _m
460 456 451 520 434 558 _c
417 595 388 614 348 614 _c
308 614 279 595 262 558 _c
244 520 236 456 236 365 _c
236 273 244 208 262 170 _c
279 132 308 114 348 114 _c
388 114 416 132 434 170 _c
451 208 460 273 460 365 _c
648 364 _m
648 243 622 150 570 85 _c
518 19 444 -13 348 -13 _c
252 -13 178 19 126 85 _c
74 150 48 243 48 364 _c
48 484 74 577 126 643 _c
178 709 252 742 348 742 _c
444 742 518 709 570 643 _c
622 577 648 484 648 364 _c
_cl}_d
/one{696 0 113 0 627 729 _sc
117 130 _m
283 130 _l
283 601 _l
113 566 _l
113 694 _l
282 729 _l
461 729 _l
461 130 _l
627 130 _l
627 0 _l
117 0 _l
117 130 _l
_cl}_d
/two{696 0 79 0 609 742 _sc
288 138 _m
609 138 _l
609 0 _l
79 0 _l
79 138 _l
345 373 _l
369 394 386 415 398 436 _c
409 456 415 478 415 500 _c
415 534 403 561 380 582 _c
357 603 327 614 289 614 _c
259 614 227 607 193 595 _c
158 582 121 563 81 539 _c
81 699 _l
123 713 165 723 207 731 _c
248 738 288 742 328 742 _c
415 742 483 722 531 684 _c
579 646 604 592 604 524 _c
604 484 593 446 573 412 _c
552 378 509 332 444 275 _c
288 138 _l
_cl}_d
/three{{696 0 67 -13 616 742 _sc
466 393 _m
515 380 552 358 578 327 _c
603 295 616 255 616 207 _c
616 135 588 80 533 43 _c
477 5 397 -13 291 -13 _c
253 -13 216 -10 178 -4 _c
140 1 103 10 67 22 _c
67 167 _l
102 149 137 136 172 127 _c
206 118 240 114 274 114 _c
324 114 362 122 388 140 _c
414 157 428 182 428 214 _c
428 247 414 272 387 289 _c
360 306 320 315 267 315 _c
}_e{192 315 _l
192 436 _l
271 436 _l
318 436 353 443 376 458 _c
399 472 411 495 411 526 _c
411 554 399 575 377 591 _c
355 606 323 614 282 614 _c
252 614 221 610 190 603 _c
159 596 128 586 98 573 _c
98 711 _l
135 721 172 729 208 734 _c
244 739 280 742 316 742 _c
410 742 481 726 528 695 _c
575 664 599 617 599 555 _c
599 512 587 477 565 450 _c
543 423 510 404 466 393 _c
_cl}_e}_d
/four{696 0 45 0 650 729 _sc
368 574 _m
162 269 _l
368 269 _l
368 574 _l
337 729 _m
546 729 _l
546 269 _l
650 269 _l
650 133 _l
546 133 _l
546 0 _l
368 0 _l
368 133 _l
45 133 _l
45 294 _l
337 729 _l
_cl}_d
/five{{696 0 77 -13 626 729 _sc
106 729 _m
573 729 _l
573 591 _l
256 591 _l
256 478 _l
270 482 284 485 299 487 _c
313 489 328 490 344 490 _c
433 490 502 467 552 423 _c
601 379 626 317 626 238 _c
626 159 599 97 545 53 _c
491 9 416 -13 321 -13 _c
279 -13 238 -9 198 -1 _c
157 6 117 18 77 34 _c
77 182 _l
117 159 154 142 190 131 _c
226 119 259 114 291 114 _c
}_e{336 114 372 125 398 147 _c
424 169 438 200 438 238 _c
438 276 424 306 398 328 _c
372 350 336 362 291 362 _c
263 362 234 358 204 351 _c
174 344 141 333 106 319 _c
106 729 _l
_cl}_e}_d
/C{{734 0 50 -13 670 742 _sc
670 40 _m
635 22 599 8 562 0 _c
524 -8 485 -13 445 -13 _c
323 -13 227 20 156 88 _c
85 155 50 247 50 364 _c
50 480 85 572 156 640 _c
227 708 323 742 445 742 _c
485 742 524 737 562 728 _c
599 719 635 706 670 688 _c
670 537 _l
635 561 601 578 567 589 _c
533 600 497 606 460 606 _c
392 606 339 584 301 541 _c
263 498 244 439 244 364 _c
}_e{244 288 263 229 301 186 _c
339 143 392 122 460 122 _c
497 122 533 127 567 138 _c
601 149 635 167 670 191 _c
670 40 _l
_cl}_e}_d
/D{830 0 92 0 778 729 _sc
280 587 _m
280 142 _l
347 142 _l
423 142 482 161 523 199 _c
563 237 584 292 584 365 _c
584 437 563 492 523 530 _c
483 568 424 587 347 587 _c
280 587 _l
92 729 _m
290 729 _l
400 729 483 721 537 705 _c
591 689 638 663 677 625 _c
711 592 736 554 753 511 _c
769 468 778 419 778 365 _c
778 310 769 261 753 218 _c
736 174 711 136 677 104 _c
637 66 590 39 536 23 _c
481 7 399 0 290 0 _c
92 0 _l
92 729 _l
_cl}_d
/M{995 0 92 0 903 729 _sc
92 729 _m
331 729 _l
497 339 _l
664 729 _l
903 729 _l
903 0 _l
725 0 _l
725 533 _l
557 140 _l
438 140 _l
270 533 _l
270 0 _l
92 0 _l
92 729 _l
_cl}_d
/Y{724 0 -9 0 734 729 _sc
-9 729 _m
196 729 _l
362 469 _l
528 729 _l
734 729 _l
456 307 _l
456 0 _l
268 0 _l
268 307 _l
-9 729 _l
_cl}_d
/Z{725 0 45 0 680 729 _sc
56 729 _m
669 729 _l
669 615 _l
278 142 _l
680 142 _l
680 0 _l
45 0 _l
45 114 _l
436 587 _l
56 587 _l
56 729 _l
_cl}_d
/a{{675 0 43 -13 596 560 _sc
329 246 _m
292 246 264 239 246 227 _c
228 215 219 197 219 173 _c
219 151 226 133 241 121 _c
256 108 277 102 303 102 _c
336 102 364 113 386 137 _c
408 161 420 190 420 226 _c
420 246 _l
329 246 _l
596 312 _m
596 0 _l
420 0 _l
420 81 _l
396 47 370 23 341 9 _c
311 -5 276 -13 234 -13 _c
177 -13 131 3 96 36 _c
60 68 43 111 43 164 _c
}_e{43 228 65 275 109 305 _c
153 335 222 350 317 350 _c
420 350 _l
420 364 _l
420 391 409 411 387 424 _c
365 437 331 444 285 444 _c
247 444 212 440 180 432 _c
148 424 118 413 91 399 _c
91 532 _l
128 541 165 548 203 553 _c
241 557 279 560 317 560 _c
415 560 486 540 530 501 _c
574 462 596 399 596 312 _c
_cl}_e}_d
/c{{593 0 43 -13 526 560 _sc
526 530 _m
526 387 _l
502 403 478 415 454 423 _c
430 431 405 435 380 435 _c
331 435 293 420 266 392 _c
238 364 225 324 225 273 _c
225 221 238 181 266 153 _c
293 125 331 111 380 111 _c
407 111 433 115 458 123 _c
482 131 505 143 526 159 _c
526 16 _l
498 6 470 -1 442 -6 _c
414 -10 386 -13 358 -13 _c
259 -13 182 12 126 62 _c
}_e{70 112 43 183 43 273 _c
43 363 70 433 126 484 _c
182 534 259 560 358 560 _c
386 560 414 557 442 552 _c
470 547 498 540 526 530 _c
_cl}_e}_d
/d{{716 0 45 -13 632 760 _sc
456 467 _m
456 760 _l
632 760 _l
632 0 _l
456 0 _l
456 79 _l
432 47 405 23 376 9 _c
347 -5 314 -13 276 -13 _c
208 -13 153 13 110 66 _c
66 119 45 188 45 273 _c
45 357 66 425 110 479 _c
153 533 208 560 276 560 _c
314 560 347 552 376 537 _c
405 522 432 499 456 467 _c
341 113 _m
378 113 406 126 426 154 _c
446 181 456 221 456 273 _c
}_e{456 325 446 364 426 392 _c
406 419 378 433 341 433 _c
303 433 275 419 255 392 _c
235 364 226 325 226 273 _c
226 221 235 181 255 154 _c
275 126 303 113 341 113 _c
_cl}_e}_d
/e{{678 0 43 -13 630 560 _sc
630 275 _m
630 225 _l
221 225 _l
225 184 240 153 266 133 _c
291 112 326 102 372 102 _c
408 102 446 107 485 118 _c
523 129 563 146 604 168 _c
604 33 _l
562 17 521 6 480 -1 _c
438 -9 397 -13 356 -13 _c
257 -13 180 12 125 62 _c
70 112 43 182 43 273 _c
43 362 70 432 124 483 _c
178 534 252 560 346 560 _c
432 560 500 534 552 482 _c
}_e{604 430 630 361 630 275 _c
450 333 _m
450 366 440 393 421 413 _c
401 433 376 444 345 444 _c
311 444 283 434 262 415 _c
241 396 228 369 223 333 _c
450 333 _l
_cl}_e}_d
/f{435 0 19 0 444 760 _sc
444 760 _m
444 645 _l
347 645 _l
322 645 305 640 295 631 _c
285 622 281 607 281 585 _c
281 547 _l
430 547 _l
430 422 _l
281 422 _l
281 0 _l
106 0 _l
106 422 _l
19 422 _l
19 547 _l
106 547 _l
106 585 _l
106 644 122 688 156 717 _c
189 745 240 760 310 760 _c
444 760 _l
_cl}_d
/i{343 0 84 0 259 760 _sc
84 547 _m
259 547 _l
259 0 _l
84 0 _l
84 547 _l
84 760 _m
259 760 _l
259 617 _l
84 617 _l
84 760 _l
_cl}_d
/n{712 0 84 0 634 560 _sc
634 333 _m
634 0 _l
458 0 _l
458 54 _l
458 255 _l
458 302 457 334 455 352 _c
453 370 449 383 444 392 _c
437 403 428 412 416 418 _c
404 424 390 428 376 428 _c
339 428 310 414 290 386 _c
269 358 259 319 259 269 _c
259 0 _l
84 0 _l
84 547 _l
259 547 _l
259 467 _l
285 499 312 522 342 537 _c
372 552 405 560 441 560 _c
504 560 552 540 585 502 _c
617 463 634 407 634 333 _c
_cl}_d
/o{687 0 43 -13 644 560 _sc
344 435 _m
305 435 275 421 255 393 _c
235 365 225 325 225 273 _c
225 220 235 180 255 152 _c
275 124 305 111 344 111 _c
382 111 411 124 431 152 _c
451 180 462 220 462 273 _c
462 325 451 365 431 393 _c
411 421 382 435 344 435 _c
344 560 _m
438 560 511 534 564 484 _c
617 433 644 363 644 273 _c
644 183 617 112 564 62 _c
511 12 438 -13 344 -13 _c
250 -13 176 12 123 62 _c
69 112 43 183 43 273 _c
43 363 69 433 123 484 _c
176 534 250 560 344 560 _c
_cl}_d
/t{478 0 13 0 455 702 _sc
275 702 _m
275 547 _l
455 547 _l
455 422 _l
275 422 _l
275 190 _l
275 164 280 147 290 138 _c
300 129 320 125 350 125 _c
440 125 _l
440 0 _l
290 0 _l
221 0 172 14 143 43 _c
114 71 100 120 100 190 _c
100 422 _l
13 422 _l
13 547 _l
100 547 _l
100 702 _l
275 702 _l
_cl}_d
/minus{838 0 106 256 732 371 _sc
106 371 _m
732 371 _l
732 256 _l
106 256 _l
106 371 _l
_cl}_d
end readonly def

/BuildGlyph
 {exch begin
 CharStrings exch
 2 copy known not{pop /.notdef}if
 true 3 1 roll get exec
 end}_d

/BuildChar {
 1 index /Encoding get exch get
 1 index /BuildGlyph get exec
}_d

FontName currentdict end definefont pop
end
%%EndProlog
mpldict begin
90 252 translate
432 288 0 0 clipbox
gsave
0 0 m
432 0 l
432 288 l
0 288 l
cl
1.000 setgray
fill
grestore
gsave
53.99125 47.21 m
415.54 47.21 l
415.54 271.54 l
53.99125 271.54 l
cl
1.000 setgray
fill
grestore
1.500 setlinewidth
1 setlinejoin
0 setlinecap
[] 0 setdash
0.000 setgray
gsave
361.5 224.3 53.99 47.21 clipbox
/o {
gsave
newpath
translate
1.5 setlinewidth
1 setlinejoin
0 setlinecap
-3 -3 m
3 3 l
-3 3 m
3 -3 l

gsave
0.000 setgray
fill
grestore
stroke
grestore
} bind def
355.282 148.314 o
114.249 146.542 o
135.211 118.106 o
282.505 71.8892 o
353.216 145.24 o
164.283 87.6838 o
155.734 95.5428 o
354.768 147.544 o
215.769 59.5102 o
142.149 109.894 o
119.068 139.523 o
351.161 142.234 o
177.023 77.6527 o
279.205 69.9795 o
145.984 105.611 o
348.622 138.592 o
165.636 86.5224 o
171.366 81.8587 o
264.418 63.0808 o
264.677 63.1783 o
grestore
0.500 setlinewidth
0.125 0.290 0.529 setrgbcolor
gsave
361.5 224.3 53.99 47.21 clipbox
/o {
gsave
newpath
translate
0.5 setlinewidth
1 setlinejoin
0 setlinecap
53.99125 258.67073 m
53.99125 258.543426 l
55.808078 254.510019 l
57.624906 250.517701 l
59.441734 246.566085 l
61.258562 242.65511 l
63.075389 238.784944 l
64.892217 234.955611 l
66.709045 231.167179 l
68.525873 227.419228 l
70.342701 223.712326 l
72.159529 220.045991 l
73.976357 216.420681 l
75.793185 212.836077 l
77.610013 209.292258 l
79.42684 205.789245 l
81.243668 202.326858 l
83.060496 198.905596 l
84.877324 195.524995 l
86.694152 192.185055 l
88.51098 188.88619 l
90.327808 185.627853 l
92.144636 182.410586 l
93.961464 179.234029 l
95.778291 176.098442 l
97.595119 173.003687 l
99.411947 169.949385 l
101.228775 166.936385 l
103.045603 163.963942 l
104.862431 161.032458 l
106.679259 158.141655 l
108.496087 155.291984 l
110.312915 152.482782 l
112.129742 149.714754 l
113.94657 146.987318 l
115.763398 144.300947 l
117.580226 141.655317 l
119.397054 139.050459 l
121.213882 136.486621 l
123.03071 133.963387 l
124.847538 131.48121 l
126.664366 129.039885 l
128.481193 126.639308 l
130.298021 124.279727 l
132.114849 121.961229 l
133.931677 119.683392 l
135.748505 117.446428 l
137.565333 115.250321 l
139.382161 113.095306 l
141.198989 110.981011 l
143.015817 108.907805 l
144.832644 106.875507 l
146.649472 104.884142 l
148.4663 102.933402 l
150.283128 101.023847 l
152.099956 99.155109 l
153.916784 97.327291 l
155.733612 95.540366 l
157.55044 93.794659 l
159.367268 92.089578 l
161.184095 90.425419 l
163.000923 88.801958 l
164.817751 87.219699 l
166.634579 85.6781 l
168.451407 84.177664 l
170.268235 82.717879 l
172.085063 81.299285 l
173.901891 79.921609 l
175.718719 78.584555 l
177.535546 77.288539 l
179.352374 76.033431 l
181.169202 74.819313 l
182.98603 73.645952 l
184.802858 72.513581 l
186.619686 71.421988 l
188.436514 70.371617 l
190.253342 69.361862 l
192.07017 68.393182 l
193.886997 67.465475 l
195.703825 66.578419 l
197.520653 65.732429 l
199.337481 64.927522 l
201.154309 64.163309 l
202.971137 63.440182 l
204.787965 62.757809 l
206.604793 62.116327 l
208.421621 61.515913 l
210.238448 60.956283 l
212.055276 60.437791 l
213.872104 59.960284 l
215.688932 59.523566 l
217.50576 59.127626 l
219.322588 58.77258 l
221.139416 58.458728 l
222.956244 58.185674 l
224.773072 57.953603 l
226.589899 57.762381 l
228.406727 57.61214 l
230.223555 57.502654 l
232.040383 57.434467 l
233.857211 57.406818 l
235.674039 57.420244 l
237.490867 57.474791 l
239.307695 57.569955 l
241.124523 57.706145 l
242.941351 57.883341 l
244.758178 58.101362 l
246.575006 58.360363 l
248.391834 58.660339 l
250.208662 59.000964 l
252.02549 59.382597 l
253.842318 59.805204 l
255.659146 60.268856 l
257.475974 60.773456 l
259.292802 61.318645 l
261.109629 61.905089 l
262.926457 62.532278 l
264.743285 63.200307 l
266.560113 63.909262 l
268.376941 64.658971 l
270.193769 65.449753 l
272.010597 66.281525 l
273.827425 67.154078 l
275.644253 68.067433 l
277.46108 69.021745 l
279.277908 70.016962 l
281.094736 71.053109 l
282.911564 72.130108 l
284.728392 73.247974 l
286.54522 74.406986 l
288.362048 75.606627 l
290.178876 76.847414 l
291.995704 78.12892 l
293.812531 79.451438 l
295.629359 80.81474 l
297.446187 82.219009 l
299.263015 83.664473 l
301.079843 85.150631 l
302.896671 86.677579 l
304.713499 88.245596 l
306.530327 89.85465 l
308.347155 91.50436 l
310.163982 93.195181 l
311.98081 94.926906 l
313.797638 96.699675 l
315.614466 98.513125 l
317.431294 100.367623 l
319.248122 102.263053 l
321.06495 104.199337 l
322.881778 106.176702 l
324.698606 108.1951 l
326.515433 110.254053 l
328.332261 112.354228 l
330.149089 114.495326 l
331.965917 116.677218 l
333.782745 118.900223 l
335.599573 121.164011 l
337.416401 123.469002 l
339.233229 125.814637 l
341.050057 128.201294 l
342.866884 130.628995 l
344.683712 133.09746 l
346.50054 135.606936 l
348.317368 138.157059 l
350.134196 140.748093 l
351.951024 143.380046 l
353.767852 146.05265 l
355.58468 148.765792 l
357.401508 151.519664 l
359.218335 154.31452 l
361.035163 157.149855 l
362.851991 160.026095 l
364.668819 162.943006 l
366.485647 165.900806 l
368.302475 168.899567 l
370.119303 171.938957 l
371.936131 175.019194 l
373.752959 178.140334 l
375.569786 181.302095 l
377.386614 184.504782 l
379.203442 187.748292 l
381.02027 191.032575 l
382.837098 194.357558 l
384.653926 197.723439 l
386.470754 201.130192 l
388.287582 204.577584 l
390.10441 208.065656 l
391.921237 211.594701 l
393.738065 215.164522 l
395.554893 218.775038 l
397.371721 222.426389 l
399.188549 226.118456 l
401.005377 229.851206 l
402.822205 233.624953 l
404.639033 237.439317 l
406.455861 241.294405 l
408.272688 245.190205 l
410.089516 249.126849 l
411.906344 253.104203 l
413.723172 257.122263 l
415.54 261.181197 l
415.54 261.343182 l
415.54 261.343182 l
413.723172 257.275774 l
411.906344 253.249277 l
410.089516 249.263833 l
408.272688 245.319457 l
406.455861 241.415993 l
404.639033 237.55365 l
402.822205 233.732323 l
401.005377 229.952149 l
399.188549 226.212812 l
397.371721 222.514533 l
395.554893 218.857329 l
393.738065 215.24111 l
391.921237 211.665942 l
390.10441 208.131807 l
388.287582 204.638512 l
386.470754 201.186309 l
384.653926 197.775219 l
382.837098 194.405076 l
381.02027 191.075842 l
379.203442 187.787702 l
377.386614 184.540598 l
375.569786 181.334437 l
373.752959 178.169139 l
371.936131 175.045066 l
370.119303 171.961887 l
368.302475 168.919635 l
366.485647 165.918557 l
364.668819 162.958333 l
362.851991 160.039049 l
361.035163 157.160864 l
359.218335 154.323577 l
357.401508 151.527626 l
355.58468 148.772482 l
353.767852 146.058443 l
351.951024 143.385676 l
350.134196 140.754045 l
348.317368 138.163316 l
346.50054 135.613484 l
344.683712 133.104814 l
342.866884 130.636957 l
341.050057 128.210143 l
339.233229 125.824097 l
337.416401 123.478849 l
335.599573 121.174763 l
333.782745 118.911317 l
331.965917 116.688885 l
330.149089 114.507151 l
328.332261 112.366441 l
326.515433 110.266642 l
324.698606 108.207389 l
322.881778 106.189439 l
321.06495 104.212291 l
319.248122 102.275862 l
317.431294 100.380432 l
315.614466 98.525861 l
313.797638 96.712039 l
311.98081 94.939421 l
310.163982 93.207546 l
308.347155 91.516573 l
306.530327 89.866317 l
304.713499 88.257263 l
302.896671 86.689004 l
301.079843 85.161469 l
299.263015 83.674962 l
297.446187 82.229586 l
295.629359 80.824866 l
293.812531 79.460996 l
291.995704 78.138181 l
290.178876 76.856158 l
288.362048 75.615263 l
286.54522 74.415064 l
284.728392 73.256052 l
282.911564 72.137711 l
281.094736 71.060334 l
279.277908 70.023925 l
277.46108 69.028434 l
275.644253 68.073838 l
273.827425 67.160184 l
272.010597 66.287477 l
270.193769 65.45586 l
268.376941 64.665078 l
266.560113 63.915056 l
264.743285 63.206101 l
262.926457 62.538071 l
261.109629 61.911041 l
259.292802 61.32505 l
257.475974 60.779713 l
255.659146 60.275545 l
253.842318 59.8123 l
252.02549 59.389823 l
250.208662 59.008189 l
248.391834 58.667434 l
246.575006 58.367842 l
244.758178 58.109087 l
242.941351 57.891185 l
241.124523 57.714338 l
239.307695 57.578261 l
237.490867 57.482984 l
235.674039 57.428987 l
233.857211 57.415667 l
232.040383 57.443103 l
230.223555 57.511814 l
228.406727 57.621094 l
226.589899 57.771439 l
224.773072 57.962661 l
222.956244 58.194834 l
221.139416 58.467888 l
219.322588 58.781941 l
217.50576 59.136684 l
215.688932 59.532309 l
213.872104 59.969027 l
212.055276 60.446745 l
210.238448 60.965341 l
208.421621 61.524656 l
206.604793 62.124963 l
204.787965 62.766114 l
202.971137 63.448144 l
201.154309 64.171271 l
199.337481 64.935124 l
197.520653 65.740153 l
195.703825 66.585898 l
193.886997 67.472438 l
192.07017 68.400145 l
190.253342 69.36869 l
188.436514 70.378022 l
186.619686 71.428537 l
184.802858 72.519687 l
182.98603 73.651904 l
181.169202 74.824943 l
179.352374 76.039061 l
177.535546 77.294001 l
175.718719 78.589844 l
173.901891 79.926532 l
172.085063 81.304394 l
170.268235 82.723168 l
168.451407 84.182588 l
166.634579 85.683209 l
164.817751 87.224429 l
163.000923 88.806881 l
161.184095 90.429948 l
159.367268 92.094107 l
157.55044 93.799188 l
155.733612 95.545475 l
153.916784 97.3324 l
152.099956 99.160218 l
150.283128 101.028956 l
148.4663 102.93869 l
146.649472 104.889065 l
144.832644 106.880617 l
143.015817 108.913094 l
141.198989 110.986473 l
139.382161 113.100594 l
137.565333 115.255783 l
135.748505 117.451716 l
133.931677 119.68868 l
132.114849 121.966517 l
130.298021 124.28552 l
128.481193 126.64526 l
126.664366 129.045837 l
124.847538 131.487467 l
123.03071 133.970077 l
121.213882 136.493449 l
119.397054 139.058062 l
117.580226 141.663395 l
115.763398 144.309796 l
113.94657 146.997259 l
112.129742 149.725506 l
110.312915 152.494995 l
108.496087 155.305081 l
106.679259 158.156488 l
104.862431 161.048614 l
103.045603 163.98185 l
101.228775 166.955983 l
99.411947 169.971276 l
97.595119 173.02718 l
95.778291 176.12435 l
93.961464 179.262508 l
92.144636 182.441513 l
90.327808 185.661605 l
88.51098 188.922472 l
86.694152 192.22456 l
84.877324 195.567413 l
83.060496 198.951375 l
81.243668 202.376505 l
79.42684 205.842288 l
77.610013 209.3492 l
75.793185 212.897189 l
73.976357 216.486124 l
72.159529 220.116203 l
70.342701 223.786991 l
68.525873 227.499023 l
66.709045 231.251816 l
64.892217 235.045928 l
63.075389 238.880858 l
61.258562 242.756817 l
59.441734 246.673698 l
57.624906 250.631798 l
55.808078 254.630884 l
53.99125 258.67073 l
cl

gsave
0.447 0.624 0.812 setrgbcolor
fill
grestore
stroke
grestore
} bind def
0 0 o
grestore
0.800 setlinewidth
0.000 setgray
gsave
/o {
gsave
newpath
translate
0.8 setlinewidth
1 setlinejoin
0 setlinecap
0 0 m
0 -3.5 l

gsave
0.000 setgray
fill
grestore
stroke
grestore
} bind def
97.0036 47.21 o
grestore
/DejaVuSans-Bold findfont
12.000 scalefont
setfont
gsave
81.347339 31.085000 translate
0.000000 rotate
0.000000 0.000000 m /minus glyphshow
10.054688 0.000000 m /one glyphshow
18.404297 0.000000 m /period glyphshow
22.962891 0.000000 m /five glyphshow
grestore
gsave
/o {
gsave
newpath
translate
0.8 setlinewidth
1 setlinejoin
0 setlinecap
0 0 m
0 -3.5 l

gsave
0.000 setgray
fill
grestore
stroke
grestore
} bind def
140.675 47.21 o
grestore
gsave
125.018282 31.085000 translate
0.000000 rotate
0.000000 0.000000 m /minus glyphshow
10.054688 0.000000 m /one glyphshow
18.404297 0.000000 m /period glyphshow
22.962891 0.000000 m /zero glyphshow
grestore
gsave
/o {
gsave
newpath
translate
0.8 setlinewidth
1 setlinejoin
0 setlinecap
0 0 m
0 -3.5 l

gsave
0.000 setgray
fill
grestore
stroke
grestore
} bind def
184.345 47.21 o
grestore
gsave
168.689226 31.085000 translate
0.000000 rotate
0.000000 0.000000 m /minus glyphshow
10.054688 0.000000 m /zero glyphshow
18.404297 0.000000 m /period glyphshow
22.962891 0.000000 m /five glyphshow
grestore
gsave
/o {
gsave
newpath
translate
0.8 setlinewidth
1 setlinejoin
0 setlinecap
0 0 m
0 -3.5 l

gsave
0.000 setgray
fill
grestore
stroke
grestore
} bind def
228.016 47.21 o
grestore
gsave
217.391419 31.085000 translate
0.000000 rotate
0.000000 0.000000 m /zero glyphshow
8.349609 0.000000 m /period glyphshow
12.908203 0.000000 m /zero glyphshow
grestore
gsave
/o {
gsave
newpath
translate
0.8 setlinewidth
1 setlinejoin
0 setlinecap
0 0 m
0 -3.5 l

gsave
0.000 setgray
fill
grestore
stroke
grestore
} bind def
271.687 47.21 o
grestore
gsave
261.062363 31.085000 translate
0.000000 rotate
0.000000 0.000000 m /zero glyphshow
8.349609 0.000000 m /period glyphshow
12.908203 0.000000 m /five glyphshow
grestore
gsave
/o {
gsave
newpath
translate
0.8 setlinewidth
1 setlinejoin
0 setlinecap
0 0 m
0 -3.5 l

gsave
0.000 setgray
fill
grestore
stroke
grestore
} bind def
315.358 47.21 o
grestore
gsave
304.733306 31.085000 translate
0.000000 rotate
0.000000 0.000000 m /one glyphshow
8.349609 0.000000 m /period glyphshow
12.908203 0.000000 m /zero glyphshow
grestore
gsave
/o {
gsave
newpath
translate
0.8 setlinewidth
1 setlinejoin
0 setlinecap
0 0 m
0 -3.5 l

gsave
0.000 setgray
fill
grestore
stroke
grestore
} bind def
359.029 47.21 o
grestore
gsave
348.404250 31.085000 translate
0.000000 rotate
0.000000 0.000000 m /one glyphshow
8.349609 0.000000 m /period glyphshow
12.908203 0.000000 m /five glyphshow
grestore
gsave
/o {
gsave
newpath
translate
0.8 setlinewidth
1 setlinejoin
0 setlinecap
0 0 m
0 -3.5 l

gsave
0.000 setgray
fill
grestore
stroke
grestore
} bind def
402.7 47.21 o
grestore
gsave
392.075193 31.085000 translate
0.000000 rotate
0.000000 0.000000 m /two glyphshow
8.349609 0.000000 m /period glyphshow
12.908203 0.000000 m /zero glyphshow
grestore
gsave
230.414062 15.460000 translate
0.000000 rotate
0.000000 0.000000 m /Z glyphshow
grestore
gsave
/o {
gsave
newpath
translate
0.8 setlinewidth
1 setlinejoin
0 setlinecap
0 0 m
-3.5 0 l

gsave
0.000 setgray
fill
grestore
stroke
grestore
} bind def
53.9913 72.6401 o
grestore
gsave
28.585000 68.077625 translate
0.000000 rotate
0.000000 0.000000 m /minus glyphshow
10.054688 0.000000 m /one glyphshow
grestore
gsave
/o {
gsave
newpath
translate
0.8 setlinewidth
1 setlinejoin
0 setlinecap
0 0 m
-3.5 0 l

gsave
0.000 setgray
fill
grestore
stroke
grestore
} bind def
53.9913 104.925 o
grestore
gsave
38.647500 100.362484 translate
0.000000 rotate
0.000000 0.000000 m /zero glyphshow
grestore
gsave
/o {
gsave
newpath
translate
0.8 setlinewidth
1 setlinejoin
0 setlinecap
0 0 m
-3.5 0 l

gsave
0.000 setgray
fill
grestore
stroke
grestore
} bind def
53.9913 137.21 o
grestore
gsave
38.647500 132.647344 translate
0.000000 rotate
0.000000 0.000000 m /one glyphshow
grestore
gsave
/o {
gsave
newpath
translate
0.8 setlinewidth
1 setlinejoin
0 setlinecap
0 0 m
-3.5 0 l

gsave
0.000 setgray
fill
grestore
stroke
grestore
} bind def
53.9913 169.495 o
grestore
gsave
38.647500 164.932203 translate
0.000000 rotate
0.000000 0.000000 m /two glyphshow
grestore
gsave
/o {
gsave
newpath
translate
0.8 setlinewidth
1 setlinejoin
0 setlinecap
0 0 m
-3.5 0 l

gsave
0.000 setgray
fill
grestore
stroke
grestore
} bind def
53.9913 201.78 o
grestore
gsave
38.647500 197.217063 translate
0.000000 rotate
0.000000 0.000000 m /three glyphshow
grestore
gsave
/o {
gsave
newpath
translate
0.8 setlinewidth
1 setlinejoin
0 setlinecap
0 0 m
-3.5 0 l

gsave
0.000 setgray
fill
grestore
stroke
grestore
} bind def
53.9913 234.064 o
grestore
gsave
38.647500 229.501922 translate
0.000000 rotate
0.000000 0.000000 m /four glyphshow
grestore
gsave
/o {
gsave
newpath
translate
0.8 setlinewidth
1 setlinejoin
0 setlinecap
0 0 m
-3.5 0 l

gsave
0.000 setgray
fill
grestore
stroke
grestore
} bind def
53.9913 266.349 o
grestore
gsave
38.647500 261.786781 translate
0.000000 rotate
0.000000 0.000000 m /five glyphshow
grestore
gsave
22.085000 155.031250 translate
90.000000 rotate
0.000000 0.000000 m /Y glyphshow
grestore
2.000 setlinewidth
2 setlinecap
0.204 0.396 0.643 setrgbcolor
gsave
361.5 224.3 53.99 47.21 clipbox
53.99125 258.607078 m
61.258562 242.705964 l
68.525873 227.459125 l
75.793185 212.866633 l
81.243668 202.351681 l
86.694152 192.204807 l
92.144636 182.42605 l
97.595119 173.015433 l
103.045603 163.972896 l
108.496087 155.298533 l
113.94657 146.992289 l
119.397054 139.05426 l
124.847538 131.484339 l
130.298021 124.282624 l
135.748505 117.449072 l
141.198989 110.983742 l
146.649472 104.886604 l
152.099956 99.157664 l
157.55044 93.796923 l
163.000923 88.804419 l
168.451407 84.180126 l
173.901891 79.92407 l
179.352374 76.036246 l
184.802858 72.516634 l
190.253342 69.365276 l
195.703825 66.582159 l
199.337481 64.931323 l
202.971137 63.444163 l
206.604793 62.120645 l
210.238448 60.960812 l
213.872104 59.964655 l
217.50576 59.132155 l
221.139416 58.463308 l
224.773072 57.958132 l
228.406727 57.616617 l
232.040383 57.438785 l
235.674039 57.424615 l
239.307695 57.574108 l
242.941351 57.887263 l
246.575006 58.364103 l
250.208662 59.004576 l
253.842318 59.808752 l
257.475974 60.776584 l
261.109629 61.908065 l
264.743285 63.203204 l
268.376941 64.662025 l
272.010597 66.284501 l
277.46108 69.02509 l
282.911564 72.133909 l
288.362048 75.610945 l
293.812531 79.456217 l
299.263015 83.669717 l
304.713499 88.251429 l
310.163982 93.201364 l
315.614466 98.519493 l
321.06495 104.205814 l
326.515433 110.260347 l
331.965917 116.683051 l
337.416401 123.473925 l
342.866884 130.632976 l
348.317368 138.160187 l
353.767852 146.055546 l
359.218335 154.319049 l
364.668819 162.950669 l
370.119303 171.950422 l
375.569786 181.318266 l
381.02027 191.054208 l
386.470754 201.15825 l
391.921237 211.630321 l
397.371721 222.470461 l
404.639033 237.496484 l
411.906344 253.17674 l
415.54 261.262189 l
415.54 261.262189 l
stroke
grestore
1.200 setlinewidth
0 setlinejoin
[] 0 setdash
0.000 setgray
gsave
53.99125 47.21 m
53.99125 271.54 l
stroke
grestore
gsave
415.54 47.21 m
415.54 271.54 l
stroke
grestore
gsave
53.99125 47.21 m
415.54 47.21 l
stroke
grestore
gsave
53.99125 271.54 m
415.54 271.54 l
stroke
grestore
1.000 setlinewidth
0 setlinecap
0.800 setgray
gsave
177.83125 209.065 m
291.7 209.065 l
293.3 209.065 294.1 209.865 294.1 211.465 c
294.1 263.14 l
294.1 264.74 293.3 265.54 291.7 265.54 c
177.83125 265.54 l
176.23125 265.54 175.43125 264.74 175.43125 263.14 c
175.43125 211.465 l
175.43125 209.865 176.23125 209.065 177.83125 209.065 c
cl
gsave
1.000 setgray
fill
grestore
stroke
grestore
2.000 setlinewidth
1 setlinejoin
2 setlinecap
[] 0 setdash
0.204 0.396 0.643 setrgbcolor
gsave
180.23125 255.815 m
204.23125 255.815 l
stroke
grestore
0.000 setgray
gsave
213.831250 251.615000 translate
0.000000 rotate
0.000000 0.000000 m /M glyphshow
11.941406 0.000000 m /e glyphshow
20.080078 0.000000 m /a glyphshow
28.177734 0.000000 m /n glyphshow
grestore
1.500 setlinewidth
0 setlinecap
gsave
/o {
gsave
newpath
translate
1.5 setlinewidth
1 setlinejoin
0 setlinecap
-3 -3 m
3 3 l
-3 3 m
3 -3 l

gsave
0.000 setgray
fill
grestore
stroke
grestore
} bind def
192.231 237.14 o
grestore
gsave
213.831250 233.990000 translate
0.000000 rotate
0.000000 0.000000 m /D glyphshow
9.960938 0.000000 m /a glyphshow
18.058594 0.000000 m /t glyphshow
23.794922 0.000000 m /a glyphshow
grestore
0.500 setlinewidth
0 setlinejoin
[] 0 setdash
0.125 0.290 0.529 setrgbcolor
gsave
180.23125 216.365 m
204.23125 216.365 l
204.23125 224.765 l
180.23125 224.765 l
cl
gsave
0.447 0.624 0.812 setrgbcolor
fill
grestore
stroke
grestore
0.000 setgray
gsave
213.831250 216.365000 translate
0.000000 rotate
0.000000 0.000000 m /C glyphshow
8.806641 0.000000 m /o glyphshow
17.050781 0.000000 m /n glyphshow
25.593750 0.000000 m /f glyphshow
30.814453 0.000000 m /i glyphshow
34.927734 0.000000 m /d glyphshow
43.517578 0.000000 m /e glyphshow
51.656250 0.000000 m /n glyphshow
60.199219 0.000000 m /c glyphshow
67.312500 0.000000 m /e glyphshow
grestore

end
showpage
