%!PS-Adobe-3.0 EPSF-3.0
%%Title: ../img/oned_x_z.eps
%%Creator: matplotlib version 2.0.2, http://matplotlib.org/
%%CreationDate: Fri Jan  5 05:23:48 2018
%%Orientation: portrait
%%BoundingBox: 90 252 522 540
%%EndComments
%%BeginProlog
/mpldict 8 dict def
mpldict begin
/m { moveto } bind def
/l { lineto } bind def
/r { rlineto } bind def
/c { curveto } bind def
/cl { closepath } bind def
/box {
m
1 index 0 r
0 exch r
neg 0 r
cl
} bind def
/clipbox {
box
clip
newpath
} bind def
%!PS-Adobe-3.0 Resource-Font
%%Title: DejaVu Sans Bold
%%Copyright: Copyright (c) 2003 by Bitstream, Inc. All Rights Reserved. Copyright (c) 2006 by Tavmjong Bah. All Rights Reserved. DejaVu changes are in public domain 
%%Creator: Converted from TrueType to type 3 by PPR
25 dict begin
/_d{bind def}bind def
/_m{moveto}_d
/_l{lineto}_d
/_cl{closepath eofill}_d
/_c{curveto}_d
/_sc{7 -1 roll{setcachedevice}{pop pop pop pop pop pop}ifelse}_d
/_e{exec}_d
/FontName /DejaVuSans-Bold def
/PaintType 0 def
/FontMatrix[.001 0 0 .001 0 0]def
/FontBBox[-1069 -415 1975 1174]def
/FontType 3 def
/Encoding [ /zero /one /two /three /C /D /M /X /Z /a /c /d /e /f /i /n /o /t /minus ] def
/FontInfo 10 dict dup begin
/FamilyName (DejaVu Sans) def
/FullName (DejaVu Sans Bold) def
/Notice (Copyright (c) 2003 by Bitstream, Inc. All Rights Reserved. Copyright (c) 2006 by Tavmjong Bah. All Rights Reserved. DejaVu changes are in public domain ) def
/Weight (Bold) def
/Version (Version 2.35) def
/ItalicAngle 0.0 def
/isFixedPitch false def
/UnderlinePosition -130 def
/UnderlineThickness 90 def
end readonly def
/CharStrings 19 dict dup begin
/zero{696 0 48 -13 648 742 _sc
460 365 _m
460 456 451 520 434 558 _c
417 595 388 614 348 614 _c
308 614 279 595 262 558 _c
244 520 236 456 236 365 _c
236 273 244 208 262 170 _c
279 132 308 114 348 114 _c
388 114 416 132 434 170 _c
451 208 460 273 460 365 _c
648 364 _m
648 243 622 150 570 85 _c
518 19 444 -13 348 -13 _c
252 -13 178 19 126 85 _c
74 150 48 243 48 364 _c
48 484 74 577 126 643 _c
178 709 252 742 348 742 _c
444 742 518 709 570 643 _c
622 577 648 484 648 364 _c
_cl}_d
/one{696 0 113 0 627 729 _sc
117 130 _m
283 130 _l
283 601 _l
113 566 _l
113 694 _l
282 729 _l
461 729 _l
461 130 _l
627 130 _l
627 0 _l
117 0 _l
117 130 _l
_cl}_d
/two{696 0 79 0 609 742 _sc
288 138 _m
609 138 _l
609 0 _l
79 0 _l
79 138 _l
345 373 _l
369 394 386 415 398 436 _c
409 456 415 478 415 500 _c
415 534 403 561 380 582 _c
357 603 327 614 289 614 _c
259 614 227 607 193 595 _c
158 582 121 563 81 539 _c
81 699 _l
123 713 165 723 207 731 _c
248 738 288 742 328 742 _c
415 742 483 722 531 684 _c
579 646 604 592 604 524 _c
604 484 593 446 573 412 _c
552 378 509 332 444 275 _c
288 138 _l
_cl}_d
/three{{696 0 67 -13 616 742 _sc
466 393 _m
515 380 552 358 578 327 _c
603 295 616 255 616 207 _c
616 135 588 80 533 43 _c
477 5 397 -13 291 -13 _c
253 -13 216 -10 178 -4 _c
140 1 103 10 67 22 _c
67 167 _l
102 149 137 136 172 127 _c
206 118 240 114 274 114 _c
324 114 362 122 388 140 _c
414 157 428 182 428 214 _c
428 247 414 272 387 289 _c
360 306 320 315 267 315 _c
}_e{192 315 _l
192 436 _l
271 436 _l
318 436 353 443 376 458 _c
399 472 411 495 411 526 _c
411 554 399 575 377 591 _c
355 606 323 614 282 614 _c
252 614 221 610 190 603 _c
159 596 128 586 98 573 _c
98 711 _l
135 721 172 729 208 734 _c
244 739 280 742 316 742 _c
410 742 481 726 528 695 _c
575 664 599 617 599 555 _c
599 512 587 477 565 450 _c
543 423 510 404 466 393 _c
_cl}_e}_d
/C{{734 0 50 -13 670 742 _sc
670 40 _m
635 22 599 8 562 0 _c
524 -8 485 -13 445 -13 _c
323 -13 227 20 156 88 _c
85 155 50 247 50 364 _c
50 480 85 572 156 640 _c
227 708 323 742 445 742 _c
485 742 524 737 562 728 _c
599 719 635 706 670 688 _c
670 537 _l
635 561 601 578 567 589 _c
533 600 497 606 460 606 _c
392 606 339 584 301 541 _c
263 498 244 439 244 364 _c
}_e{244 288 263 229 301 186 _c
339 143 392 122 460 122 _c
497 122 533 127 567 138 _c
601 149 635 167 670 191 _c
670 40 _l
_cl}_e}_d
/D{830 0 92 0 778 729 _sc
280 587 _m
280 142 _l
347 142 _l
423 142 482 161 523 199 _c
563 237 584 292 584 365 _c
584 437 563 492 523 530 _c
483 568 424 587 347 587 _c
280 587 _l
92 729 _m
290 729 _l
400 729 483 721 537 705 _c
591 689 638 663 677 625 _c
711 592 736 554 753 511 _c
769 468 778 419 778 365 _c
778 310 769 261 753 218 _c
736 174 711 136 677 104 _c
637 66 590 39 536 23 _c
481 7 399 0 290 0 _c
92 0 _l
92 729 _l
_cl}_d
/M{995 0 92 0 903 729 _sc
92 729 _m
331 729 _l
497 339 _l
664 729 _l
903 729 _l
903 0 _l
725 0 _l
725 533 _l
557 140 _l
438 140 _l
270 533 _l
270 0 _l
92 0 _l
92 729 _l
_cl}_d
/X{771 0 19 0 751 729 _sc
498 372 _m
751 0 _l
555 0 _l
385 249 _l
216 0 _l
19 0 _l
272 372 _l
29 729 _l
225 729 _l
385 494 _l
544 729 _l
741 729 _l
498 372 _l
_cl}_d
/Z{725 0 45 0 680 729 _sc
56 729 _m
669 729 _l
669 615 _l
278 142 _l
680 142 _l
680 0 _l
45 0 _l
45 114 _l
436 587 _l
56 587 _l
56 729 _l
_cl}_d
/a{{675 0 43 -13 596 560 _sc
329 246 _m
292 246 264 239 246 227 _c
228 215 219 197 219 173 _c
219 151 226 133 241 121 _c
256 108 277 102 303 102 _c
336 102 364 113 386 137 _c
408 161 420 190 420 226 _c
420 246 _l
329 246 _l
596 312 _m
596 0 _l
420 0 _l
420 81 _l
396 47 370 23 341 9 _c
311 -5 276 -13 234 -13 _c
177 -13 131 3 96 36 _c
60 68 43 111 43 164 _c
}_e{43 228 65 275 109 305 _c
153 335 222 350 317 350 _c
420 350 _l
420 364 _l
420 391 409 411 387 424 _c
365 437 331 444 285 444 _c
247 444 212 440 180 432 _c
148 424 118 413 91 399 _c
91 532 _l
128 541 165 548 203 553 _c
241 557 279 560 317 560 _c
415 560 486 540 530 501 _c
574 462 596 399 596 312 _c
_cl}_e}_d
/c{{593 0 43 -13 526 560 _sc
526 530 _m
526 387 _l
502 403 478 415 454 423 _c
430 431 405 435 380 435 _c
331 435 293 420 266 392 _c
238 364 225 324 225 273 _c
225 221 238 181 266 153 _c
293 125 331 111 380 111 _c
407 111 433 115 458 123 _c
482 131 505 143 526 159 _c
526 16 _l
498 6 470 -1 442 -6 _c
414 -10 386 -13 358 -13 _c
259 -13 182 12 126 62 _c
}_e{70 112 43 183 43 273 _c
43 363 70 433 126 484 _c
182 534 259 560 358 560 _c
386 560 414 557 442 552 _c
470 547 498 540 526 530 _c
_cl}_e}_d
/d{{716 0 45 -13 632 760 _sc
456 467 _m
456 760 _l
632 760 _l
632 0 _l
456 0 _l
456 79 _l
432 47 405 23 376 9 _c
347 -5 314 -13 276 -13 _c
208 -13 153 13 110 66 _c
66 119 45 188 45 273 _c
45 357 66 425 110 479 _c
153 533 208 560 276 560 _c
314 560 347 552 376 537 _c
405 522 432 499 456 467 _c
341 113 _m
378 113 406 126 426 154 _c
446 181 456 221 456 273 _c
}_e{456 325 446 364 426 392 _c
406 419 378 433 341 433 _c
303 433 275 419 255 392 _c
235 364 226 325 226 273 _c
226 221 235 181 255 154 _c
275 126 303 113 341 113 _c
_cl}_e}_d
/e{{678 0 43 -13 630 560 _sc
630 275 _m
630 225 _l
221 225 _l
225 184 240 153 266 133 _c
291 112 326 102 372 102 _c
408 102 446 107 485 118 _c
523 129 563 146 604 168 _c
604 33 _l
562 17 521 6 480 -1 _c
438 -9 397 -13 356 -13 _c
257 -13 180 12 125 62 _c
70 112 43 182 43 273 _c
43 362 70 432 124 483 _c
178 534 252 560 346 560 _c
432 560 500 534 552 482 _c
}_e{604 430 630 361 630 275 _c
450 333 _m
450 366 440 393 421 413 _c
401 433 376 444 345 444 _c
311 444 283 434 262 415 _c
241 396 228 369 223 333 _c
450 333 _l
_cl}_e}_d
/f{435 0 19 0 444 760 _sc
444 760 _m
444 645 _l
347 645 _l
322 645 305 640 295 631 _c
285 622 281 607 281 585 _c
281 547 _l
430 547 _l
430 422 _l
281 422 _l
281 0 _l
106 0 _l
106 422 _l
19 422 _l
19 547 _l
106 547 _l
106 585 _l
106 644 122 688 156 717 _c
189 745 240 760 310 760 _c
444 760 _l
_cl}_d
/i{343 0 84 0 259 760 _sc
84 547 _m
259 547 _l
259 0 _l
84 0 _l
84 547 _l
84 760 _m
259 760 _l
259 617 _l
84 617 _l
84 760 _l
_cl}_d
/n{712 0 84 0 634 560 _sc
634 333 _m
634 0 _l
458 0 _l
458 54 _l
458 255 _l
458 302 457 334 455 352 _c
453 370 449 383 444 392 _c
437 403 428 412 416 418 _c
404 424 390 428 376 428 _c
339 428 310 414 290 386 _c
269 358 259 319 259 269 _c
259 0 _l
84 0 _l
84 547 _l
259 547 _l
259 467 _l
285 499 312 522 342 537 _c
372 552 405 560 441 560 _c
504 560 552 540 585 502 _c
617 463 634 407 634 333 _c
_cl}_d
/o{687 0 43 -13 644 560 _sc
344 435 _m
305 435 275 421 255 393 _c
235 365 225 325 225 273 _c
225 220 235 180 255 152 _c
275 124 305 111 344 111 _c
382 111 411 124 431 152 _c
451 180 462 220 462 273 _c
462 325 451 365 431 393 _c
411 421 382 435 344 435 _c
344 560 _m
438 560 511 534 564 484 _c
617 433 644 363 644 273 _c
644 183 617 112 564 62 _c
511 12 438 -13 344 -13 _c
250 -13 176 12 123 62 _c
69 112 43 183 43 273 _c
43 363 69 433 123 484 _c
176 534 250 560 344 560 _c
_cl}_d
/t{478 0 13 0 455 702 _sc
275 702 _m
275 547 _l
455 547 _l
455 422 _l
275 422 _l
275 190 _l
275 164 280 147 290 138 _c
300 129 320 125 350 125 _c
440 125 _l
440 0 _l
290 0 _l
221 0 172 14 143 43 _c
114 71 100 120 100 190 _c
100 422 _l
13 422 _l
13 547 _l
100 547 _l
100 702 _l
275 702 _l
_cl}_d
/minus{838 0 106 256 732 371 _sc
106 371 _m
732 371 _l
732 256 _l
106 256 _l
106 371 _l
_cl}_d
end readonly def

/BuildGlyph
 {exch begin
 CharStrings exch
 2 copy known not{pop /.notdef}if
 true 3 1 roll get exec
 end}_d

/BuildChar {
 1 index /Encoding get exch get
 1 index /BuildGlyph get exec
}_d

FontName currentdict end definefont pop
end
%%EndProlog
mpldict begin
90 252 translate
432 288 0 0 clipbox
gsave
0 0 m
432 0 l
432 288 l
0 288 l
cl
1.000 setgray
fill
grestore
gsave
64.715625 56.23125 m
412.3 56.23125 l
412.3 268.3 l
64.715625 268.3 l
cl
1.000 setgray
fill
grestore
1.500 setlinewidth
1 setlinejoin
0 setlinecap
[] 0 setdash
0.000 setgray
gsave
347.6 212.1 64.72 56.23 clipbox
/o {
gsave
newpath
translate
1.5 setlinewidth
1 setlinejoin
0 setlinecap
-3 -3 m
3 3 l
-3 3 m
3 -3 l

gsave
0.000 setgray
fill
grestore
stroke
grestore
} bind def
282.848 251.232 o
179.619 85.4797 o
164.703 99.8945 o
246.33 201.186 o
288.634 249.812 o
214.076 119.886 o
354.369 114.007 o
279.919 250.879 o
228.624 155.293 o
206.28 104.666 o
193.968 88.7933 o
291.044 248.399 o
217.967 128.648 o
122.646 198.916 o
207.771 107.303 o
293.295 246.653 o
153.543 120.817 o
151.772 124.757 o
241.358 188.748 o
241.428 188.926 o
grestore
0.500 setlinewidth
0.125 0.290 0.529 setrgbcolor
gsave
347.6 212.1 64.72 56.23 clipbox
/o {
gsave
newpath
translate
0.5 setlinewidth
1 setlinejoin
0 setlinecap
64.715625 254.07267 m
64.715625 222.538095 l
66.46228 226.304058 l
68.208935 229.782404 l
69.95559 232.968975 l
71.702246 235.860255 l
73.448901 238.453377 l
75.195556 240.746141 l
76.942211 242.73702 l
78.688866 244.425169 l
80.435521 245.810433 l
82.182177 246.89335 l
83.928832 247.675155 l
85.675487 248.157779 l
87.422142 248.34385 l
89.168797 248.236691 l
90.915452 247.840312 l
92.662107 247.159406 l
94.408763 246.199337 l
96.155418 244.966135 l
97.902073 243.466479 l
99.648728 241.707683 l
101.395383 239.697682 l
103.142038 237.445013 l
104.888693 234.958796 l
106.635349 232.248709 l
108.382004 229.32497 l
110.128659 226.198307 l
111.875314 222.879934 l
113.621969 219.38152 l
115.368624 215.715154 l
117.11528 211.893301 l
118.861935 207.928719 l
120.60859 203.834147 l
122.355245 199.619095 l
124.1019 195.281345 l
125.848555 190.854969 l
127.59521 186.362786 l
129.341866 181.818447 l
131.088521 177.235155 l
132.835176 172.626234 l
134.581831 168.005164 l
136.328486 163.38556 l
138.075141 158.781123 l
139.821796 154.20559 l
141.568452 149.672691 l
143.315107 145.196089 l
145.061762 140.789334 l
146.808417 136.465801 l
148.555072 132.238635 l
150.301727 128.12068 l
152.048383 124.12442 l
153.795038 120.262001 l
155.541693 116.545412 l
157.288348 112.986524 l
159.035003 109.596756 l
160.781658 106.386838 l
162.528313 103.366801 l
164.274969 100.546012 l
166.021624 97.933182 l
167.768279 95.53636 l
169.514934 93.362918 l
171.261589 91.419536 l
173.008244 89.712185 l
174.754899 88.24611 l
176.501555 87.025822 l
178.24821 86.05508 l
179.994865 85.336885 l
181.74152 84.873463 l
183.488175 84.666262 l
185.23483 84.715936 l
186.981486 85.022347 l
188.728141 85.584561 l
190.474796 86.400849 l
192.221451 87.468692 l
193.968106 88.784791 l
195.714761 90.345078 l
197.461416 92.144726 l
199.208072 94.178165 l
200.954727 96.439104 l
202.701382 98.920544 l
204.448037 101.614806 l
206.194692 104.513555 l
207.941347 107.607825 l
209.688003 110.888057 l
211.434658 114.344126 l
213.181313 117.965378 l
214.927968 121.740665 l
216.674623 125.658369 l
218.421278 129.70644 l
220.167933 133.872427 l
221.914589 138.143511 l
223.661244 142.50655 l
225.407899 146.94811 l
227.154554 151.454511 l
228.901209 156.011868 l
230.647864 160.606128 l
232.394519 165.223117 l
234.141175 169.848576 l
235.88783 174.468207 l
237.634485 179.067712 l
239.38114 183.632847 l
241.127795 188.149471 l
242.87445 192.603613 l
244.621106 196.981527 l
246.367761 201.26973 l
248.114416 205.455033 l
249.861071 209.52457 l
251.607726 213.465826 l
253.354381 217.266679 l
255.101036 220.915435 l
256.847692 224.400862 l
258.594347 227.712229 l
260.341002 230.839334 l
262.087657 233.772544 l
263.834312 236.502815 l
265.580967 239.021725 l
267.327622 241.321498 l
269.074278 243.395029 l
270.820933 245.235902 l
272.567588 246.838414 l
274.314243 248.197589 l
276.060898 249.309197 l
277.807553 250.169771 l
279.554209 250.776629 l
281.300864 251.1279 l
283.047519 251.222542 l
284.794174 251.060353 l
286.540829 250.641929 l
288.287484 249.968578 l
290.034139 249.042163 l
291.780795 247.865049 l
293.52745 246.440444 l
295.274105 244.772672 l
297.02076 242.866938 l
298.767415 240.72914 l
300.51407 238.365845 l
302.260726 235.784293 l
304.007381 232.992388 l
305.754036 229.998686 l
307.500691 226.812368 l
309.247346 223.443223 l
310.994001 219.901616 l
312.740656 216.198463 l
314.487312 212.345197 l
316.233967 208.35374 l
317.980622 204.236464 l
319.727277 200.006162 l
321.473932 195.676008 l
323.220587 191.259523 l
324.967242 186.770535 l
326.713898 182.223138 l
328.460553 177.631659 l
330.207208 173.01061 l
331.953863 168.374654 l
333.700518 163.738559 l
335.447173 159.11716 l
337.193829 154.525315 l
338.940484 149.977865 l
340.687139 145.489591 l
342.433794 141.075175 l
344.180449 136.749157 l
345.927104 132.525893 l
347.673759 128.419519 l
349.420415 124.443902 l
351.16707 120.612594 l
352.913725 116.938673 l
354.66038 113.381223 l
356.407035 109.716383 l
358.15369 106.182656 l
359.900345 102.787813 l
361.647001 99.537116 l
363.393656 96.435054 l
365.140311 93.485383 l
366.886966 90.691125 l
368.633621 88.054568 l
370.380276 85.577266 l
372.126932 83.260043 l
373.873587 81.102997 l
375.620242 79.105513 l
377.366897 77.266269 l
379.113552 75.583261 l
380.860207 74.053811 l
382.606862 72.674597 l
384.353518 71.441669 l
386.100173 70.350483 l
387.846828 69.395925 l
389.593483 68.572343 l
391.340138 67.873579 l
393.086793 67.293007 l
394.833448 66.823566 l
396.580104 66.457799 l
398.326759 66.187896 l
400.073414 66.005726 l
401.820069 65.902886 l
403.566724 65.870739 l
405.313379 65.900455 l
407.060035 65.983057 l
408.80669 66.109459 l
410.553345 66.270512 l
412.3 66.45704 l
412.3 144.105515 l
412.3 144.105515 l
410.553345 138.654803 l
408.80669 133.449425 l
407.060035 128.497853 l
405.313379 123.808017 l
403.566724 119.387278 l
401.820069 115.2424 l
400.073414 111.379526 l
398.326759 107.804162 l
396.580104 104.521151 l
394.833448 101.534655 l
393.086793 98.848145 l
391.340138 96.464378 l
389.593483 94.385394 l
387.846828 92.612498 l
386.100173 91.146258 l
384.353518 89.986497 l
382.606862 89.132289 l
380.860207 88.58196 l
379.113552 88.333088 l
377.366897 88.382505 l
375.620242 88.726308 l
373.873587 89.359858 l
372.126932 90.277801 l
370.380276 91.474071 l
368.633621 92.94191 l
366.886966 94.673883 l
365.140311 96.661896 l
363.393656 98.897219 l
361.647001 101.370509 l
359.900345 104.071835 l
358.15369 106.990714 l
356.407035 110.11619 l
354.66038 113.438612 l
352.913725 117.177903 l
351.16707 121.09052 l
349.420415 125.114819 l
347.673759 129.242168 l
345.927104 133.463487 l
344.180449 137.769167 l
342.433794 142.149084 l
340.687139 146.59264 l
338.940484 151.088798 l
337.193829 155.626124 l
335.447173 160.192828 l
333.700518 164.776809 l
331.953863 169.365706 l
330.207208 173.946941 l
328.460553 178.507768 l
326.713898 183.035326 l
324.967242 187.516688 l
323.220587 191.938909 l
321.473932 196.289082 l
319.727277 200.554384 l
317.980622 204.722131 l
316.233967 208.779824 l
314.487312 212.715203 l
312.740656 216.51629 l
310.994001 220.171441 l
309.247346 223.66939 l
307.500691 226.999295 l
305.754036 230.150776 l
304.007381 233.113965 l
302.260726 235.879537 l
300.51407 238.438753 l
298.767415 240.783495 l
297.02076 242.906309 l
295.274105 244.800442 l
293.52745 246.459892 l
291.780795 247.879423 l
290.034139 249.054413 l
288.287484 249.980654 l
286.540829 250.654638 l
284.794174 251.073928 l
283.047519 251.237117 l
281.300864 251.14368 l
279.554209 250.793888 l
277.807553 250.188773 l
276.060898 249.330124 l
274.314243 248.220499 l
272.567588 246.863234 l
270.820933 245.26244 l
269.074278 243.422996 l
267.327622 241.350536 l
265.580967 239.051427 l
263.834312 236.532753 l
262.087657 233.802286 l
260.341002 230.868464 l
258.594347 227.740361 l
256.847692 224.427661 l
255.101036 220.940622 l
253.354381 217.290045 l
251.607726 213.487242 l
249.861071 209.543997 l
248.114416 205.472532 l
246.367761 201.285468 l
244.621106 196.995779 l
242.87445 192.616753 l
241.127795 188.161927 l
239.38114 183.645045 l
237.634485 179.08 l
235.88783 174.480816 l
234.141175 169.861616 l
232.394519 165.236592 l
230.647864 160.619967 l
228.901209 156.025951 l
227.154554 151.468691 l
225.407899 146.962234 l
223.661244 142.520472 l
221.914589 138.157107 l
220.167933 133.885603 l
218.421278 129.719145 l
216.674623 125.670599 l
214.927968 121.752471 l
213.181313 117.976864 l
211.434658 114.355443 l
209.688003 110.899386 l
207.941347 107.619356 l
206.194692 104.52546 l
204.448037 101.627225 l
202.701382 98.933572 l
200.954727 96.452789 l
199.208072 94.192514 l
197.461416 92.159705 l
195.714761 90.360628 l
193.968106 88.800828 l
192.221451 87.48512 l
190.474796 86.417568 l
188.728141 85.601477 l
186.981486 85.03938 l
185.23483 84.733028 l
183.488175 84.683387 l
181.74152 84.890634 l
179.994865 85.35415 l
178.24821 86.072521 l
176.501555 87.043538 l
174.754899 88.2642 l
173.008244 89.730723 l
171.261589 91.438549 l
169.514934 93.382363 l
167.768279 95.556114 l
166.021624 97.953036 l
164.274969 100.565675 l
162.528313 103.385919 l
160.781658 106.405034 l
159.035003 109.613715 l
157.288348 113.002152 l
155.541693 116.560128 l
153.795038 120.277078 l
152.048383 124.141918 l
150.301727 128.142792 l
148.555072 132.267177 l
146.808417 136.502152 l
145.061762 140.834502 l
143.315107 145.250733 l
141.568452 149.7371 l
139.821796 154.279628 l
138.075141 158.86415 l
136.328486 163.476337 l
134.581831 168.101743 l
132.835176 172.725843 l
131.088521 177.334075 l
129.341866 181.911887 l
127.59521 186.444798 l
125.848555 190.91853 l
124.1019 195.319658 l
122.355245 199.644419 l
120.60859 203.900881 l
118.861935 208.061484 l
117.11528 212.111134 l
115.368624 216.03878 l
113.621969 219.834281 l
111.875314 223.488163 l
110.128659 226.991602 l
108.382004 230.336442 l
106.635349 233.515219 l
104.888693 236.521187 l
103.142038 239.348337 l
101.395383 241.991423 l
99.648728 244.445972 l
97.902073 246.708303 l
96.155418 248.775535 l
94.408763 250.645595 l
92.662107 252.317223 l
90.915452 253.78997 l
89.168797 255.064196 l
87.422142 256.141066 l
85.675487 257.022536 l
83.928832 257.711344 l
82.182177 258.210992 l
80.435521 258.525725 l
78.688866 258.660511 l
76.942211 258.621017 l
75.195556 258.413574 l
73.448901 258.045155 l
71.702246 257.523336 l
69.95559 256.856261 l
68.208935 256.052605 l
66.46228 255.121536 l
64.715625 254.07267 l
cl

gsave
0.447 0.624 0.812 setrgbcolor
fill
grestore
stroke
grestore
} bind def
0 0 o
grestore
0.800 setlinewidth
0.000 setgray
gsave
/o {
gsave
newpath
translate
0.8 setlinewidth
1 setlinejoin
0 setlinecap
0 0 m
0 -3.5 l

gsave
0.000 setgray
fill
grestore
stroke
grestore
} bind def
113.627 56.2312 o
grestore
/DejaVuSans-Bold findfont
15.000 scalefont
setfont
gsave
102.126712 37.840625 translate
0.000000 rotate
0.000000 0.000000 m /minus glyphshow
12.568359 0.000000 m /two glyphshow
grestore
gsave
/o {
gsave
newpath
translate
0.8 setlinewidth
1 setlinejoin
0 setlinecap
0 0 m
0 -3.5 l

gsave
0.000 setgray
fill
grestore
stroke
grestore
} bind def
170.818 56.2312 o
grestore
gsave
159.318215 37.840625 translate
0.000000 rotate
0.000000 0.000000 m /minus glyphshow
12.568359 0.000000 m /one glyphshow
grestore
gsave
/o {
gsave
newpath
translate
0.8 setlinewidth
1 setlinejoin
0 setlinecap
0 0 m
0 -3.5 l

gsave
0.000 setgray
fill
grestore
stroke
grestore
} bind def
228.01 56.2312 o
grestore
gsave
222.790967 37.840625 translate
0.000000 rotate
0.000000 0.000000 m /zero glyphshow
grestore
gsave
/o {
gsave
newpath
translate
0.8 setlinewidth
1 setlinejoin
0 setlinecap
0 0 m
0 -3.5 l

gsave
0.000 setgray
fill
grestore
stroke
grestore
} bind def
285.201 56.2312 o
grestore
gsave
279.982470 37.840625 translate
0.000000 rotate
0.000000 0.000000 m /one glyphshow
grestore
gsave
/o {
gsave
newpath
translate
0.8 setlinewidth
1 setlinejoin
0 setlinecap
0 0 m
0 -3.5 l

gsave
0.000 setgray
fill
grestore
stroke
grestore
} bind def
342.393 56.2312 o
grestore
gsave
337.173972 37.840625 translate
0.000000 rotate
0.000000 0.000000 m /two glyphshow
grestore
gsave
/o {
gsave
newpath
translate
0.8 setlinewidth
1 setlinejoin
0 setlinecap
0 0 m
0 -3.5 l

gsave
0.000 setgray
fill
grestore
stroke
grestore
} bind def
399.584 56.2312 o
grestore
gsave
394.365475 37.840625 translate
0.000000 rotate
0.000000 0.000000 m /three glyphshow
grestore
gsave
232.726562 19.325000 translate
0.000000 rotate
0.000000 0.000000 m /X glyphshow
grestore
gsave
/o {
gsave
newpath
translate
0.8 setlinewidth
1 setlinejoin
0 setlinecap
0 0 m
-3.5 0 l

gsave
0.000 setgray
fill
grestore
stroke
grestore
} bind def
64.7156 103.652 o
grestore
gsave
34.715625 97.956413 translate
0.000000 rotate
0.000000 0.000000 m /minus glyphshow
12.568359 0.000000 m /one glyphshow
grestore
gsave
/o {
gsave
newpath
translate
0.8 setlinewidth
1 setlinejoin
0 setlinecap
0 0 m
-3.5 0 l

gsave
0.000 setgray
fill
grestore
stroke
grestore
} bind def
64.7156 163.715 o
grestore
gsave
47.278125 158.019494 translate
0.000000 rotate
0.000000 0.000000 m /zero glyphshow
grestore
gsave
/o {
gsave
newpath
translate
0.8 setlinewidth
1 setlinejoin
0 setlinecap
0 0 m
-3.5 0 l

gsave
0.000 setgray
fill
grestore
stroke
grestore
} bind def
64.7156 223.778 o
grestore
gsave
47.278125 218.082576 translate
0.000000 rotate
0.000000 0.000000 m /one glyphshow
grestore
gsave
27.590625 156.828125 translate
90.000000 rotate
0.000000 0.000000 m /Z glyphshow
grestore
2.000 setlinewidth
2 setlinecap
0.204 0.396 0.643 setrgbcolor
gsave
347.6 212.1 64.72 56.23 clipbox
64.715625 238.305383 m
66.46228 240.712797 l
68.208935 242.917505 l
69.95559 244.912618 l
71.702246 246.691795 l
73.448901 248.249266 l
75.195556 249.579858 l
76.942211 250.679018 l
78.688866 251.54284 l
80.435521 252.168079 l
82.182177 252.552171 l
83.928832 252.69325 l
85.675487 252.590157 l
87.422142 252.242458 l
89.168797 251.650444 l
90.915452 250.815141 l
92.662107 249.738314 l
94.408763 248.422466 l
96.155418 246.870835 l
97.902073 245.087391 l
99.648728 243.076827 l
101.395383 240.844553 l
103.142038 238.396675 l
106.635349 232.881964 l
110.128659 226.594954 l
113.621969 219.6079 l
117.11528 212.002217 l
120.60859 203.867514 l
125.848555 190.886749 l
132.835176 172.676038 l
143.315107 145.223411 l
148.555072 132.252906 l
152.048383 124.133169 l
155.541693 116.55277 l
159.035003 109.605235 l
162.528313 103.37636 l
166.021624 97.943109 l
167.768279 95.546237 l
169.514934 93.372641 l
171.261589 91.429042 l
173.008244 89.721454 l
174.754899 88.255155 l
176.501555 87.03468 l
178.24821 86.063801 l
179.994865 85.345518 l
181.74152 84.882049 l
183.488175 84.674825 l
185.23483 84.724482 l
186.981486 85.030864 l
188.728141 85.593019 l
190.474796 86.409208 l
192.221451 87.476906 l
193.968106 88.79281 l
195.714761 90.352853 l
197.461416 92.152215 l
199.208072 94.185339 l
200.954727 96.445946 l
202.701382 98.927058 l
204.448037 101.621016 l
207.941347 107.613591 l
211.434658 114.349784 l
214.927968 121.746568 l
218.421278 129.712792 l
221.914589 138.150309 l
227.154554 151.461601 l
244.621106 196.988653 l
248.114416 205.463783 l
251.607726 213.476534 l
255.101036 220.928029 l
258.594347 227.726295 l
262.087657 233.787415 l
263.834312 236.517784 l
265.580967 239.036576 l
267.327622 241.336017 l
269.074278 243.409012 l
270.820933 245.249171 l
272.567588 246.850824 l
274.314243 248.209044 l
276.060898 249.319661 l
277.807553 250.179272 l
279.554209 250.785259 l
281.300864 251.13579 l
283.047519 251.22983 l
284.794174 251.067141 l
286.540829 250.648283 l
288.287484 249.974616 l
290.034139 249.048288 l
291.780795 247.872236 l
293.52745 246.450168 l
295.274105 244.786557 l
297.02076 242.886624 l
298.767415 240.756317 l
300.51407 238.402299 l
302.260726 235.831915 l
305.754036 230.074731 l
309.247346 223.556307 l
312.740656 216.357376 l
316.233967 208.566782 l
319.727277 200.280273 l
324.967242 187.143611 l
331.953863 168.87018 l
340.687139 146.041116 l
345.927104 132.99469 l
349.420415 124.77936 l
352.913725 117.058288 l
356.407035 109.916287 l
359.900345 103.429824 l
363.393656 97.666137 l
365.140311 95.073639 l
366.886966 92.682504 l
368.633621 90.498239 l
370.380276 88.525668 l
372.126932 86.768922 l
373.873587 85.231428 l
375.620242 83.91591 l
377.366897 82.824387 l
379.113552 81.958174 l
380.860207 81.317886 l
382.606862 80.903443 l
384.353518 80.714083 l
386.100173 80.748371 l
387.846828 81.004212 l
389.593483 81.478869 l
391.340138 82.168979 l
393.086793 83.070576 l
394.833448 84.17911 l
396.580104 85.489475 l
398.326759 86.996029 l
400.073414 88.692626 l
401.820069 90.572643 l
405.313379 94.854236 l
408.80669 99.779442 l
412.3 105.281277 l
412.3 105.281277 l
stroke
grestore
1.200 setlinewidth
0 setlinejoin
[] 0 setdash
0.000 setgray
gsave
64.715625 56.23125 m
64.715625 268.3 l
stroke
grestore
gsave
412.3 56.23125 m
412.3 268.3 l
stroke
grestore
gsave
64.715625 56.23125 m
412.3 56.23125 l
stroke
grestore
gsave
64.715625 268.3 m
412.3 268.3 l
stroke
grestore
1.000 setlinewidth
0 setlinecap
0.800 setgray
gsave
311.024688 193.51175 m
453.368438 193.51175 l
455.368438 193.51175 456.368438 194.51175 456.368438 196.51175 c
456.368438 261.058625 l
456.368438 263.058625 455.368438 264.058625 453.368438 264.058625 c
311.024688 264.058625 l
309.024688 264.058625 308.024688 263.058625 308.024688 261.058625 c
308.024688 196.51175 l
308.024688 194.51175 309.024688 193.51175 311.024688 193.51175 c
cl
gsave
1.000 setgray
fill
grestore
stroke
grestore
2.000 setlinewidth
1 setlinejoin
2 setlinecap
[] 0 setdash
0.204 0.396 0.643 setrgbcolor
gsave
314.024688 251.918 m
344.024688 251.918 l
stroke
grestore
0.000 setgray
gsave
356.024688 246.668000 translate
0.000000 rotate
0.000000 0.000000 m /M glyphshow
14.926758 0.000000 m /e glyphshow
25.100098 0.000000 m /a glyphshow
35.222168 0.000000 m /n glyphshow
grestore
1.500 setlinewidth
0 setlinecap
gsave
/o {
gsave
newpath
translate
1.5 setlinewidth
1 setlinejoin
0 setlinecap
-3 -3 m
3 3 l
-3 3 m
3 -3 l

gsave
0.000 setgray
fill
grestore
stroke
grestore
} bind def
329.025 228.59 o
grestore
gsave
356.024688 224.652375 translate
0.000000 rotate
0.000000 0.000000 m /D glyphshow
12.451172 0.000000 m /a glyphshow
22.573242 0.000000 m /t glyphshow
29.743652 0.000000 m /a glyphshow
grestore
0.500 setlinewidth
0 setlinejoin
[] 0 setdash
0.125 0.290 0.529 setrgbcolor
gsave
314.024688 202.63675 m
344.024688 202.63675 l
344.024688 213.13675 l
314.024688 213.13675 l
cl
gsave
0.447 0.624 0.812 setrgbcolor
fill
grestore
stroke
grestore
0.000 setgray
gsave
356.024688 202.636750 translate
0.000000 rotate
0.000000 0.000000 m /C glyphshow
11.008301 0.000000 m /o glyphshow
21.313477 0.000000 m /n glyphshow
31.992188 0.000000 m /f glyphshow
38.518066 0.000000 m /i glyphshow
43.659668 0.000000 m /d glyphshow
54.396973 0.000000 m /e glyphshow
64.570312 0.000000 m /n glyphshow
75.249023 0.000000 m /c glyphshow
84.140625 0.000000 m /e glyphshow
grestore

end
showpage
