%!PS-Adobe-3.0 EPSF-3.0
%%Title: ../img/syn_train_3.eps
%%Creator: matplotlib version 2.0.2, http://matplotlib.org/
%%CreationDate: Thu Dec 21 09:28:43 2017
%%Orientation: portrait
%%BoundingBox: 113 262 498 529
%%EndComments
%%BeginProlog
/mpldict 8 dict def
mpldict begin
/m { moveto } bind def
/l { lineto } bind def
/r { rlineto } bind def
/c { curveto } bind def
/cl { closepath } bind def
/box {
m
1 index 0 r
0 exch r
neg 0 r
cl
} bind def
/clipbox {
box
clip
newpath
} bind def
%!PS-Adobe-3.0 Resource-Font
%%Title: DejaVu Sans
%%Copyright: Copyright (c) 2003 by Bitstream, Inc. All Rights Reserved. Copyright (c) 2006 by Tavmjong Bah. All Rights Reserved. DejaVu changes are in public domain 
%%Creator: Converted from TrueType to type 3 by PPR
25 dict begin
/_d{bind def}bind def
/_m{moveto}_d
/_l{lineto}_d
/_cl{closepath eofill}_d
/_c{curveto}_d
/_sc{7 -1 roll{setcachedevice}{pop pop pop pop pop pop}ifelse}_d
/_e{exec}_d
/FontName /DejaVuSans def
/PaintType 0 def
/FontMatrix[.001 0 0 .001 0 0]def
/FontBBox[-1021 -463 1793 1232]def
/FontType 3 def
/Encoding [ /period /zero /one /two /four /five /six /seven /eight /underscore /a /i /n /r /t /x /minus ] def
/FontInfo 10 dict dup begin
/FamilyName (DejaVu Sans) def
/FullName (DejaVu Sans) def
/Notice (Copyright (c) 2003 by Bitstream, Inc. All Rights Reserved. Copyright (c) 2006 by Tavmjong Bah. All Rights Reserved. DejaVu changes are in public domain ) def
/Weight (Book) def
/Version (Version 2.35) def
/ItalicAngle 0.0 def
/isFixedPitch false def
/UnderlinePosition -130 def
/UnderlineThickness 90 def
end readonly def
/CharStrings 17 dict dup begin
/period{318 0 107 0 210 124 _sc
107 124 _m
210 124 _l
210 0 _l
107 0 _l
107 124 _l
_cl}_d
/zero{636 0 66 -13 570 742 _sc
318 664 _m
267 664 229 639 203 589 _c
177 539 165 464 165 364 _c
165 264 177 189 203 139 _c
229 89 267 64 318 64 _c
369 64 407 89 433 139 _c
458 189 471 264 471 364 _c
471 464 458 539 433 589 _c
407 639 369 664 318 664 _c
318 742 _m
399 742 461 709 505 645 _c
548 580 570 486 570 364 _c
570 241 548 147 505 83 _c
461 19 399 -13 318 -13 _c
236 -13 173 19 130 83 _c
87 147 66 241 66 364 _c
66 486 87 580 130 645 _c
173 709 236 742 318 742 _c
_cl}_d
/one{636 0 110 0 544 729 _sc
124 83 _m
285 83 _l
285 639 _l
110 604 _l
110 694 _l
284 729 _l
383 729 _l
383 83 _l
544 83 _l
544 0 _l
124 0 _l
124 83 _l
_cl}_d
/two{{636 0 73 0 536 742 _sc
192 83 _m
536 83 _l
536 0 _l
73 0 _l
73 83 _l
110 121 161 173 226 239 _c
290 304 331 346 348 365 _c
380 400 402 430 414 455 _c
426 479 433 504 433 528 _c
433 566 419 598 392 622 _c
365 646 330 659 286 659 _c
255 659 222 653 188 643 _c
154 632 117 616 78 594 _c
78 694 _l
118 710 155 722 189 730 _c
223 738 255 742 284 742 _c
}_e{359 742 419 723 464 685 _c
509 647 532 597 532 534 _c
532 504 526 475 515 449 _c
504 422 484 390 454 354 _c
446 344 420 317 376 272 _c
332 227 271 164 192 83 _c
_cl}_e}_d
/four{636 0 49 0 580 729 _sc
378 643 _m
129 254 _l
378 254 _l
378 643 _l
352 729 _m
476 729 _l
476 254 _l
580 254 _l
580 172 _l
476 172 _l
476 0 _l
378 0 _l
378 172 _l
49 172 _l
49 267 _l
352 729 _l
_cl}_d
/five{{636 0 77 -13 549 729 _sc
108 729 _m
495 729 _l
495 646 _l
198 646 _l
198 467 _l
212 472 227 476 241 478 _c
255 480 270 482 284 482 _c
365 482 429 459 477 415 _c
525 370 549 310 549 234 _c
549 155 524 94 475 51 _c
426 8 357 -13 269 -13 _c
238 -13 207 -10 175 -6 _c
143 -1 111 6 77 17 _c
77 116 _l
106 100 136 88 168 80 _c
199 72 232 69 267 69 _c
}_e{323 69 368 83 401 113 _c
433 143 450 183 450 234 _c
450 284 433 324 401 354 _c
368 384 323 399 267 399 _c
241 399 214 396 188 390 _c
162 384 135 375 108 363 _c
108 729 _l
_cl}_e}_d
/six{{636 0 70 -13 573 742 _sc
330 404 _m
286 404 251 388 225 358 _c
199 328 186 286 186 234 _c
186 181 199 139 225 109 _c
251 79 286 64 330 64 _c
374 64 409 79 435 109 _c
461 139 474 181 474 234 _c
474 286 461 328 435 358 _c
409 388 374 404 330 404 _c
526 713 _m
526 623 _l
501 635 476 644 451 650 _c
425 656 400 659 376 659 _c
310 659 260 637 226 593 _c
}_e{192 549 172 482 168 394 _c
187 422 211 444 240 459 _c
269 474 301 482 336 482 _c
409 482 467 459 509 415 _c
551 371 573 310 573 234 _c
573 159 550 99 506 54 _c
462 9 403 -13 330 -13 _c
246 -13 181 19 137 83 _c
92 147 70 241 70 364 _c
70 479 97 571 152 639 _c
206 707 280 742 372 742 _c
396 742 421 739 447 735 _c
472 730 498 723 526 713 _c
_cl}_e}_d
/seven{636 0 82 0 551 729 _sc
82 729 _m
551 729 _l
551 687 _l
286 0 _l
183 0 _l
432 646 _l
82 646 _l
82 729 _l
_cl}_d
/eight{{636 0 68 -13 568 742 _sc
318 346 _m
271 346 234 333 207 308 _c
180 283 167 249 167 205 _c
167 161 180 126 207 101 _c
234 76 271 64 318 64 _c
364 64 401 76 428 102 _c
455 127 469 161 469 205 _c
469 249 455 283 429 308 _c
402 333 365 346 318 346 _c
219 388 _m
177 398 144 418 120 447 _c
96 476 85 511 85 553 _c
85 611 105 657 147 691 _c
188 725 245 742 318 742 _c
}_e{390 742 447 725 489 691 _c
530 657 551 611 551 553 _c
551 511 539 476 515 447 _c
491 418 459 398 417 388 _c
464 377 501 355 528 323 _c
554 291 568 251 568 205 _c
568 134 546 80 503 43 _c
459 5 398 -13 318 -13 _c
237 -13 175 5 132 43 _c
89 80 68 134 68 205 _c
68 251 81 291 108 323 _c
134 355 171 377 219 388 _c
183 544 _m
183 506 194 476 218 455 _c
}_e{242 434 275 424 318 424 _c
360 424 393 434 417 455 _c
441 476 453 506 453 544 _c
453 582 441 611 417 632 _c
393 653 360 664 318 664 _c
275 664 242 653 218 632 _c
194 611 183 582 183 544 _c
_cl}_e}_d
/underscore{500 0 -9 -235 510 -165 _sc
510 -165 _m
510 -235 _l
-9 -235 _l
-9 -165 _l
510 -165 _l
_cl}_d
/a{{613 0 60 -13 522 560 _sc
343 275 _m
270 275 220 266 192 250 _c
164 233 150 205 150 165 _c
150 133 160 107 181 89 _c
202 70 231 61 267 61 _c
317 61 357 78 387 114 _c
417 149 432 196 432 255 _c
432 275 _l
343 275 _l
522 312 _m
522 0 _l
432 0 _l
432 83 _l
411 49 385 25 355 10 _c
325 -5 287 -13 243 -13 _c
187 -13 142 2 109 33 _c
76 64 60 106 60 159 _c
}_e{60 220 80 266 122 298 _c
163 329 224 345 306 345 _c
432 345 _l
432 354 _l
432 395 418 427 391 450 _c
364 472 326 484 277 484 _c
245 484 215 480 185 472 _c
155 464 127 453 100 439 _c
100 522 _l
132 534 164 544 195 550 _c
226 556 256 560 286 560 _c
365 560 424 539 463 498 _c
502 457 522 395 522 312 _c
_cl}_e}_d
/i{278 0 94 0 184 760 _sc
94 547 _m
184 547 _l
184 0 _l
94 0 _l
94 547 _l
94 760 _m
184 760 _l
184 646 _l
94 646 _l
94 760 _l
_cl}_d
/n{634 0 91 0 549 560 _sc
549 330 _m
549 0 _l
459 0 _l
459 327 _l
459 379 448 417 428 443 _c
408 469 378 482 338 482 _c
289 482 251 466 223 435 _c
195 404 181 362 181 309 _c
181 0 _l
91 0 _l
91 547 _l
181 547 _l
181 462 _l
202 494 227 519 257 535 _c
286 551 320 560 358 560 _c
420 560 468 540 500 501 _c
532 462 549 405 549 330 _c
_cl}_d
/r{411 0 91 0 411 560 _sc
411 463 _m
401 469 390 473 378 476 _c
366 478 353 480 339 480 _c
288 480 249 463 222 430 _c
194 397 181 350 181 288 _c
181 0 _l
91 0 _l
91 547 _l
181 547 _l
181 462 _l
199 495 224 520 254 536 _c
284 552 321 560 365 560 _c
371 560 378 559 386 559 _c
393 558 401 557 411 555 _c
411 463 _l
_cl}_d
/t{392 0 27 0 368 702 _sc
183 702 _m
183 547 _l
368 547 _l
368 477 _l
183 477 _l
183 180 _l
183 135 189 106 201 94 _c
213 81 238 75 276 75 _c
368 75 _l
368 0 _l
276 0 _l
206 0 158 13 132 39 _c
106 65 93 112 93 180 _c
93 477 _l
27 477 _l
27 547 _l
93 547 _l
93 702 _l
183 702 _l
_cl}_d
/x{592 0 29 0 559 547 _sc
549 547 _m
351 281 _l
559 0 _l
453 0 _l
294 215 _l
135 0 _l
29 0 _l
241 286 _l
47 547 _l
153 547 _l
298 352 _l
443 547 _l
549 547 _l
_cl}_d
/minus{838 0 106 272 732 355 _sc
106 355 _m
732 355 _l
732 272 _l
106 272 _l
106 355 _l
_cl}_d
end readonly def

/BuildGlyph
 {exch begin
 CharStrings exch
 2 copy known not{pop /.notdef}if
 true 3 1 roll get exec
 end}_d

/BuildChar {
 1 index /Encoding get exch get
 1 index /BuildGlyph get exec
}_d

FontName currentdict end definefont pop
end
%%EndProlog
mpldict begin
113.5 262.18 translate
385 267.64 0 0 clipbox
gsave
0 0 m
385 0 l
385 267.64 l
0 267.64 l
cl
grestore
gsave
25.1 25.1 m
359.9 25.1 l
359.9 242.54 l
25.1 242.54 l
cl
grestore
1.000 setlinewidth
0 setlinejoin
0 setlinecap
[] 0 setdash
0.950 setgray
gsave
69.482914 73.146577 m
165.304425 126.457938 l
163.709099 228.327199 l
62.54491 180.428038 l
gsave
fill
grestore
stroke
grestore
0.900 setgray
gsave
165.304425 126.457938 m
320.526265 96.653447 l
327.020561 201.594534 l
163.709099 228.327199 l
gsave
fill
grestore
stroke
grestore
0.925 setgray
gsave
69.482914 73.146577 m
232.797263 38.434391 l
320.526265 96.653447 l
165.304425 126.457938 l
gsave
fill
grestore
stroke
grestore
0.800 setlinewidth
1 setlinejoin
2 setlinecap
[] 0 setdash
0.000 setgray
gsave
69.482914 73.146577 m
232.797263 38.434391 l
stroke
grestore
/DejaVuSans findfont
10.000 scalefont
setfont
gsave
111.993941 29.330665 translate
348.000453 rotate
0.000000 0.000000 m /x glyphshow
5.917969 0.000000 m /one glyphshow
12.280273 0.000000 m /underscore glyphshow
17.280273 0.000000 m /t glyphshow
21.201172 0.000000 m /r glyphshow
25.312500 0.000000 m /a glyphshow
31.440430 0.000000 m /i glyphshow
34.218750 0.000000 m /n glyphshow
grestore
0 setlinecap
0.690 setgray
gsave
87.395888 69.339205 m
182.380683 123.179088 l
181.64051 225.391983 l
stroke
grestore
gsave
107.204142 65.128994 m
201.249052 119.55613 l
201.463768 222.147089 l
stroke
grestore
gsave
127.237247 60.870992 m
220.315982 115.895047 l
221.506297 218.866301 l
stroke
grestore
gsave
147.499054 56.56438 m
239.584625 112.195232 l
241.771755 215.549022 l
stroke
grestore
gsave
167.9935 52.20832 m
259.058197 108.456068 l
262.263883 212.194639 l
stroke
grestore
gsave
188.724615 47.801957 m
278.739987 104.676923 l
282.986505 208.802526 l
stroke
grestore
gsave
209.696524 43.344413 m
298.633351 100.857154 l
303.943533 205.372043 l
stroke
grestore
2 setlinecap
0.000 setgray
gsave
88.214363 69.803138 m
85.755876 68.409603 l
stroke
grestore
gsave
67.507504 48.916508 translate
0.000000 rotate
0.000000 0.000000 m /minus glyphshow
8.378906 0.000000 m /seven glyphshow
14.741211 0.000000 m /period glyphshow
17.919922 0.000000 m /five glyphshow
grestore
gsave
108.014846 65.598177 m
105.579686 64.188864 l
stroke
grestore
gsave
87.313329 44.624947 translate
0.000000 rotate
0.000000 0.000000 m /minus glyphshow
8.378906 0.000000 m /five glyphshow
14.741211 0.000000 m /period glyphshow
17.919922 0.000000 m /zero glyphshow
grestore
gsave
128.03995 61.345514 m
125.628807 59.920153 l
stroke
grestore
gsave
107.344449 40.284569 translate
0.000000 rotate
0.000000 0.000000 m /minus glyphshow
8.378906 0.000000 m /two glyphshow
14.741211 0.000000 m /period glyphshow
17.919922 0.000000 m /five glyphshow
grestore
gsave
148.293519 57.044333 m
145.907102 55.602648 l
stroke
grestore
gsave
131.792232 35.894535 translate
0.000000 rotate
0.000000 0.000000 m /zero glyphshow
6.362305 0.000000 m /period glyphshow
9.541016 0.000000 m /zero glyphshow
grestore
gsave
168.779485 52.693798 m
166.418522 51.235507 l
stroke
grestore
gsave
152.285630 31.453989 translate
0.000000 rotate
0.000000 0.000000 m /two glyphshow
6.362305 0.000000 m /period glyphshow
9.541016 0.000000 m /five glyphshow
grestore
gsave
189.501872 48.293056 m
187.167112 46.81787 l
stroke
grestore
gsave
173.016193 26.962055 translate
0.000000 rotate
0.000000 0.000000 m /five glyphshow
6.362305 0.000000 m /period glyphshow
9.541016 0.000000 m /zero glyphshow
grestore
gsave
210.464796 43.841231 m
208.157009 42.348856 l
stroke
grestore
gsave
193.988060 22.417834 translate
0.000000 rotate
0.000000 0.000000 m /seven glyphshow
6.362305 0.000000 m /period glyphshow
9.541016 0.000000 m /five glyphshow
grestore
gsave
320.526265 96.653447 m
232.797263 38.434391 l
stroke
grestore
gsave
291.066947 31.722583 translate
33.569200 rotate
0.000000 0.000000 m /x glyphshow
5.917969 0.000000 m /two glyphshow
12.280273 0.000000 m /underscore glyphshow
17.280273 0.000000 m /t glyphshow
21.201172 0.000000 m /r glyphshow
25.312500 0.000000 m /a glyphshow
31.440430 0.000000 m /i glyphshow
34.218750 0.000000 m /n glyphshow
grestore
0 setlinecap
0.690 setgray
gsave
74.393757 186.038223 m
80.667417 79.3692 l
243.067563 45.250007 l
stroke
grestore
gsave
87.800928 192.386243 m
93.335181 86.41705 l
254.690165 52.963042 l
stroke
grestore
gsave
100.940316 198.607473 m
105.762629 93.331199 l
266.08226 60.523108 l
stroke
grestore
gsave
113.819865 204.705674 m
117.956535 100.115414 l
277.250637 67.934709 l
stroke
grestore
gsave
126.447208 210.684461 m
129.923421 106.773324 l
288.201823 75.202177 l
stroke
grestore
gsave
138.829679 216.547306 m
141.669569 113.308424 l
298.942092 82.329675 l
stroke
grestore
gsave
150.974335 222.297551 m
153.201031 119.72408 l
309.47748 89.32121 l
stroke
grestore
2 setlinecap
0.000 setgray
gsave
241.708637 45.535508 m
245.788443 44.678368 l
stroke
grestore
gsave
244.310570 26.485241 translate
0.000000 rotate
0.000000 0.000000 m /minus glyphshow
8.378906 0.000000 m /seven glyphshow
14.741211 0.000000 m /period glyphshow
17.919922 0.000000 m /five glyphshow
grestore
gsave
253.340578 53.242854 m
257.392314 52.402801 l
stroke
grestore
gsave
255.792607 34.305722 translate
0.000000 rotate
0.000000 0.000000 m /minus glyphshow
8.378906 0.000000 m /five glyphshow
14.741211 0.000000 m /period glyphshow
17.919922 0.000000 m /zero glyphshow
grestore
gsave
264.741911 60.797399 m
268.765883 59.973926 l
stroke
grestore
gsave
267.047053 41.971189 translate
0.000000 rotate
0.000000 0.000000 m /minus glyphshow
8.378906 0.000000 m /two glyphshow
14.741211 0.000000 m /period glyphshow
17.919922 0.000000 m /five glyphshow
grestore
gsave
275.919426 68.203641 m
279.915936 67.396263 l
stroke
grestore
gsave
282.268107 49.486205 translate
0.000000 rotate
0.000000 0.000000 m /zero glyphshow
6.362305 0.000000 m /period glyphshow
9.541016 0.000000 m /zero glyphshow
grestore
gsave
286.879649 75.465905 m
290.849 74.674155 l
stroke
grestore
gsave
293.087210 56.855157 translate
0.000000 rotate
0.000000 0.000000 m /two glyphshow
6.362305 0.000000 m /period glyphshow
9.541016 0.000000 m /five glyphshow
grestore
gsave
297.628856 82.58835 m
301.571348 81.811778 l
stroke
grestore
gsave
303.698054 64.082263 translate
0.000000 rotate
0.000000 0.000000 m /five glyphshow
6.362305 0.000000 m /period glyphshow
9.541016 0.000000 m /zero glyphshow
grestore
gsave
308.173082 89.574974 m
312.089012 88.813148 l
stroke
grestore
gsave
314.106595 71.171579 translate
0.000000 rotate
0.000000 0.000000 m /seven glyphshow
6.362305 0.000000 m /period glyphshow
9.541016 0.000000 m /five glyphshow
grestore
gsave
320.526265 96.653447 m
327.020561 201.594534 l
stroke
grestore
0 setlinecap
0.690 setgray
gsave
321.279429 108.823795 m
165.119054 138.294806 l
68.679515 85.569425 l
stroke
grestore
gsave
321.979563 120.137231 m
164.946818 149.292876 l
67.932396 97.122028 l
stroke
grestore
gsave
322.687632 131.578884 m
164.772713 160.410332 l
67.176528 108.809919 l
stroke
grestore
gsave
323.40377 143.150946 m
164.596707 171.64913 l
66.411756 120.635487 l
stroke
grestore
gsave
324.128118 154.855659 m
164.41877 183.011268 l
65.637923 132.60118 l
stroke
grestore
gsave
324.860818 166.695317 m
164.23887 194.498786 l
64.854865 144.709503 l
stroke
grestore
gsave
325.602013 178.672269 m
164.056973 206.113772 l
64.062417 156.963022 l
stroke
grestore
gsave
326.351854 190.788914 m
163.873046 217.858359 l
63.260409 169.364364 l
stroke
grestore
2 setlinecap
0.000 setgray
gsave
319.976221 109.06974 m
323.888571 108.331391 l
stroke
grestore
gsave
337.605603 103.025757 translate
0.000000 rotate
0.000000 0.000000 m /six glyphshow
grestore
gsave
320.668769 120.380601 m
324.603907 119.64998 l
stroke
grestore
gsave
338.413575 114.320369 translate
0.000000 rotate
0.000000 0.000000 m /eight glyphshow
grestore
gsave
321.369163 131.819604 m
325.327356 131.096934 l
stroke
grestore
gsave
336.050993 125.742656 translate
0.000000 rotate
0.000000 0.000000 m /one glyphshow
6.362305 0.000000 m /zero glyphshow
grestore
gsave
322.077537 143.388941 m
326.059057 142.67445 l
stroke
grestore
gsave
336.877387 137.294794 translate
0.000000 rotate
0.000000 0.000000 m /one glyphshow
6.362305 0.000000 m /two glyphshow
grestore
gsave
322.794029 155.090849 m
326.799151 154.384775 l
stroke
grestore
gsave
337.713230 148.979011 translate
0.000000 rotate
0.000000 0.000000 m /one glyphshow
6.362305 0.000000 m /four glyphshow
grestore
gsave
323.518778 166.927623 m
327.547784 166.230207 l
stroke
grestore
gsave
338.558684 160.797585 translate
0.000000 rotate
0.000000 0.000000 m /one glyphshow
6.362305 0.000000 m /six glyphshow
grestore
gsave
324.251928 178.901606 m
328.305104 178.213097 l
stroke
grestore
gsave
339.413916 172.752847 translate
0.000000 rotate
0.000000 0.000000 m /one glyphshow
6.362305 0.000000 m /eight glyphshow
grestore
gsave
324.993626 191.015199 m
329.071264 190.335852 l
stroke
grestore
gsave
340.279097 184.847182 translate
0.000000 rotate
0.000000 0.000000 m /two glyphshow
6.362305 0.000000 m /zero glyphshow
grestore
/p0_0 {
newpath
translate
0 -2.236068 m
0.593012 -2.236068 1.161816 -2.000462 1.581139 -1.581139 c
2.000462 -1.161816 2.236068 -0.593012 2.236068 0 c
2.236068 0.593012 2.000462 1.161816 1.581139 1.581139 c
1.161816 2.000462 0.593012 2.236068 0 2.236068 c
-0.593012 2.236068 -1.161816 2.000462 -1.581139 1.581139 c
-2.000462 1.161816 -2.236068 0.593012 -2.236068 0 c
-2.236068 -0.593012 -2.000462 -1.161816 -1.581139 -1.581139 c
-1.161816 -2.000462 -0.593012 -2.236068 0 -2.236068 c
cl

} bind def
1.000 setlinewidth
0 setlinecap
1.000 0.000 0.000 setrgbcolor
gsave
334.8 217.4 25.1 25.1 clipbox
225.712 152.348 p0_0
gsave
fill
grestore
stroke
grestore
gsave
334.8 217.4 25.1 25.1 clipbox
173.925 86.9371 p0_0
gsave
fill
grestore
stroke
grestore
gsave
334.8 217.4 25.1 25.1 clipbox
192.52 101.92 p0_0
gsave
fill
grestore
stroke
grestore
gsave
334.8 217.4 25.1 25.1 clipbox
215.988 164.961 p0_0
gsave
fill
grestore
stroke
grestore
gsave
334.8 217.4 25.1 25.1 clipbox
174.559 87.817 p0_0
gsave
fill
grestore
stroke
grestore
gsave
334.8 217.4 25.1 25.1 clipbox
203.136 117.717 p0_0
gsave
fill
grestore
stroke
grestore
gsave
334.8 217.4 25.1 25.1 clipbox
181.592 102.724 p0_0
gsave
fill
grestore
stroke
grestore
gsave
334.8 217.4 25.1 25.1 clipbox
179.19 97.7694 p0_0
gsave
fill
grestore
stroke
grestore
gsave
334.8 217.4 25.1 25.1 clipbox
173.749 86.7282 p0_0
gsave
fill
grestore
stroke
grestore
gsave
334.8 217.4 25.1 25.1 clipbox
169.12 87.9273 p0_0
gsave
fill
grestore
stroke
grestore
gsave
334.8 217.4 25.1 25.1 clipbox
223.811 153.243 p0_0
gsave
fill
grestore
stroke
grestore
gsave
334.8 217.4 25.1 25.1 clipbox
166.202 95.0241 p0_0
gsave
fill
grestore
stroke
grestore
gsave
334.8 217.4 25.1 25.1 clipbox
196.41 99.9259 p0_0
gsave
fill
grestore
stroke
grestore
gsave
334.8 217.4 25.1 25.1 clipbox
187.969 106.479 p0_0
gsave
fill
grestore
stroke
grestore
gsave
334.8 217.4 25.1 25.1 clipbox
143.145 108.576 p0_0
gsave
fill
grestore
stroke
grestore
gsave
334.8 217.4 25.1 25.1 clipbox
170.956 85.8595 p0_0
gsave
fill
grestore
stroke
grestore
gsave
334.8 217.4 25.1 25.1 clipbox
181.224 102.059 p0_0
gsave
fill
grestore
stroke
grestore
gsave
334.8 217.4 25.1 25.1 clipbox
216.273 164.907 p0_0
gsave
fill
grestore
stroke
grestore
gsave
334.8 217.4 25.1 25.1 clipbox
205.847 131.45 p0_0
gsave
fill
grestore
stroke
grestore
gsave
334.8 217.4 25.1 25.1 clipbox
143.774 110.125 p0_0
gsave
fill
grestore
stroke
grestore
gsave
334.8 217.4 25.1 25.1 clipbox
270.886 150.68 p0_0
gsave
fill
grestore
stroke
grestore
gsave
334.8 217.4 25.1 25.1 clipbox
219.77 112.174 p0_0
gsave
fill
grestore
stroke
grestore
gsave
334.8 217.4 25.1 25.1 clipbox
238.086 116.852 p0_0
gsave
fill
grestore
stroke
grestore
gsave
334.8 217.4 25.1 25.1 clipbox
261.236 145.361 p0_0
gsave
fill
grestore
stroke
grestore
gsave
334.8 217.4 25.1 25.1 clipbox
220.389 111.162 p0_0
gsave
fill
grestore
stroke
grestore
gsave
334.8 217.4 25.1 25.1 clipbox
249.108 146.084 p0_0
gsave
fill
grestore
stroke
grestore
gsave
334.8 217.4 25.1 25.1 clipbox
227.279 104.806 p0_0
gsave
fill
grestore
stroke
grestore
gsave
334.8 217.4 25.1 25.1 clipbox
224.927 105.789 p0_0
gsave
fill
grestore
stroke
grestore
gsave
334.8 217.4 25.1 25.1 clipbox
219.598 112.464 p0_0
gsave
fill
grestore
stroke
grestore
gsave
334.8 217.4 25.1 25.1 clipbox
215.155 120.377 p0_0
gsave
fill
grestore
stroke
grestore
gsave
334.8 217.4 25.1 25.1 clipbox
268.847 145.08 p0_0
gsave
fill
grestore
stroke
grestore
gsave
334.8 217.4 25.1 25.1 clipbox
212.427 124.313 p0_0
gsave
fill
grestore
stroke
grestore
gsave
334.8 217.4 25.1 25.1 clipbox
242.1 127.22 p0_0
gsave
fill
grestore
stroke
grestore
gsave
334.8 217.4 25.1 25.1 clipbox
233.528 108.559 p0_0
gsave
fill
grestore
stroke
grestore
gsave
334.8 217.4 25.1 25.1 clipbox
190.251 98.1052 p0_0
gsave
fill
grestore
stroke
grestore
gsave
334.8 217.4 25.1 25.1 clipbox
216.902 117.283 p0_0
gsave
fill
grestore
stroke
grestore
gsave
334.8 217.4 25.1 25.1 clipbox
226.919 104.87 p0_0
gsave
fill
grestore
stroke
grestore
gsave
334.8 217.4 25.1 25.1 clipbox
261.495 144.932 p0_0
gsave
fill
grestore
stroke
grestore
gsave
334.8 217.4 25.1 25.1 clipbox
251.831 150.86 p0_0
gsave
fill
grestore
stroke
grestore
gsave
334.8 217.4 25.1 25.1 clipbox
190.898 97.73 p0_0
gsave
fill
grestore
stroke
grestore
gsave
334.8 217.4 25.1 25.1 clipbox
220.218 153.271 p0_0
gsave
fill
grestore
stroke
grestore
gsave
334.8 217.4 25.1 25.1 clipbox
168.374 87.8912 p0_0
gsave
fill
grestore
stroke
grestore
gsave
334.8 217.4 25.1 25.1 clipbox
187.029 99.4683 p0_0
gsave
fill
grestore
stroke
grestore
gsave
334.8 217.4 25.1 25.1 clipbox
210.411 165.335 p0_0
gsave
fill
grestore
stroke
grestore
gsave
334.8 217.4 25.1 25.1 clipbox
169.018 88.0722 p0_0
gsave
fill
grestore
stroke
grestore
gsave
334.8 217.4 25.1 25.1 clipbox
197.634 123.938 p0_0
gsave
fill
grestore
stroke
grestore
gsave
334.8 217.4 25.1 25.1 clipbox
176.103 96.9133 p0_0
gsave
fill
grestore
stroke
grestore
gsave
334.8 217.4 25.1 25.1 clipbox
173.694 93.4281 p0_0
gsave
fill
grestore
stroke
grestore
gsave
334.8 217.4 25.1 25.1 clipbox
168.194 87.875 p0_0
gsave
fill
grestore
stroke
grestore
gsave
334.8 217.4 25.1 25.1 clipbox
163.473 93.1087 p0_0
gsave
fill
grestore
stroke
grestore
gsave
334.8 217.4 25.1 25.1 clipbox
218.299 153.429 p0_0
gsave
fill
grestore
stroke
grestore
gsave
334.8 217.4 25.1 25.1 clipbox
160.496 101.352 p0_0
gsave
fill
grestore
stroke
grestore
gsave
334.8 217.4 25.1 25.1 clipbox
190.922 101.699 p0_0
gsave
fill
grestore
stroke
grestore
gsave
334.8 217.4 25.1 25.1 clipbox
182.476 100.666 p0_0
gsave
fill
grestore
stroke
grestore
gsave
334.8 217.4 25.1 25.1 clipbox
137.422 108.752 p0_0
gsave
fill
grestore
stroke
grestore
gsave
334.8 217.4 25.1 25.1 clipbox
165.348 89.7411 p0_0
gsave
fill
grestore
stroke
grestore
gsave
334.8 217.4 25.1 25.1 clipbox
175.734 96.4215 p0_0
gsave
fill
grestore
stroke
grestore
gsave
334.8 217.4 25.1 25.1 clipbox
210.696 165.157 p0_0
gsave
fill
grestore
stroke
grestore
gsave
334.8 217.4 25.1 25.1 clipbox
200.327 137.524 p0_0
gsave
fill
grestore
stroke
grestore
gsave
334.8 217.4 25.1 25.1 clipbox
138.055 110.113 p0_0
gsave
fill
grestore
stroke
grestore
gsave
334.8 217.4 25.1 25.1 clipbox
234.42 150.924 p0_0
gsave
fill
grestore
stroke
grestore
gsave
334.8 217.4 25.1 25.1 clipbox
182.719 86.5143 p0_0
gsave
fill
grestore
stroke
grestore
gsave
334.8 217.4 25.1 25.1 clipbox
201.26 103.936 p0_0
gsave
fill
grestore
stroke
grestore
gsave
334.8 217.4 25.1 25.1 clipbox
224.825 163.599 p0_0
gsave
fill
grestore
stroke
grestore
gsave
334.8 217.4 25.1 25.1 clipbox
183.349 87.9072 p0_0
gsave
fill
grestore
stroke
grestore
gsave
334.8 217.4 25.1 25.1 clipbox
211.835 112.891 p0_0
gsave
fill
grestore
stroke
grestore
gsave
334.8 217.4 25.1 25.1 clipbox
190.388 106.956 p0_0
gsave
fill
grestore
stroke
grestore
gsave
334.8 217.4 25.1 25.1 clipbox
187.979 101.044 p0_0
gsave
fill
grestore
stroke
grestore
gsave
334.8 217.4 25.1 25.1 clipbox
182.543 86.1623 p0_0
gsave
fill
grestore
stroke
grestore
gsave
334.8 217.4 25.1 25.1 clipbox
177.982 84.1257 p0_0
gsave
fill
grestore
stroke
grestore
gsave
334.8 217.4 25.1 25.1 clipbox
232.546 152.273 p0_0
gsave
fill
grestore
stroke
grestore
gsave
334.8 217.4 25.1 25.1 clipbox
175.131 90.1047 p0_0
gsave
fill
grestore
stroke
grestore
gsave
334.8 217.4 25.1 25.1 clipbox
205.107 98.9099 p0_0
gsave
fill
grestore
stroke
grestore
gsave
334.8 217.4 25.1 25.1 clipbox
196.753 110.717 p0_0
gsave
fill
grestore
stroke
grestore
gsave
334.8 217.4 25.1 25.1 clipbox
152.247 107.477 p0_0
gsave
fill
grestore
stroke
grestore
gsave
334.8 217.4 25.1 25.1 clipbox
179.784 83.1664 p0_0
gsave
fill
grestore
stroke
grestore
gsave
334.8 217.4 25.1 25.1 clipbox
190.019 106.179 p0_0
gsave
fill
grestore
stroke
grestore
gsave
334.8 217.4 25.1 25.1 clipbox
225.108 163.634 p0_0
gsave
fill
grestore
stroke
grestore
gsave
334.8 217.4 25.1 25.1 clipbox
214.58 126.492 p0_0
gsave
fill
grestore
stroke
grestore
gsave
334.8 217.4 25.1 25.1 clipbox
152.877 109.133 p0_0
gsave
fill
grestore
stroke
grestore
gsave
334.8 217.4 25.1 25.1 clipbox
167.853 214.722 p0_0
gsave
fill
grestore
stroke
grestore
gsave
334.8 217.4 25.1 25.1 clipbox
114.708 134.748 p0_0
gsave
fill
grestore
stroke
grestore
gsave
334.8 217.4 25.1 25.1 clipbox
134.217 145.839 p0_0
gsave
fill
grestore
stroke
grestore
gsave
334.8 217.4 25.1 25.1 clipbox
157.921 180.907 p0_0
gsave
fill
grestore
stroke
grestore
gsave
334.8 217.4 25.1 25.1 clipbox
115.374 135.251 p0_0
gsave
fill
grestore
stroke
grestore
gsave
334.8 217.4 25.1 25.1 clipbox
145.329 151.128 p0_0
gsave
fill
grestore
stroke
grestore
gsave
334.8 217.4 25.1 25.1 clipbox
122.787 140.729 p0_0
gsave
fill
grestore
stroke
grestore
gsave
334.8 217.4 25.1 25.1 clipbox
120.26 138.978 p0_0
gsave
fill
grestore
stroke
grestore
gsave
334.8 217.4 25.1 25.1 clipbox
114.523 134.61 p0_0
gsave
fill
grestore
stroke
grestore
gsave
334.8 217.4 25.1 25.1 clipbox
109.742 131.582 p0_0
gsave
fill
grestore
stroke
grestore
gsave
334.8 217.4 25.1 25.1 clipbox
165.872 209.778 p0_0
gsave
fill
grestore
stroke
grestore
gsave
334.8 217.4 25.1 25.1 clipbox
106.799 130.651 p0_0
gsave
fill
grestore
stroke
grestore
gsave
334.8 217.4 25.1 25.1 clipbox
138.32 147.044 p0_0
gsave
fill
grestore
stroke
grestore
gsave
334.8 217.4 25.1 25.1 clipbox
129.451 144.242 p0_0
gsave
fill
grestore
stroke
grestore
gsave
334.8 217.4 25.1 25.1 clipbox
80.7381 167.238 p0_0
gsave
fill
grestore
stroke
grestore
gsave
334.8 217.4 25.1 25.1 clipbox
111.621 132.613 p0_0
gsave
fill
grestore
stroke
grestore
gsave
334.8 217.4 25.1 25.1 clipbox
122.401 140.474 p0_0
gsave
fill
grestore
stroke
grestore
gsave
334.8 217.4 25.1 25.1 clipbox
158.201 181.958 p0_0
gsave
fill
grestore
stroke
grestore
gsave
334.8 217.4 25.1 25.1 clipbox
148.057 154.474 p0_0
gsave
fill
grestore
stroke
grestore
gsave
334.8 217.4 25.1 25.1 clipbox
81.5242 166.002 p0_0
gsave
fill
grestore
stroke
grestore
gsave
334.8 217.4 25.1 25.1 clipbox
241.573 149.532 p0_0
gsave
fill
grestore
stroke
grestore
gsave
334.8 217.4 25.1 25.1 clipbox
189.962 84.2176 p0_0
gsave
fill
grestore
stroke
grestore
gsave
334.8 217.4 25.1 25.1 clipbox
208.437 100.436 p0_0
gsave
fill
grestore
stroke
grestore
gsave
334.8 217.4 25.1 25.1 clipbox
232.084 162.207 p0_0
gsave
fill
grestore
stroke
grestore
gsave
334.8 217.4 25.1 25.1 clipbox
190.594 85.3424 p0_0
gsave
fill
grestore
stroke
grestore
gsave
334.8 217.4 25.1 25.1 clipbox
219.009 113.127 p0_0
gsave
fill
grestore
stroke
grestore
gsave
334.8 217.4 25.1 25.1 clipbox
197.654 102.278 p0_0
gsave
fill
grestore
stroke
grestore
gsave
334.8 217.4 25.1 25.1 clipbox
195.241 96.844 p0_0
gsave
fill
grestore
stroke
grestore
gsave
334.8 217.4 25.1 25.1 clipbox
189.786 83.9407 p0_0
gsave
fill
grestore
stroke
grestore
gsave
334.8 217.4 25.1 25.1 clipbox
185.236 83.6354 p0_0
gsave
fill
grestore
stroke
grestore
gsave
334.8 217.4 25.1 25.1 clipbox
239.71 150.644 p0_0
gsave
fill
grestore
stroke
grestore
gsave
334.8 217.4 25.1 25.1 clipbox
182.418 90.2412 p0_0
gsave
fill
grestore
stroke
grestore
gsave
334.8 217.4 25.1 25.1 clipbox
212.251 97.017 p0_0
gsave
fill
grestore
stroke
grestore
gsave
334.8 217.4 25.1 25.1 clipbox
203.983 106.06 p0_0
gsave
fill
grestore
stroke
grestore
gsave
334.8 217.4 25.1 25.1 clipbox
159.752 105.615 p0_0
gsave
fill
grestore
stroke
grestore
gsave
334.8 217.4 25.1 25.1 clipbox
187.028 82.0741 p0_0
gsave
fill
grestore
stroke
grestore
gsave
334.8 217.4 25.1 25.1 clipbox
197.285 101.556 p0_0
gsave
fill
grestore
stroke
grestore
gsave
334.8 217.4 25.1 25.1 clipbox
232.364 162.196 p0_0
gsave
fill
grestore
stroke
grestore
gsave
334.8 217.4 25.1 25.1 clipbox
221.791 126.857 p0_0
gsave
fill
grestore
stroke
grestore
gsave
334.8 217.4 25.1 25.1 clipbox
160.385 107.222 p0_0
gsave
fill
grestore
stroke
grestore
gsave
334.8 217.4 25.1 25.1 clipbox
310.337 193.273 p0_0
gsave
fill
grestore
stroke
grestore
gsave
334.8 217.4 25.1 25.1 clipbox
257.597 106.902 p0_0
gsave
fill
grestore
stroke
grestore
gsave
334.8 217.4 25.1 25.1 clipbox
275.643 117.855 p0_0
gsave
fill
grestore
stroke
grestore
gsave
334.8 217.4 25.1 25.1 clipbox
299.516 164.141 p0_0
gsave
fill
grestore
stroke
grestore
gsave
334.8 217.4 25.1 25.1 clipbox
258.215 107.206 p0_0
gsave
fill
grestore
stroke
grestore
gsave
334.8 217.4 25.1 25.1 clipbox
286.07 128.385 p0_0
gsave
fill
grestore
stroke
grestore
gsave
334.8 217.4 25.1 25.1 clipbox
265.12 111.446 p0_0
gsave
fill
grestore
stroke
grestore
gsave
334.8 217.4 25.1 25.1 clipbox
262.769 109.921 p0_0
gsave
fill
grestore
stroke
grestore
gsave
334.8 217.4 25.1 25.1 clipbox
257.425 106.822 p0_0
gsave
fill
grestore
stroke
grestore
gsave
334.8 217.4 25.1 25.1 clipbox
253.026 105.652 p0_0
gsave
fill
grestore
stroke
grestore
gsave
334.8 217.4 25.1 25.1 clipbox
308.335 189.877 p0_0
gsave
fill
grestore
stroke
grestore
gsave
334.8 217.4 25.1 25.1 clipbox
250.383 106.138 p0_0
gsave
fill
grestore
stroke
grestore
gsave
334.8 217.4 25.1 25.1 clipbox
279.42 120.528 p0_0
gsave
fill
grestore
stroke
grestore
gsave
334.8 217.4 25.1 25.1 clipbox
271.273 115.252 p0_0
gsave
fill
grestore
stroke
grestore
gsave
334.8 217.4 25.1 25.1 clipbox
229.58 144.311 p0_0
gsave
fill
grestore
stroke
grestore
gsave
334.8 217.4 25.1 25.1 clipbox
254.743 105.874 p0_0
gsave
fill
grestore
stroke
grestore
gsave
334.8 217.4 25.1 25.1 clipbox
264.761 111.214 p0_0
gsave
fill
grestore
stroke
grestore
gsave
334.8 217.4 25.1 25.1 clipbox
299.835 165.197 p0_0
gsave
fill
grestore
stroke
grestore
gsave
334.8 217.4 25.1 25.1 clipbox
288.792 133.467 p0_0
gsave
fill
grestore
stroke
grestore
gsave
334.8 217.4 25.1 25.1 clipbox
230.209 143.563 p0_0
gsave
fill
grestore
stroke
grestore
gsave
334.8 217.4 25.1 25.1 clipbox
296.428 180.86 p0_0
gsave
fill
grestore
stroke
grestore
gsave
334.8 217.4 25.1 25.1 clipbox
244.597 120.17 p0_0
gsave
fill
grestore
stroke
grestore
gsave
334.8 217.4 25.1 25.1 clipbox
262.953 133.152 p0_0
gsave
fill
grestore
stroke
grestore
gsave
334.8 217.4 25.1 25.1 clipbox
285.269 140.808 p0_0
gsave
fill
grestore
stroke
grestore
gsave
334.8 217.4 25.1 25.1 clipbox
245.238 121.012 p0_0
gsave
fill
grestore
stroke
grestore
gsave
334.8 217.4 25.1 25.1 clipbox
273 130.286 p0_0
gsave
fill
grestore
stroke
grestore
gsave
334.8 217.4 25.1 25.1 clipbox
252.322 128.389 p0_0
gsave
fill
grestore
stroke
grestore
gsave
334.8 217.4 25.1 25.1 clipbox
249.921 126.286 p0_0
gsave
fill
grestore
stroke
grestore
gsave
334.8 217.4 25.1 25.1 clipbox
244.419 119.931 p0_0
gsave
fill
grestore
stroke
grestore
gsave
334.8 217.4 25.1 25.1 clipbox
239.832 113.161 p0_0
gsave
fill
grestore
stroke
grestore
gsave
334.8 217.4 25.1 25.1 clipbox
294.2 172.394 p0_0
gsave
fill
grestore
stroke
grestore
gsave
334.8 217.4 25.1 25.1 clipbox
237.05 108.787 p0_0
gsave
fill
grestore
stroke
grestore
gsave
334.8 217.4 25.1 25.1 clipbox
266.679 132.807 p0_0
gsave
fill
grestore
stroke
grestore
gsave
334.8 217.4 25.1 25.1 clipbox
258.566 132.121 p0_0
gsave
fill
grestore
stroke
grestore
gsave
334.8 217.4 25.1 25.1 clipbox
215.529 125.426 p0_0
gsave
fill
grestore
stroke
grestore
gsave
334.8 217.4 25.1 25.1 clipbox
241.63 115.935 p0_0
gsave
fill
grestore
stroke
grestore
gsave
334.8 217.4 25.1 25.1 clipbox
251.956 128.094 p0_0
gsave
fill
grestore
stroke
grestore
gsave
334.8 217.4 25.1 25.1 clipbox
285.571 141.625 p0_0
gsave
fill
grestore
stroke
grestore
gsave
334.8 217.4 25.1 25.1 clipbox
275.495 129.551 p0_0
gsave
fill
grestore
stroke
grestore
gsave
334.8 217.4 25.1 25.1 clipbox
216.152 123.396 p0_0
gsave
fill
grestore
stroke
grestore
gsave
334.8 217.4 25.1 25.1 clipbox
195.626 168.365 p0_0
gsave
fill
grestore
stroke
grestore
gsave
334.8 217.4 25.1 25.1 clipbox
142.335 137.108 p0_0
gsave
fill
grestore
stroke
grestore
gsave
334.8 217.4 25.1 25.1 clipbox
161.752 142.718 p0_0
gsave
fill
grestore
stroke
grestore
gsave
334.8 217.4 25.1 25.1 clipbox
185.554 155.907 p0_0
gsave
fill
grestore
stroke
grestore
gsave
334.8 217.4 25.1 25.1 clipbox
143.027 136.447 p0_0
gsave
fill
grestore
stroke
grestore
gsave
334.8 217.4 25.1 25.1 clipbox
172.53 163.302 p0_0
gsave
fill
grestore
stroke
grestore
gsave
334.8 217.4 25.1 25.1 clipbox
150.611 131.915 p0_0
gsave
fill
grestore
stroke
grestore
gsave
334.8 217.4 25.1 25.1 clipbox
148.058 132.634 p0_0
gsave
fill
grestore
stroke
grestore
gsave
334.8 217.4 25.1 25.1 clipbox
142.143 137.294 p0_0
gsave
fill
grestore
stroke
grestore
gsave
334.8 217.4 25.1 25.1 clipbox
137.184 141.653 p0_0
gsave
fill
grestore
stroke
grestore
gsave
334.8 217.4 25.1 25.1 clipbox
193.666 161.515 p0_0
gsave
fill
grestore
stroke
grestore
gsave
334.8 217.4 25.1 25.1 clipbox
134.203 142.818 p0_0
gsave
fill
grestore
stroke
grestore
gsave
334.8 217.4 25.1 25.1 clipbox
165.682 150.964 p0_0
gsave
fill
grestore
stroke
grestore
gsave
334.8 217.4 25.1 25.1 clipbox
157.17 135.473 p0_0
gsave
fill
grestore
stroke
grestore
gsave
334.8 217.4 25.1 25.1 clipbox
111.6 116.324 p0_0
gsave
fill
grestore
stroke
grestore
gsave
334.8 217.4 25.1 25.1 clipbox
139.125 140.139 p0_0
gsave
fill
grestore
stroke
grestore
gsave
334.8 217.4 25.1 25.1 clipbox
150.223 131.956 p0_0
gsave
fill
grestore
stroke
grestore
gsave
334.8 217.4 25.1 25.1 clipbox
185.846 155.612 p0_0
gsave
fill
grestore
stroke
grestore
gsave
334.8 217.4 25.1 25.1 clipbox
175.282 165.168 p0_0
gsave
fill
grestore
stroke
grestore
gsave
334.8 217.4 25.1 25.1 clipbox
112.325 115.441 p0_0
gsave
fill
grestore
stroke
grestore
gsave
334.8 217.4 25.1 25.1 clipbox
245.428 148.734 p0_0
gsave
fill
grestore
stroke
grestore
gsave
334.8 217.4 25.1 25.1 clipbox
193.865 82.6831 p0_0
gsave
fill
grestore
stroke
grestore
gsave
334.8 217.4 25.1 25.1 clipbox
212.291 97.1144 p0_0
gsave
fill
grestore
stroke
grestore
gsave
334.8 217.4 25.1 25.1 clipbox
235.994 161.29 p0_0
gsave
fill
grestore
stroke
grestore
gsave
334.8 217.4 25.1 25.1 clipbox
194.498 83.4243 p0_0
gsave
fill
grestore
stroke
grestore
gsave
334.8 217.4 25.1 25.1 clipbox
222.904 114.892 p0_0
gsave
fill
grestore
stroke
grestore
gsave
334.8 217.4 25.1 25.1 clipbox
201.556 97.206 p0_0
gsave
fill
grestore
stroke
grestore
gsave
334.8 217.4 25.1 25.1 clipbox
199.147 92.5089 p0_0
gsave
fill
grestore
stroke
grestore
gsave
334.8 217.4 25.1 25.1 clipbox
193.69 82.5128 p0_0
gsave
fill
grestore
stroke
grestore
gsave
334.8 217.4 25.1 25.1 clipbox
189.146 84.5706 p0_0
gsave
fill
grestore
stroke
grestore
gsave
334.8 217.4 25.1 25.1 clipbox
243.566 149.484 p0_0
gsave
fill
grestore
stroke
grestore
gsave
334.8 217.4 25.1 25.1 clipbox
186.344 91.958 p0_0
gsave
fill
grestore
stroke
grestore
gsave
334.8 217.4 25.1 25.1 clipbox
216.102 96 p0_0
gsave
fill
grestore
stroke
grestore
gsave
334.8 217.4 25.1 25.1 clipbox
207.859 101.005 p0_0
gsave
fill
grestore
stroke
grestore
gsave
334.8 217.4 25.1 25.1 clipbox
163.804 104.282 p0_0
gsave
fill
grestore
stroke
grestore
gsave
334.8 217.4 25.1 25.1 clipbox
190.933 82.2122 p0_0
gsave
fill
grestore
stroke
grestore
gsave
334.8 217.4 25.1 25.1 clipbox
201.188 96.5701 p0_0
gsave
fill
grestore
stroke
grestore
gsave
334.8 217.4 25.1 25.1 clipbox
236.273 161.212 p0_0
gsave
fill
grestore
stroke
grestore
gsave
334.8 217.4 25.1 25.1 clipbox
225.707 128.696 p0_0
gsave
fill
grestore
stroke
grestore
gsave
334.8 217.4 25.1 25.1 clipbox
164.439 105.805 p0_0
gsave
fill
grestore
stroke
grestore
gsave
334.8 217.4 25.1 25.1 clipbox
241.106 149.628 p0_0
gsave
fill
grestore
stroke
grestore
gsave
334.8 217.4 25.1 25.1 clipbox
189.489 84.4105 p0_0
gsave
fill
grestore
stroke
grestore
gsave
334.8 217.4 25.1 25.1 clipbox
207.97 100.795 p0_0
gsave
fill
grestore
stroke
grestore
gsave
334.8 217.4 25.1 25.1 clipbox
231.61 162.307 p0_0
gsave
fill
grestore
stroke
grestore
gsave
334.8 217.4 25.1 25.1 clipbox
190.121 85.5713 p0_0
gsave
fill
grestore
stroke
grestore
gsave
334.8 217.4 25.1 25.1 clipbox
218.539 112.994 p0_0
gsave
fill
grestore
stroke
grestore
gsave
334.8 217.4 25.1 25.1 clipbox
197.18 102.795 p0_0
gsave
fill
grestore
stroke
grestore
gsave
334.8 217.4 25.1 25.1 clipbox
194.768 97.2955 p0_0
gsave
fill
grestore
stroke
grestore
gsave
334.8 217.4 25.1 25.1 clipbox
189.313 84.1235 p0_0
gsave
fill
grestore
stroke
grestore
gsave
334.8 217.4 25.1 25.1 clipbox
184.763 83.5896 p0_0
gsave
fill
grestore
stroke
grestore
gsave
334.8 217.4 25.1 25.1 clipbox
239.243 150.772 p0_0
gsave
fill
grestore
stroke
grestore
gsave
334.8 217.4 25.1 25.1 clipbox
181.943 90.1153 p0_0
gsave
fill
grestore
stroke
grestore
gsave
334.8 217.4 25.1 25.1 clipbox
211.785 97.1598 p0_0
gsave
fill
grestore
stroke
grestore
gsave
334.8 217.4 25.1 25.1 clipbox
203.513 106.576 p0_0
gsave
fill
grestore
stroke
grestore
gsave
334.8 217.4 25.1 25.1 clipbox
159.262 105.763 p0_0
gsave
fill
grestore
stroke
grestore
gsave
334.8 217.4 25.1 25.1 clipbox
186.556 82.1069 p0_0
gsave
fill
grestore
stroke
grestore
gsave
334.8 217.4 25.1 25.1 clipbox
196.811 102.066 p0_0
gsave
fill
grestore
stroke
grestore
gsave
334.8 217.4 25.1 25.1 clipbox
231.891 162.302 p0_0
gsave
fill
grestore
stroke
grestore
gsave
334.8 217.4 25.1 25.1 clipbox
221.318 126.711 p0_0
gsave
fill
grestore
stroke
grestore
gsave
334.8 217.4 25.1 25.1 clipbox
159.895 107.376 p0_0
gsave
fill
grestore
stroke
grestore
gsave
334.8 217.4 25.1 25.1 clipbox
252.948 147.419 p0_0
gsave
fill
grestore
stroke
grestore
gsave
334.8 217.4 25.1 25.1 clipbox
201.473 82.5956 p0_0
gsave
fill
grestore
stroke
grestore
gsave
334.8 217.4 25.1 25.1 clipbox
219.79 92.1348 p0_0
gsave
fill
grestore
stroke
grestore
gsave
334.8 217.4 25.1 25.1 clipbox
243.596 158.685 p0_0
gsave
fill
grestore
stroke
grestore
gsave
334.8 217.4 25.1 25.1 clipbox
202.102 82.3375 p0_0
gsave
fill
grestore
stroke
grestore
gsave
334.8 217.4 25.1 25.1 clipbox
230.58 121.827 p0_0
gsave
fill
grestore
stroke
grestore
gsave
334.8 217.4 25.1 25.1 clipbox
209.114 87.0797 p0_0
gsave
fill
grestore
stroke
grestore
gsave
334.8 217.4 25.1 25.1 clipbox
206.724 84.6267 p0_0
gsave
fill
grestore
stroke
grestore
gsave
334.8 217.4 25.1 25.1 clipbox
201.298 82.6988 p0_0
gsave
fill
grestore
stroke
grestore
gsave
334.8 217.4 25.1 25.1 clipbox
196.788 90.2134 p0_0
gsave
fill
grestore
stroke
grestore
gsave
334.8 217.4 25.1 25.1 clipbox
251.07 146.962 p0_0
gsave
fill
grestore
stroke
grestore
gsave
334.8 217.4 25.1 25.1 clipbox
194.02 98.9175 p0_0
gsave
fill
grestore
stroke
grestore
gsave
334.8 217.4 25.1 25.1 clipbox
223.647 97.1656 p0_0
gsave
fill
grestore
stroke
grestore
gsave
334.8 217.4 25.1 25.1 clipbox
215.363 90.9018 p0_0
gsave
fill
grestore
stroke
grestore
gsave
334.8 217.4 25.1 25.1 clipbox
171.702 101.323 p0_0
gsave
fill
grestore
stroke
grestore
gsave
334.8 217.4 25.1 25.1 clipbox
198.559 86.1711 p0_0
gsave
fill
grestore
stroke
grestore
gsave
334.8 217.4 25.1 25.1 clipbox
208.749 86.7107 p0_0
gsave
fill
grestore
stroke
grestore
gsave
334.8 217.4 25.1 25.1 clipbox
243.869 158.425 p0_0
gsave
fill
grestore
stroke
grestore
gsave
334.8 217.4 25.1 25.1 clipbox
233.419 135.114 p0_0
gsave
fill
grestore
stroke
grestore
gsave
334.8 217.4 25.1 25.1 clipbox
172.342 102.535 p0_0
gsave
fill
grestore
stroke
grestore
gsave
334.8 217.4 25.1 25.1 clipbox
248.762 148.08 p0_0
gsave
fill
grestore
stroke
grestore
gsave
334.8 217.4 25.1 25.1 clipbox
197.238 81.8932 p0_0
gsave
fill
grestore
stroke
grestore
gsave
334.8 217.4 25.1 25.1 clipbox
215.614 94.2828 p0_0
gsave
fill
grestore
stroke
grestore
gsave
334.8 217.4 25.1 25.1 clipbox
239.371 160.305 p0_0
gsave
fill
grestore
stroke
grestore
gsave
334.8 217.4 25.1 25.1 clipbox
197.87 82.208 p0_0
gsave
fill
grestore
stroke
grestore
gsave
334.8 217.4 25.1 25.1 clipbox
226.293 117.409 p0_0
gsave
fill
grestore
stroke
grestore
gsave
334.8 217.4 25.1 25.1 clipbox
204.915 92.2995 p0_0
gsave
fill
grestore
stroke
grestore
gsave
334.8 217.4 25.1 25.1 clipbox
202.512 88.4938 p0_0
gsave
fill
grestore
stroke
grestore
gsave
334.8 217.4 25.1 25.1 clipbox
197.063 81.8405 p0_0
gsave
fill
grestore
stroke
grestore
gsave
334.8 217.4 25.1 25.1 clipbox
192.53 86.3645 p0_0
gsave
fill
grestore
stroke
grestore
gsave
334.8 217.4 25.1 25.1 clipbox
246.896 148.378 p0_0
gsave
fill
grestore
stroke
grestore
gsave
334.8 217.4 25.1 25.1 clipbox
189.743 94.4582 p0_0
gsave
fill
grestore
stroke
grestore
gsave
334.8 217.4 25.1 25.1 clipbox
219.437 95.7614 p0_0
gsave
fill
grestore
stroke
grestore
gsave
334.8 217.4 25.1 25.1 clipbox
211.192 96.111 p0_0
gsave
fill
grestore
stroke
grestore
gsave
334.8 217.4 25.1 25.1 clipbox
167.308 102.998 p0_0
gsave
fill
grestore
stroke
grestore
gsave
334.8 217.4 25.1 25.1 clipbox
194.312 83.2102 p0_0
gsave
fill
grestore
stroke
grestore
gsave
334.8 217.4 25.1 25.1 clipbox
204.548 91.7688 p0_0
gsave
fill
grestore
stroke
grestore
gsave
334.8 217.4 25.1 25.1 clipbox
239.647 160.151 p0_0
gsave
fill
grestore
stroke
grestore
gsave
334.8 217.4 25.1 25.1 clipbox
229.114 131.144 p0_0
gsave
fill
grestore
stroke
grestore
gsave
334.8 217.4 25.1 25.1 clipbox
167.945 104.41 p0_0
gsave
fill
grestore
stroke
grestore
gsave
334.8 217.4 25.1 25.1 clipbox
172.167 209.123 p0_0
gsave
fill
grestore
stroke
grestore
gsave
334.8 217.4 25.1 25.1 clipbox
118.83 137.751 p0_0
gsave
fill
grestore
stroke
grestore
gsave
334.8 217.4 25.1 25.1 clipbox
138.312 149.741 p0_0
gsave
fill
grestore
stroke
grestore
gsave
334.8 217.4 25.1 25.1 clipbox
162.297 170.948 p0_0
gsave
fill
grestore
stroke
grestore
gsave
334.8 217.4 25.1 25.1 clipbox
119.488 138.474 p0_0
gsave
fill
grestore
stroke
grestore
gsave
334.8 217.4 25.1 25.1 clipbox
149.544 149.883 p0_0
gsave
fill
grestore
stroke
grestore
gsave
334.8 217.4 25.1 25.1 clipbox
126.858 145.307 p0_0
gsave
fill
grestore
stroke
grestore
gsave
334.8 217.4 25.1 25.1 clipbox
124.337 143.291 p0_0
gsave
fill
grestore
stroke
grestore
gsave
334.8 217.4 25.1 25.1 clipbox
118.648 137.548 p0_0
gsave
fill
grestore
stroke
grestore
gsave
334.8 217.4 25.1 25.1 clipbox
113.956 132.324 p0_0
gsave
fill
grestore
stroke
grestore
gsave
334.8 217.4 25.1 25.1 clipbox
170.211 202.332 p0_0
gsave
fill
grestore
stroke
grestore
gsave
334.8 217.4 25.1 25.1 clipbox
111.096 129.57 p0_0
gsave
fill
grestore
stroke
grestore
gsave
334.8 217.4 25.1 25.1 clipbox
142.446 149.726 p0_0
gsave
fill
grestore
stroke
grestore
gsave
334.8 217.4 25.1 25.1 clipbox
133.525 148.813 p0_0
gsave
fill
grestore
stroke
grestore
gsave
334.8 217.4 25.1 25.1 clipbox
85.5714 159.075 p0_0
gsave
fill
grestore
stroke
grestore
gsave
334.8 217.4 25.1 25.1 clipbox
115.793 134.34 p0_0
gsave
fill
grestore
stroke
grestore
gsave
334.8 217.4 25.1 25.1 clipbox
126.472 145.023 p0_0
gsave
fill
grestore
stroke
grestore
gsave
334.8 217.4 25.1 25.1 clipbox
162.578 171.93 p0_0
gsave
fill
grestore
stroke
grestore
gsave
334.8 217.4 25.1 25.1 clipbox
152.314 151.124 p0_0
gsave
fill
grestore
stroke
grestore
gsave
334.8 217.4 25.1 25.1 clipbox
86.376 157.359 p0_0
gsave
fill
grestore
stroke
grestore
gsave
334.8 217.4 25.1 25.1 clipbox
222.928 152.793 p0_0
gsave
fill
grestore
stroke
grestore
gsave
334.8 217.4 25.1 25.1 clipbox
171.116 87.1423 p0_0
gsave
fill
grestore
stroke
grestore
gsave
334.8 217.4 25.1 25.1 clipbox
189.735 100.528 p0_0
gsave
fill
grestore
stroke
grestore
gsave
334.8 217.4 25.1 25.1 clipbox
213.162 165.226 p0_0
gsave
fill
grestore
stroke
grestore
gsave
334.8 217.4 25.1 25.1 clipbox
171.754 87.6908 p0_0
gsave
fill
grestore
stroke
grestore
gsave
334.8 217.4 25.1 25.1 clipbox
200.351 120.548 p0_0
gsave
fill
grestore
stroke
grestore
gsave
334.8 217.4 25.1 25.1 clipbox
178.806 99.7908 p0_0
gsave
fill
grestore
stroke
grestore
gsave
334.8 217.4 25.1 25.1 clipbox
176.402 95.5057 p0_0
gsave
fill
grestore
stroke
grestore
gsave
334.8 217.4 25.1 25.1 clipbox
170.938 87.0251 p0_0
gsave
fill
grestore
stroke
grestore
gsave
334.8 217.4 25.1 25.1 clipbox
166.267 90.197 p0_0
gsave
fill
grestore
stroke
grestore
gsave
334.8 217.4 25.1 25.1 clipbox
221.018 153.36 p0_0
gsave
fill
grestore
stroke
grestore
gsave
334.8 217.4 25.1 25.1 clipbox
163.32 97.8982 p0_0
gsave
fill
grestore
stroke
grestore
gsave
334.8 217.4 25.1 25.1 clipbox
193.63 100.524 p0_0
gsave
fill
grestore
stroke
grestore
gsave
334.8 217.4 25.1 25.1 clipbox
185.181 103.545 p0_0
gsave
fill
grestore
stroke
grestore
gsave
334.8 217.4 25.1 25.1 clipbox
140.243 108.698 p0_0
gsave
fill
grestore
stroke
grestore
gsave
334.8 217.4 25.1 25.1 clipbox
168.121 87.4794 p0_0
gsave
fill
grestore
stroke
grestore
gsave
334.8 217.4 25.1 25.1 clipbox
178.437 99.2042 p0_0
gsave
fill
grestore
stroke
grestore
gsave
334.8 217.4 25.1 25.1 clipbox
213.447 165.115 p0_0
gsave
fill
grestore
stroke
grestore
gsave
334.8 217.4 25.1 25.1 clipbox
203.052 134.269 p0_0
gsave
fill
grestore
stroke
grestore
gsave
334.8 217.4 25.1 25.1 clipbox
140.874 110.165 p0_0
gsave
fill
grestore
stroke
grestore
gsave
334.8 217.4 25.1 25.1 clipbox
173.106 207.672 p0_0
gsave
fill
grestore
stroke
grestore
gsave
334.8 217.4 25.1 25.1 clipbox
119.717 138.748 p0_0
gsave
fill
grestore
stroke
grestore
gsave
334.8 217.4 25.1 25.1 clipbox
139.198 150.857 p0_0
gsave
fill
grestore
stroke
grestore
gsave
334.8 217.4 25.1 25.1 clipbox
163.241 169.008 p0_0
gsave
fill
grestore
stroke
grestore
gsave
334.8 217.4 25.1 25.1 clipbox
120.374 139.503 p0_0
gsave
fill
grestore
stroke
grestore
gsave
334.8 217.4 25.1 25.1 clipbox
150.45 150.105 p0_0
gsave
fill
grestore
stroke
grestore
gsave
334.8 217.4 25.1 25.1 clipbox
127.74 146.5 p0_0
gsave
fill
grestore
stroke
grestore
gsave
334.8 217.4 25.1 25.1 clipbox
125.22 144.459 p0_0
gsave
fill
grestore
stroke
grestore
gsave
334.8 217.4 25.1 25.1 clipbox
119.535 138.535 p0_0
gsave
fill
grestore
stroke
grestore
gsave
334.8 217.4 25.1 25.1 clipbox
114.856 132.94 p0_0
gsave
fill
grestore
stroke
grestore
gsave
334.8 217.4 25.1 25.1 clipbox
171.154 200.529 p0_0
gsave
fill
grestore
stroke
grestore
gsave
334.8 217.4 25.1 25.1 clipbox
112.01 129.834 p0_0
gsave
fill
grestore
stroke
grestore
gsave
334.8 217.4 25.1 25.1 clipbox
143.337 150.668 p0_0
gsave
fill
grestore
stroke
grestore
gsave
334.8 217.4 25.1 25.1 clipbox
134.409 150.003 p0_0
gsave
fill
grestore
stroke
grestore
gsave
334.8 217.4 25.1 25.1 clipbox
86.629 157.125 p0_0
gsave
fill
grestore
stroke
grestore
gsave
334.8 217.4 25.1 25.1 clipbox
116.687 135.131 p0_0
gsave
fill
grestore
stroke
grestore
gsave
334.8 217.4 25.1 25.1 clipbox
127.354 146.213 p0_0
gsave
fill
grestore
stroke
grestore
gsave
334.8 217.4 25.1 25.1 clipbox
163.522 169.96 p0_0
gsave
fill
grestore
stroke
grestore
gsave
334.8 217.4 25.1 25.1 clipbox
153.229 150.899 p0_0
gsave
fill
grestore
stroke
grestore
gsave
334.8 217.4 25.1 25.1 clipbox
87.4357 155.335 p0_0
gsave
fill
grestore
stroke
grestore
gsave
334.8 217.4 25.1 25.1 clipbox
219.83 153.345 p0_0
gsave
fill
grestore
stroke
grestore
gsave
334.8 217.4 25.1 25.1 clipbox
167.98 88.0643 p0_0
gsave
fill
grestore
stroke
grestore
gsave
334.8 217.4 25.1 25.1 clipbox
186.641 99.3695 p0_0
gsave
fill
grestore
stroke
grestore
gsave
334.8 217.4 25.1 25.1 clipbox
210.017 165.336 p0_0
gsave
fill
grestore
stroke
grestore
gsave
334.8 217.4 25.1 25.1 clipbox
168.625 88.1909 p0_0
gsave
fill
grestore
stroke
grestore
gsave
334.8 217.4 25.1 25.1 clipbox
197.244 124.474 p0_0
gsave
fill
grestore
stroke
grestore
gsave
334.8 217.4 25.1 25.1 clipbox
175.716 96.5343 p0_0
gsave
fill
grestore
stroke
grestore
gsave
334.8 217.4 25.1 25.1 clipbox
173.306 93.1735 p0_0
gsave
fill
grestore
stroke
grestore
gsave
334.8 217.4 25.1 25.1 clipbox
167.8 88.0629 p0_0
gsave
fill
grestore
stroke
grestore
gsave
334.8 217.4 25.1 25.1 clipbox
163.071 93.5893 p0_0
gsave
fill
grestore
stroke
grestore
gsave
334.8 217.4 25.1 25.1 clipbox
217.909 153.437 p0_0
gsave
fill
grestore
stroke
grestore
gsave
334.8 217.4 25.1 25.1 clipbox
160.09 101.9 p0_0
gsave
fill
grestore
stroke
grestore
gsave
334.8 217.4 25.1 25.1 clipbox
190.533 101.934 p0_0
gsave
fill
grestore
stroke
grestore
gsave
334.8 217.4 25.1 25.1 clipbox
182.089 100.286 p0_0
gsave
fill
grestore
stroke
grestore
gsave
334.8 217.4 25.1 25.1 clipbox
137.018 108.757 p0_0
gsave
fill
grestore
stroke
grestore
gsave
334.8 217.4 25.1 25.1 clipbox
164.949 90.1325 p0_0
gsave
fill
grestore
stroke
grestore
gsave
334.8 217.4 25.1 25.1 clipbox
175.347 96.0574 p0_0
gsave
fill
grestore
stroke
grestore
gsave
334.8 217.4 25.1 25.1 clipbox
210.302 165.148 p0_0
gsave
fill
grestore
stroke
grestore
gsave
334.8 217.4 25.1 25.1 clipbox
199.936 138.027 p0_0
gsave
fill
grestore
stroke
grestore
gsave
334.8 217.4 25.1 25.1 clipbox
137.651 110.1 p0_0
gsave
fill
grestore
stroke
grestore
gsave
334.8 217.4 25.1 25.1 clipbox
294.572 178.328 p0_0
gsave
fill
grestore
stroke
grestore
gsave
334.8 217.4 25.1 25.1 clipbox
242.899 122.789 p0_0
gsave
fill
grestore
stroke
grestore
gsave
334.8 217.4 25.1 25.1 clipbox
261.287 135.607 p0_0
gsave
fill
grestore
stroke
grestore
gsave
334.8 217.4 25.1 25.1 clipbox
283.476 139.017 p0_0
gsave
fill
grestore
stroke
grestore
gsave
334.8 217.4 25.1 25.1 clipbox
243.54 123.611 p0_0
gsave
fill
grestore
stroke
grestore
gsave
334.8 217.4 25.1 25.1 clipbox
271.352 132.434 p0_0
gsave
fill
grestore
stroke
grestore
gsave
334.8 217.4 25.1 25.1 clipbox
250.628 130.659 p0_0
gsave
fill
grestore
stroke
grestore
gsave
334.8 217.4 25.1 25.1 clipbox
248.225 128.659 p0_0
gsave
fill
grestore
stroke
grestore
gsave
334.8 217.4 25.1 25.1 clipbox
242.72 122.555 p0_0
gsave
fill
grestore
stroke
grestore
gsave
334.8 217.4 25.1 25.1 clipbox
238.126 115.709 p0_0
gsave
fill
grestore
stroke
grestore
gsave
334.8 217.4 25.1 25.1 clipbox
292.335 169.529 p0_0
gsave
fill
grestore
stroke
grestore
gsave
334.8 217.4 25.1 25.1 clipbox
235.334 111.041 p0_0
gsave
fill
grestore
stroke
grestore
gsave
334.8 217.4 25.1 25.1 clipbox
265.028 135.401 p0_0
gsave
fill
grestore
stroke
grestore
gsave
334.8 217.4 25.1 25.1 clipbox
256.884 134.38 p0_0
gsave
fill
grestore
stroke
grestore
gsave
334.8 217.4 25.1 25.1 clipbox
213.701 122.417 p0_0
gsave
fill
grestore
stroke
grestore
gsave
334.8 217.4 25.1 25.1 clipbox
239.927 118.565 p0_0
gsave
fill
grestore
stroke
grestore
gsave
334.8 217.4 25.1 25.1 clipbox
250.261 130.377 p0_0
gsave
fill
grestore
stroke
grestore
gsave
334.8 217.4 25.1 25.1 clipbox
283.773 139.741 p0_0
gsave
fill
grestore
stroke
grestore
gsave
334.8 217.4 25.1 25.1 clipbox
273.833 131.15 p0_0
gsave
fill
grestore
stroke
grestore
gsave
334.8 217.4 25.1 25.1 clipbox
214.325 120.349 p0_0
gsave
fill
grestore
stroke
grestore
gsave
334.8 217.4 25.1 25.1 clipbox
179.512 196.236 p0_0
gsave
fill
grestore
stroke
grestore
gsave
334.8 217.4 25.1 25.1 clipbox
125.788 146.229 p0_0
gsave
fill
grestore
stroke
grestore
gsave
334.8 217.4 25.1 25.1 clipbox
145.301 158.163 p0_0
gsave
fill
grestore
stroke
grestore
gsave
334.8 217.4 25.1 25.1 clipbox
169.618 158.68 p0_0
gsave
fill
grestore
stroke
grestore
gsave
334.8 217.4 25.1 25.1 clipbox
126.446 146.99 p0_0
gsave
fill
grestore
stroke
grestore
gsave
334.8 217.4 25.1 25.1 clipbox
156.593 154.901 p0_0
gsave
fill
grestore
stroke
grestore
gsave
334.8 217.4 25.1 25.1 clipbox
133.849 153.405 p0_0
gsave
fill
grestore
stroke
grestore
gsave
334.8 217.4 25.1 25.1 clipbox
131.317 151.593 p0_0
gsave
fill
grestore
stroke
grestore
gsave
334.8 217.4 25.1 25.1 clipbox
125.605 146.012 p0_0
gsave
fill
grestore
stroke
grestore
gsave
334.8 217.4 25.1 25.1 clipbox
120.945 139.506 p0_0
gsave
fill
grestore
stroke
grestore
gsave
334.8 217.4 25.1 25.1 clipbox
177.573 187.514 p0_0
gsave
fill
grestore
stroke
grestore
gsave
334.8 217.4 25.1 25.1 clipbox
118.15 134.898 p0_0
gsave
fill
grestore
stroke
grestore
gsave
334.8 217.4 25.1 25.1 clipbox
149.436 158.044 p0_0
gsave
fill
grestore
stroke
grestore
gsave
334.8 217.4 25.1 25.1 clipbox
140.524 156.889 p0_0
gsave
fill
grestore
stroke
grestore
gsave
334.8 217.4 25.1 25.1 clipbox
93.8497 143.202 p0_0
gsave
fill
grestore
stroke
grestore
gsave
334.8 217.4 25.1 25.1 clipbox
122.761 142.254 p0_0
gsave
fill
grestore
stroke
grestore
gsave
334.8 217.4 25.1 25.1 clipbox
133.462 153.148 p0_0
gsave
fill
grestore
stroke
grestore
gsave
334.8 217.4 25.1 25.1 clipbox
169.903 159.322 p0_0
gsave
fill
grestore
stroke
grestore
gsave
334.8 217.4 25.1 25.1 clipbox
159.414 153.28 p0_0
gsave
fill
grestore
stroke
grestore
gsave
334.8 217.4 25.1 25.1 clipbox
94.656 141.158 p0_0
gsave
fill
grestore
stroke
grestore
gsave
334.8 217.4 25.1 25.1 clipbox
203.08 160.522 p0_0
gsave
fill
grestore
stroke
grestore
gsave
334.8 217.4 25.1 25.1 clipbox
150.44 117.22 p0_0
gsave
fill
grestore
stroke
grestore
gsave
334.8 217.4 25.1 25.1 clipbox
169.61 121.194 p0_0
gsave
fill
grestore
stroke
grestore
gsave
334.8 217.4 25.1 25.1 clipbox
193.032 160.301 p0_0
gsave
fill
grestore
stroke
grestore
gsave
334.8 217.4 25.1 25.1 clipbox
151.131 116.075 p0_0
gsave
fill
grestore
stroke
grestore
gsave
334.8 217.4 25.1 25.1 clipbox
180.185 154.464 p0_0
gsave
fill
grestore
stroke
grestore
gsave
334.8 217.4 25.1 25.1 clipbox
158.625 109.426 p0_0
gsave
fill
grestore
stroke
grestore
gsave
334.8 217.4 25.1 25.1 clipbox
156.111 110.356 p0_0
gsave
fill
grestore
stroke
grestore
gsave
334.8 217.4 25.1 25.1 clipbox
150.248 117.551 p0_0
gsave
fill
grestore
stroke
grestore
gsave
334.8 217.4 25.1 25.1 clipbox
145.24 127.277 p0_0
gsave
fill
grestore
stroke
grestore
gsave
334.8 217.4 25.1 25.1 clipbox
201.119 156.115 p0_0
gsave
fill
grestore
stroke
grestore
gsave
334.8 217.4 25.1 25.1 clipbox
142.171 133.163 p0_0
gsave
fill
grestore
stroke
grestore
gsave
334.8 217.4 25.1 25.1 clipbox
173.476 132.06 p0_0
gsave
fill
grestore
stroke
grestore
gsave
334.8 217.4 25.1 25.1 clipbox
165.088 113.069 p0_0
gsave
fill
grestore
stroke
grestore
gsave
334.8 217.4 25.1 25.1 clipbox
119.528 111.05 p0_0
gsave
fill
grestore
stroke
grestore
gsave
334.8 217.4 25.1 25.1 clipbox
147.213 123.287 p0_0
gsave
fill
grestore
stroke
grestore
gsave
334.8 217.4 25.1 25.1 clipbox
158.244 109.48 p0_0
gsave
fill
grestore
stroke
grestore
gsave
334.8 217.4 25.1 25.1 clipbox
193.322 159.838 p0_0
gsave
fill
grestore
stroke
grestore
gsave
334.8 217.4 25.1 25.1 clipbox
182.883 161.353 p0_0
gsave
fill
grestore
stroke
grestore
gsave
334.8 217.4 25.1 25.1 clipbox
120.211 111.043 p0_0
gsave
fill
grestore
stroke
grestore
/p1_0 {
newpath
translate
-2.236068 -2.236068 m
2.236068 2.236068 l
-2.236068 2.236068 m
2.236068 -2.236068 l

} bind def
1.500 setlinewidth
0.000 0.000 1.000 setrgbcolor
gsave
334.8 217.4 25.1 25.1 clipbox
225.712 152.347 p1_0
gsave
fill
grestore
stroke
grestore
gsave
334.8 217.4 25.1 25.1 clipbox
173.925 86.9157 p1_0
gsave
fill
grestore
stroke
grestore
gsave
334.8 217.4 25.1 25.1 clipbox
192.52 101.847 p1_0
gsave
fill
grestore
stroke
grestore
gsave
334.8 217.4 25.1 25.1 clipbox
215.988 164.961 p1_0
gsave
fill
grestore
stroke
grestore
gsave
334.8 217.4 25.1 25.1 clipbox
174.56 87.7806 p1_0
gsave
fill
grestore
stroke
grestore
gsave
334.8 217.4 25.1 25.1 clipbox
203.136 117.714 p1_0
gsave
fill
grestore
stroke
grestore
gsave
334.8 217.4 25.1 25.1 clipbox
181.592 102.778 p1_0
gsave
fill
grestore
stroke
grestore
gsave
334.8 217.4 25.1 25.1 clipbox
179.19 97.7425 p1_0
gsave
fill
grestore
stroke
grestore
gsave
334.8 217.4 25.1 25.1 clipbox
173.749 86.7107 p1_0
gsave
fill
grestore
stroke
grestore
gsave
334.8 217.4 25.1 25.1 clipbox
169.12 87.931 p1_0
gsave
fill
grestore
stroke
grestore
gsave
334.8 217.4 25.1 25.1 clipbox
223.811 153.242 p1_0
gsave
fill
grestore
stroke
grestore
gsave
334.8 217.4 25.1 25.1 clipbox
166.202 95.0253 p1_0
gsave
fill
grestore
stroke
grestore
gsave
334.8 217.4 25.1 25.1 clipbox
196.41 99.9203 p1_0
gsave
fill
grestore
stroke
grestore
gsave
334.8 217.4 25.1 25.1 clipbox
187.968 106.533 p1_0
gsave
fill
grestore
stroke
grestore
gsave
334.8 217.4 25.1 25.1 clipbox
143.145 108.575 p1_0
gsave
fill
grestore
stroke
grestore
gsave
334.8 217.4 25.1 25.1 clipbox
170.956 85.8653 p1_0
gsave
fill
grestore
stroke
grestore
gsave
334.8 217.4 25.1 25.1 clipbox
181.224 102.103 p1_0
gsave
fill
grestore
stroke
grestore
gsave
334.8 217.4 25.1 25.1 clipbox
216.273 164.907 p1_0
gsave
fill
grestore
stroke
grestore
gsave
334.8 217.4 25.1 25.1 clipbox
205.847 131.458 p1_0
gsave
fill
grestore
stroke
grestore
gsave
334.8 217.4 25.1 25.1 clipbox
143.774 110.122 p1_0
gsave
fill
grestore
stroke
grestore
gsave
334.8 217.4 25.1 25.1 clipbox
270.886 150.68 p1_0
gsave
fill
grestore
stroke
grestore
gsave
334.8 217.4 25.1 25.1 clipbox
219.77 112.178 p1_0
gsave
fill
grestore
stroke
grestore
gsave
334.8 217.4 25.1 25.1 clipbox
238.087 116.865 p1_0
gsave
fill
grestore
stroke
grestore
gsave
334.8 217.4 25.1 25.1 clipbox
261.236 145.359 p1_0
gsave
fill
grestore
stroke
grestore
gsave
334.8 217.4 25.1 25.1 clipbox
220.389 111.168 p1_0
gsave
fill
grestore
stroke
grestore
gsave
334.8 217.4 25.1 25.1 clipbox
249.108 146.086 p1_0
gsave
fill
grestore
stroke
grestore
gsave
334.8 217.4 25.1 25.1 clipbox
227.279 104.8 p1_0
gsave
fill
grestore
stroke
grestore
gsave
334.8 217.4 25.1 25.1 clipbox
224.927 105.799 p1_0
gsave
fill
grestore
stroke
grestore
gsave
334.8 217.4 25.1 25.1 clipbox
219.598 112.468 p1_0
gsave
fill
grestore
stroke
grestore
gsave
334.8 217.4 25.1 25.1 clipbox
215.155 120.358 p1_0
gsave
fill
grestore
stroke
grestore
gsave
334.8 217.4 25.1 25.1 clipbox
268.847 145.08 p1_0
gsave
fill
grestore
stroke
grestore
gsave
334.8 217.4 25.1 25.1 clipbox
212.427 124.309 p1_0
gsave
fill
grestore
stroke
grestore
gsave
334.8 217.4 25.1 25.1 clipbox
242.1 127.222 p1_0
gsave
fill
grestore
stroke
grestore
gsave
334.8 217.4 25.1 25.1 clipbox
233.528 108.553 p1_0
gsave
fill
grestore
stroke
grestore
gsave
334.8 217.4 25.1 25.1 clipbox
190.251 98.1071 p1_0
gsave
fill
grestore
stroke
grestore
gsave
334.8 217.4 25.1 25.1 clipbox
216.902 117.276 p1_0
gsave
fill
grestore
stroke
grestore
gsave
334.8 217.4 25.1 25.1 clipbox
226.919 104.867 p1_0
gsave
fill
grestore
stroke
grestore
gsave
334.8 217.4 25.1 25.1 clipbox
261.495 144.935 p1_0
gsave
fill
grestore
stroke
grestore
gsave
334.8 217.4 25.1 25.1 clipbox
251.831 150.865 p1_0
gsave
fill
grestore
stroke
grestore
gsave
334.8 217.4 25.1 25.1 clipbox
190.898 97.7289 p1_0
gsave
fill
grestore
stroke
grestore
gsave
334.8 217.4 25.1 25.1 clipbox
220.218 153.271 p1_0
gsave
fill
grestore
stroke
grestore
gsave
334.8 217.4 25.1 25.1 clipbox
168.373 87.9253 p1_0
gsave
fill
grestore
stroke
grestore
gsave
334.8 217.4 25.1 25.1 clipbox
187.029 99.4644 p1_0
gsave
fill
grestore
stroke
grestore
gsave
334.8 217.4 25.1 25.1 clipbox
210.411 165.336 p1_0
gsave
fill
grestore
stroke
grestore
gsave
334.8 217.4 25.1 25.1 clipbox
169.018 88.1071 p1_0
gsave
fill
grestore
stroke
grestore
gsave
334.8 217.4 25.1 25.1 clipbox
197.634 123.93 p1_0
gsave
fill
grestore
stroke
grestore
gsave
334.8 217.4 25.1 25.1 clipbox
176.103 96.897 p1_0
gsave
fill
grestore
stroke
grestore
gsave
334.8 217.4 25.1 25.1 clipbox
173.695 93.395 p1_0
gsave
fill
grestore
stroke
grestore
gsave
334.8 217.4 25.1 25.1 clipbox
168.194 87.908 p1_0
gsave
fill
grestore
stroke
grestore
gsave
334.8 217.4 25.1 25.1 clipbox
163.473 93.1097 p1_0
gsave
fill
grestore
stroke
grestore
gsave
334.8 217.4 25.1 25.1 clipbox
218.299 153.43 p1_0
gsave
fill
grestore
stroke
grestore
gsave
334.8 217.4 25.1 25.1 clipbox
160.496 101.356 p1_0
gsave
fill
grestore
stroke
grestore
gsave
334.8 217.4 25.1 25.1 clipbox
190.922 101.725 p1_0
gsave
fill
grestore
stroke
grestore
gsave
334.8 217.4 25.1 25.1 clipbox
182.476 100.65 p1_0
gsave
fill
grestore
stroke
grestore
gsave
334.8 217.4 25.1 25.1 clipbox
137.422 108.752 p1_0
gsave
fill
grestore
stroke
grestore
gsave
334.8 217.4 25.1 25.1 clipbox
165.348 89.7347 p1_0
gsave
fill
grestore
stroke
grestore
gsave
334.8 217.4 25.1 25.1 clipbox
175.734 96.4002 p1_0
gsave
fill
grestore
stroke
grestore
gsave
334.8 217.4 25.1 25.1 clipbox
210.696 165.157 p1_0
gsave
fill
grestore
stroke
grestore
gsave
334.8 217.4 25.1 25.1 clipbox
200.327 137.518 p1_0
gsave
fill
grestore
stroke
grestore
gsave
334.8 217.4 25.1 25.1 clipbox
138.055 110.114 p1_0
gsave
fill
grestore
stroke
grestore
gsave
334.8 217.4 25.1 25.1 clipbox
234.42 150.926 p1_0
gsave
fill
grestore
stroke
grestore
gsave
334.8 217.4 25.1 25.1 clipbox
182.718 86.5295 p1_0
gsave
fill
grestore
stroke
grestore
gsave
334.8 217.4 25.1 25.1 clipbox
201.26 104.04 p1_0
gsave
fill
grestore
stroke
grestore
gsave
334.8 217.4 25.1 25.1 clipbox
224.825 163.598 p1_0
gsave
fill
grestore
stroke
grestore
gsave
334.8 217.4 25.1 25.1 clipbox
183.349 87.9276 p1_0
gsave
fill
grestore
stroke
grestore
gsave
334.8 217.4 25.1 25.1 clipbox
211.835 112.89 p1_0
gsave
fill
grestore
stroke
grestore
gsave
334.8 217.4 25.1 25.1 clipbox
190.388 106.745 p1_0
gsave
fill
grestore
stroke
grestore
gsave
334.8 217.4 25.1 25.1 clipbox
187.978 101.217 p1_0
gsave
fill
grestore
stroke
grestore
gsave
334.8 217.4 25.1 25.1 clipbox
182.543 86.1769 p1_0
gsave
fill
grestore
stroke
grestore
gsave
334.8 217.4 25.1 25.1 clipbox
177.982 84.1225 p1_0
gsave
fill
grestore
stroke
grestore
gsave
334.8 217.4 25.1 25.1 clipbox
232.546 152.274 p1_0
gsave
fill
grestore
stroke
grestore
gsave
334.8 217.4 25.1 25.1 clipbox
175.131 90.1048 p1_0
gsave
fill
grestore
stroke
grestore
gsave
334.8 217.4 25.1 25.1 clipbox
205.107 98.9231 p1_0
gsave
fill
grestore
stroke
grestore
gsave
334.8 217.4 25.1 25.1 clipbox
196.753 110.496 p1_0
gsave
fill
grestore
stroke
grestore
gsave
334.8 217.4 25.1 25.1 clipbox
152.247 107.48 p1_0
gsave
fill
grestore
stroke
grestore
gsave
334.8 217.4 25.1 25.1 clipbox
179.784 83.1734 p1_0
gsave
fill
grestore
stroke
grestore
gsave
334.8 217.4 25.1 25.1 clipbox
190.019 106.086 p1_0
gsave
fill
grestore
stroke
grestore
gsave
334.8 217.4 25.1 25.1 clipbox
225.108 163.637 p1_0
gsave
fill
grestore
stroke
grestore
gsave
334.8 217.4 25.1 25.1 clipbox
214.58 126.482 p1_0
gsave
fill
grestore
stroke
grestore
gsave
334.8 217.4 25.1 25.1 clipbox
152.877 109.137 p1_0
gsave
fill
grestore
stroke
grestore
gsave
334.8 217.4 25.1 25.1 clipbox
167.853 214.721 p1_0
gsave
fill
grestore
stroke
grestore
gsave
334.8 217.4 25.1 25.1 clipbox
114.708 134.749 p1_0
gsave
fill
grestore
stroke
grestore
gsave
334.8 217.4 25.1 25.1 clipbox
134.217 145.838 p1_0
gsave
fill
grestore
stroke
grestore
gsave
334.8 217.4 25.1 25.1 clipbox
157.921 180.907 p1_0
gsave
fill
grestore
stroke
grestore
gsave
334.8 217.4 25.1 25.1 clipbox
115.374 135.252 p1_0
gsave
fill
grestore
stroke
grestore
gsave
334.8 217.4 25.1 25.1 clipbox
145.329 151.127 p1_0
gsave
fill
grestore
stroke
grestore
gsave
334.8 217.4 25.1 25.1 clipbox
122.787 140.729 p1_0
gsave
fill
grestore
stroke
grestore
gsave
334.8 217.4 25.1 25.1 clipbox
120.26 138.976 p1_0
gsave
fill
grestore
stroke
grestore
gsave
334.8 217.4 25.1 25.1 clipbox
114.523 134.61 p1_0
gsave
fill
grestore
stroke
grestore
gsave
334.8 217.4 25.1 25.1 clipbox
109.742 131.582 p1_0
gsave
fill
grestore
stroke
grestore
gsave
334.8 217.4 25.1 25.1 clipbox
165.872 209.777 p1_0
gsave
fill
grestore
stroke
grestore
gsave
334.8 217.4 25.1 25.1 clipbox
106.799 130.652 p1_0
gsave
fill
grestore
stroke
grestore
gsave
334.8 217.4 25.1 25.1 clipbox
138.32 147.044 p1_0
gsave
fill
grestore
stroke
grestore
gsave
334.8 217.4 25.1 25.1 clipbox
129.451 144.243 p1_0
gsave
fill
grestore
stroke
grestore
gsave
334.8 217.4 25.1 25.1 clipbox
80.7379 167.24 p1_0
gsave
fill
grestore
stroke
grestore
gsave
334.8 217.4 25.1 25.1 clipbox
111.621 132.61 p1_0
gsave
fill
grestore
stroke
grestore
gsave
334.8 217.4 25.1 25.1 clipbox
122.401 140.474 p1_0
gsave
fill
grestore
stroke
grestore
gsave
334.8 217.4 25.1 25.1 clipbox
158.201 181.958 p1_0
gsave
fill
grestore
stroke
grestore
gsave
334.8 217.4 25.1 25.1 clipbox
148.057 154.474 p1_0
gsave
fill
grestore
stroke
grestore
gsave
334.8 217.4 25.1 25.1 clipbox
81.5243 166.001 p1_0
gsave
fill
grestore
stroke
grestore
gsave
334.8 217.4 25.1 25.1 clipbox
241.573 149.531 p1_0
gsave
fill
grestore
stroke
grestore
gsave
334.8 217.4 25.1 25.1 clipbox
189.962 84.1941 p1_0
gsave
fill
grestore
stroke
grestore
gsave
334.8 217.4 25.1 25.1 clipbox
208.437 100.412 p1_0
gsave
fill
grestore
stroke
grestore
gsave
334.8 217.4 25.1 25.1 clipbox
232.084 162.207 p1_0
gsave
fill
grestore
stroke
grestore
gsave
334.8 217.4 25.1 25.1 clipbox
190.594 85.309 p1_0
gsave
fill
grestore
stroke
grestore
gsave
334.8 217.4 25.1 25.1 clipbox
219.009 113.126 p1_0
gsave
fill
grestore
stroke
grestore
gsave
334.8 217.4 25.1 25.1 clipbox
197.654 102.347 p1_0
gsave
fill
grestore
stroke
grestore
gsave
334.8 217.4 25.1 25.1 clipbox
195.241 96.8976 p1_0
gsave
fill
grestore
stroke
grestore
gsave
334.8 217.4 25.1 25.1 clipbox
189.786 83.9201 p1_0
gsave
fill
grestore
stroke
grestore
gsave
334.8 217.4 25.1 25.1 clipbox
185.236 83.6346 p1_0
gsave
fill
grestore
stroke
grestore
gsave
334.8 217.4 25.1 25.1 clipbox
239.71 150.643 p1_0
gsave
fill
grestore
stroke
grestore
gsave
334.8 217.4 25.1 25.1 clipbox
182.418 90.243 p1_0
gsave
fill
grestore
stroke
grestore
gsave
334.8 217.4 25.1 25.1 clipbox
212.251 97.0061 p1_0
gsave
fill
grestore
stroke
grestore
gsave
334.8 217.4 25.1 25.1 clipbox
203.984 106.128 p1_0
gsave
fill
grestore
stroke
grestore
gsave
334.8 217.4 25.1 25.1 clipbox
159.752 105.615 p1_0
gsave
fill
grestore
stroke
grestore
gsave
334.8 217.4 25.1 25.1 clipbox
187.028 82.0759 p1_0
gsave
fill
grestore
stroke
grestore
gsave
334.8 217.4 25.1 25.1 clipbox
197.285 101.635 p1_0
gsave
fill
grestore
stroke
grestore
gsave
334.8 217.4 25.1 25.1 clipbox
232.364 162.197 p1_0
gsave
fill
grestore
stroke
grestore
gsave
334.8 217.4 25.1 25.1 clipbox
221.791 126.862 p1_0
gsave
fill
grestore
stroke
grestore
gsave
334.8 217.4 25.1 25.1 clipbox
160.385 107.221 p1_0
gsave
fill
grestore
stroke
grestore
gsave
334.8 217.4 25.1 25.1 clipbox
310.337 193.273 p1_0
gsave
fill
grestore
stroke
grestore
gsave
334.8 217.4 25.1 25.1 clipbox
257.597 106.902 p1_0
gsave
fill
grestore
stroke
grestore
gsave
334.8 217.4 25.1 25.1 clipbox
275.643 117.855 p1_0
gsave
fill
grestore
stroke
grestore
gsave
334.8 217.4 25.1 25.1 clipbox
299.516 164.141 p1_0
gsave
fill
grestore
stroke
grestore
gsave
334.8 217.4 25.1 25.1 clipbox
258.215 107.207 p1_0
gsave
fill
grestore
stroke
grestore
gsave
334.8 217.4 25.1 25.1 clipbox
286.07 128.383 p1_0
gsave
fill
grestore
stroke
grestore
gsave
334.8 217.4 25.1 25.1 clipbox
265.12 111.447 p1_0
gsave
fill
grestore
stroke
grestore
gsave
334.8 217.4 25.1 25.1 clipbox
262.768 109.919 p1_0
gsave
fill
grestore
stroke
grestore
gsave
334.8 217.4 25.1 25.1 clipbox
257.425 106.822 p1_0
gsave
fill
grestore
stroke
grestore
gsave
334.8 217.4 25.1 25.1 clipbox
253.026 105.654 p1_0
gsave
fill
grestore
stroke
grestore
gsave
334.8 217.4 25.1 25.1 clipbox
308.335 189.873 p1_0
gsave
fill
grestore
stroke
grestore
gsave
334.8 217.4 25.1 25.1 clipbox
250.383 106.139 p1_0
gsave
fill
grestore
stroke
grestore
gsave
334.8 217.4 25.1 25.1 clipbox
279.42 120.527 p1_0
gsave
fill
grestore
stroke
grestore
gsave
334.8 217.4 25.1 25.1 clipbox
271.273 115.252 p1_0
gsave
fill
grestore
stroke
grestore
gsave
334.8 217.4 25.1 25.1 clipbox
229.58 144.316 p1_0
gsave
fill
grestore
stroke
grestore
gsave
334.8 217.4 25.1 25.1 clipbox
254.743 105.872 p1_0
gsave
fill
grestore
stroke
grestore
gsave
334.8 217.4 25.1 25.1 clipbox
264.761 111.214 p1_0
gsave
fill
grestore
stroke
grestore
gsave
334.8 217.4 25.1 25.1 clipbox
299.835 165.198 p1_0
gsave
fill
grestore
stroke
grestore
gsave
334.8 217.4 25.1 25.1 clipbox
288.792 133.467 p1_0
gsave
fill
grestore
stroke
grestore
gsave
334.8 217.4 25.1 25.1 clipbox
230.209 143.562 p1_0
gsave
fill
grestore
stroke
grestore
gsave
334.8 217.4 25.1 25.1 clipbox
296.428 180.863 p1_0
gsave
fill
grestore
stroke
grestore
gsave
334.8 217.4 25.1 25.1 clipbox
244.597 120.172 p1_0
gsave
fill
grestore
stroke
grestore
gsave
334.8 217.4 25.1 25.1 clipbox
262.953 133.153 p1_0
gsave
fill
grestore
stroke
grestore
gsave
334.8 217.4 25.1 25.1 clipbox
285.269 140.811 p1_0
gsave
fill
grestore
stroke
grestore
gsave
334.8 217.4 25.1 25.1 clipbox
245.238 121.015 p1_0
gsave
fill
grestore
stroke
grestore
gsave
334.8 217.4 25.1 25.1 clipbox
273 130.283 p1_0
gsave
fill
grestore
stroke
grestore
gsave
334.8 217.4 25.1 25.1 clipbox
252.322 128.392 p1_0
gsave
fill
grestore
stroke
grestore
gsave
334.8 217.4 25.1 25.1 clipbox
249.921 126.286 p1_0
gsave
fill
grestore
stroke
grestore
gsave
334.8 217.4 25.1 25.1 clipbox
244.419 119.933 p1_0
gsave
fill
grestore
stroke
grestore
gsave
334.8 217.4 25.1 25.1 clipbox
239.832 113.159 p1_0
gsave
fill
grestore
stroke
grestore
gsave
334.8 217.4 25.1 25.1 clipbox
294.2 172.396 p1_0
gsave
fill
grestore
stroke
grestore
gsave
334.8 217.4 25.1 25.1 clipbox
237.05 108.787 p1_0
gsave
fill
grestore
stroke
grestore
gsave
334.8 217.4 25.1 25.1 clipbox
266.679 132.808 p1_0
gsave
fill
grestore
stroke
grestore
gsave
334.8 217.4 25.1 25.1 clipbox
258.567 132.124 p1_0
gsave
fill
grestore
stroke
grestore
gsave
334.8 217.4 25.1 25.1 clipbox
215.529 125.428 p1_0
gsave
fill
grestore
stroke
grestore
gsave
334.8 217.4 25.1 25.1 clipbox
241.63 115.932 p1_0
gsave
fill
grestore
stroke
grestore
gsave
334.8 217.4 25.1 25.1 clipbox
251.956 128.096 p1_0
gsave
fill
grestore
stroke
grestore
gsave
334.8 217.4 25.1 25.1 clipbox
285.571 141.627 p1_0
gsave
fill
grestore
stroke
grestore
gsave
334.8 217.4 25.1 25.1 clipbox
275.495 129.552 p1_0
gsave
fill
grestore
stroke
grestore
gsave
334.8 217.4 25.1 25.1 clipbox
216.152 123.397 p1_0
gsave
fill
grestore
stroke
grestore
gsave
334.8 217.4 25.1 25.1 clipbox
195.626 168.366 p1_0
gsave
fill
grestore
stroke
grestore
gsave
334.8 217.4 25.1 25.1 clipbox
142.335 137.107 p1_0
gsave
fill
grestore
stroke
grestore
gsave
334.8 217.4 25.1 25.1 clipbox
161.752 142.711 p1_0
gsave
fill
grestore
stroke
grestore
gsave
334.8 217.4 25.1 25.1 clipbox
185.554 155.909 p1_0
gsave
fill
grestore
stroke
grestore
gsave
334.8 217.4 25.1 25.1 clipbox
143.027 136.443 p1_0
gsave
fill
grestore
stroke
grestore
gsave
334.8 217.4 25.1 25.1 clipbox
172.529 163.308 p1_0
gsave
fill
grestore
stroke
grestore
gsave
334.8 217.4 25.1 25.1 clipbox
150.611 131.917 p1_0
gsave
fill
grestore
stroke
grestore
gsave
334.8 217.4 25.1 25.1 clipbox
148.058 132.633 p1_0
gsave
fill
grestore
stroke
grestore
gsave
334.8 217.4 25.1 25.1 clipbox
142.143 137.294 p1_0
gsave
fill
grestore
stroke
grestore
gsave
334.8 217.4 25.1 25.1 clipbox
137.184 141.646 p1_0
gsave
fill
grestore
stroke
grestore
gsave
334.8 217.4 25.1 25.1 clipbox
193.666 161.512 p1_0
gsave
fill
grestore
stroke
grestore
gsave
334.8 217.4 25.1 25.1 clipbox
134.203 142.818 p1_0
gsave
fill
grestore
stroke
grestore
gsave
334.8 217.4 25.1 25.1 clipbox
165.682 150.967 p1_0
gsave
fill
grestore
stroke
grestore
gsave
334.8 217.4 25.1 25.1 clipbox
157.17 135.474 p1_0
gsave
fill
grestore
stroke
grestore
gsave
334.8 217.4 25.1 25.1 clipbox
111.6 116.327 p1_0
gsave
fill
grestore
stroke
grestore
gsave
334.8 217.4 25.1 25.1 clipbox
139.125 140.145 p1_0
gsave
fill
grestore
stroke
grestore
gsave
334.8 217.4 25.1 25.1 clipbox
150.223 131.957 p1_0
gsave
fill
grestore
stroke
grestore
gsave
334.8 217.4 25.1 25.1 clipbox
185.846 155.611 p1_0
gsave
fill
grestore
stroke
grestore
gsave
334.8 217.4 25.1 25.1 clipbox
175.282 165.165 p1_0
gsave
fill
grestore
stroke
grestore
gsave
334.8 217.4 25.1 25.1 clipbox
112.325 115.44 p1_0
gsave
fill
grestore
stroke
grestore
gsave
334.8 217.4 25.1 25.1 clipbox
245.428 148.733 p1_0
gsave
fill
grestore
stroke
grestore
gsave
334.8 217.4 25.1 25.1 clipbox
193.865 82.6725 p1_0
gsave
fill
grestore
stroke
grestore
gsave
334.8 217.4 25.1 25.1 clipbox
212.29 97.0357 p1_0
gsave
fill
grestore
stroke
grestore
gsave
334.8 217.4 25.1 25.1 clipbox
235.994 161.29 p1_0
gsave
fill
grestore
stroke
grestore
gsave
334.8 217.4 25.1 25.1 clipbox
194.498 83.3985 p1_0
gsave
fill
grestore
stroke
grestore
gsave
334.8 217.4 25.1 25.1 clipbox
222.904 114.886 p1_0
gsave
fill
grestore
stroke
grestore
gsave
334.8 217.4 25.1 25.1 clipbox
201.556 97.2319 p1_0
gsave
fill
grestore
stroke
grestore
gsave
334.8 217.4 25.1 25.1 clipbox
199.147 92.4543 p1_0
gsave
fill
grestore
stroke
grestore
gsave
334.8 217.4 25.1 25.1 clipbox
193.69 82.5059 p1_0
gsave
fill
grestore
stroke
grestore
gsave
334.8 217.4 25.1 25.1 clipbox
189.146 84.5766 p1_0
gsave
fill
grestore
stroke
grestore
gsave
334.8 217.4 25.1 25.1 clipbox
243.566 149.484 p1_0
gsave
fill
grestore
stroke
grestore
gsave
334.8 217.4 25.1 25.1 clipbox
186.344 91.9585 p1_0
gsave
fill
grestore
stroke
grestore
gsave
334.8 217.4 25.1 25.1 clipbox
216.102 96.0034 p1_0
gsave
fill
grestore
stroke
grestore
gsave
334.8 217.4 25.1 25.1 clipbox
207.859 101.031 p1_0
gsave
fill
grestore
stroke
grestore
gsave
334.8 217.4 25.1 25.1 clipbox
163.804 104.281 p1_0
gsave
fill
grestore
stroke
grestore
gsave
334.8 217.4 25.1 25.1 clipbox
190.933 82.2209 p1_0
gsave
fill
grestore
stroke
grestore
gsave
334.8 217.4 25.1 25.1 clipbox
201.188 96.5842 p1_0
gsave
fill
grestore
stroke
grestore
gsave
334.8 217.4 25.1 25.1 clipbox
236.273 161.211 p1_0
gsave
fill
grestore
stroke
grestore
gsave
334.8 217.4 25.1 25.1 clipbox
225.707 128.701 p1_0
gsave
fill
grestore
stroke
grestore
gsave
334.8 217.4 25.1 25.1 clipbox
164.439 105.803 p1_0
gsave
fill
grestore
stroke
grestore
gsave
334.8 217.4 25.1 25.1 clipbox
241.106 149.627 p1_0
gsave
fill
grestore
stroke
grestore
gsave
334.8 217.4 25.1 25.1 clipbox
189.489 84.3892 p1_0
gsave
fill
grestore
stroke
grestore
gsave
334.8 217.4 25.1 25.1 clipbox
207.97 100.782 p1_0
gsave
fill
grestore
stroke
grestore
gsave
334.8 217.4 25.1 25.1 clipbox
231.61 162.307 p1_0
gsave
fill
grestore
stroke
grestore
gsave
334.8 217.4 25.1 25.1 clipbox
190.121 85.5416 p1_0
gsave
fill
grestore
stroke
grestore
gsave
334.8 217.4 25.1 25.1 clipbox
218.539 112.993 p1_0
gsave
fill
grestore
stroke
grestore
gsave
334.8 217.4 25.1 25.1 clipbox
197.18 102.856 p1_0
gsave
fill
grestore
stroke
grestore
gsave
334.8 217.4 25.1 25.1 clipbox
194.768 97.3644 p1_0
gsave
fill
grestore
stroke
grestore
gsave
334.8 217.4 25.1 25.1 clipbox
189.313 84.1048 p1_0
gsave
fill
grestore
stroke
grestore
gsave
334.8 217.4 25.1 25.1 clipbox
184.763 83.5882 p1_0
gsave
fill
grestore
stroke
grestore
gsave
334.8 217.4 25.1 25.1 clipbox
239.243 150.771 p1_0
gsave
fill
grestore
stroke
grestore
gsave
334.8 217.4 25.1 25.1 clipbox
181.943 90.1171 p1_0
gsave
fill
grestore
stroke
grestore
gsave
334.8 217.4 25.1 25.1 clipbox
211.785 97.1499 p1_0
gsave
fill
grestore
stroke
grestore
gsave
334.8 217.4 25.1 25.1 clipbox
203.513 106.635 p1_0
gsave
fill
grestore
stroke
grestore
gsave
334.8 217.4 25.1 25.1 clipbox
159.262 105.762 p1_0
gsave
fill
grestore
stroke
grestore
gsave
334.8 217.4 25.1 25.1 clipbox
186.556 82.1086 p1_0
gsave
fill
grestore
stroke
grestore
gsave
334.8 217.4 25.1 25.1 clipbox
196.811 102.143 p1_0
gsave
fill
grestore
stroke
grestore
gsave
334.8 217.4 25.1 25.1 clipbox
231.891 162.303 p1_0
gsave
fill
grestore
stroke
grestore
gsave
334.8 217.4 25.1 25.1 clipbox
221.318 126.715 p1_0
gsave
fill
grestore
stroke
grestore
gsave
334.8 217.4 25.1 25.1 clipbox
159.895 107.376 p1_0
gsave
fill
grestore
stroke
grestore
gsave
334.8 217.4 25.1 25.1 clipbox
252.948 147.418 p1_0
gsave
fill
grestore
stroke
grestore
gsave
334.8 217.4 25.1 25.1 clipbox
201.473 82.5837 p1_0
gsave
fill
grestore
stroke
grestore
gsave
334.8 217.4 25.1 25.1 clipbox
219.79 92.1825 p1_0
gsave
fill
grestore
stroke
grestore
gsave
334.8 217.4 25.1 25.1 clipbox
243.596 158.686 p1_0
gsave
fill
grestore
stroke
grestore
gsave
334.8 217.4 25.1 25.1 clipbox
202.102 82.3474 p1_0
gsave
fill
grestore
stroke
grestore
gsave
334.8 217.4 25.1 25.1 clipbox
230.581 121.84 p1_0
gsave
fill
grestore
stroke
grestore
gsave
334.8 217.4 25.1 25.1 clipbox
209.114 87.0992 p1_0
gsave
fill
grestore
stroke
grestore
gsave
334.8 217.4 25.1 25.1 clipbox
206.724 84.6598 p1_0
gsave
fill
grestore
stroke
grestore
gsave
334.8 217.4 25.1 25.1 clipbox
201.298 82.6804 p1_0
gsave
fill
grestore
stroke
grestore
gsave
334.8 217.4 25.1 25.1 clipbox
196.788 90.1871 p1_0
gsave
fill
grestore
stroke
grestore
gsave
334.8 217.4 25.1 25.1 clipbox
251.07 146.961 p1_0
gsave
fill
grestore
stroke
grestore
gsave
334.8 217.4 25.1 25.1 clipbox
194.02 98.9441 p1_0
gsave
fill
grestore
stroke
grestore
gsave
334.8 217.4 25.1 25.1 clipbox
223.646 97.1246 p1_0
gsave
fill
grestore
stroke
grestore
gsave
334.8 217.4 25.1 25.1 clipbox
215.363 90.9211 p1_0
gsave
fill
grestore
stroke
grestore
gsave
334.8 217.4 25.1 25.1 clipbox
171.702 101.32 p1_0
gsave
fill
grestore
stroke
grestore
gsave
334.8 217.4 25.1 25.1 clipbox
198.559 86.0893 p1_0
gsave
fill
grestore
stroke
grestore
gsave
334.8 217.4 25.1 25.1 clipbox
208.749 86.7308 p1_0
gsave
fill
grestore
stroke
grestore
gsave
334.8 217.4 25.1 25.1 clipbox
243.869 158.424 p1_0
gsave
fill
grestore
stroke
grestore
gsave
334.8 217.4 25.1 25.1 clipbox
233.419 135.115 p1_0
gsave
fill
grestore
stroke
grestore
gsave
334.8 217.4 25.1 25.1 clipbox
172.342 102.536 p1_0
gsave
fill
grestore
stroke
grestore
gsave
334.8 217.4 25.1 25.1 clipbox
248.762 148.081 p1_0
gsave
fill
grestore
stroke
grestore
gsave
334.8 217.4 25.1 25.1 clipbox
197.238 81.922 p1_0
gsave
fill
grestore
stroke
grestore
gsave
334.8 217.4 25.1 25.1 clipbox
215.614 94.255 p1_0
gsave
fill
grestore
stroke
grestore
gsave
334.8 217.4 25.1 25.1 clipbox
239.371 160.306 p1_0
gsave
fill
grestore
stroke
grestore
gsave
334.8 217.4 25.1 25.1 clipbox
197.87 82.2321 p1_0
gsave
fill
grestore
stroke
grestore
gsave
334.8 217.4 25.1 25.1 clipbox
226.293 117.4 p1_0
gsave
fill
grestore
stroke
grestore
gsave
334.8 217.4 25.1 25.1 clipbox
204.915 92.2804 p1_0
gsave
fill
grestore
stroke
grestore
gsave
334.8 217.4 25.1 25.1 clipbox
202.512 88.4424 p1_0
gsave
fill
grestore
stroke
grestore
gsave
334.8 217.4 25.1 25.1 clipbox
197.063 81.8696 p1_0
gsave
fill
grestore
stroke
grestore
gsave
334.8 217.4 25.1 25.1 clipbox
192.53 86.3692 p1_0
gsave
fill
grestore
stroke
grestore
gsave
334.8 217.4 25.1 25.1 clipbox
246.896 148.38 p1_0
gsave
fill
grestore
stroke
grestore
gsave
334.8 217.4 25.1 25.1 clipbox
189.743 94.4595 p1_0
gsave
fill
grestore
stroke
grestore
gsave
334.8 217.4 25.1 25.1 clipbox
219.438 95.7884 p1_0
gsave
fill
grestore
stroke
grestore
gsave
334.8 217.4 25.1 25.1 clipbox
211.192 96.0925 p1_0
gsave
fill
grestore
stroke
grestore
gsave
334.8 217.4 25.1 25.1 clipbox
167.308 102.999 p1_0
gsave
fill
grestore
stroke
grestore
gsave
334.8 217.4 25.1 25.1 clipbox
194.312 83.2133 p1_0
gsave
fill
grestore
stroke
grestore
gsave
334.8 217.4 25.1 25.1 clipbox
204.548 91.7423 p1_0
gsave
fill
grestore
stroke
grestore
gsave
334.8 217.4 25.1 25.1 clipbox
239.647 160.151 p1_0
gsave
fill
grestore
stroke
grestore
gsave
334.8 217.4 25.1 25.1 clipbox
229.114 131.14 p1_0
gsave
fill
grestore
stroke
grestore
gsave
334.8 217.4 25.1 25.1 clipbox
167.945 104.41 p1_0
gsave
fill
grestore
stroke
grestore
gsave
334.8 217.4 25.1 25.1 clipbox
172.167 209.128 p1_0
gsave
fill
grestore
stroke
grestore
gsave
334.8 217.4 25.1 25.1 clipbox
118.83 137.752 p1_0
gsave
fill
grestore
stroke
grestore
gsave
334.8 217.4 25.1 25.1 clipbox
138.312 149.74 p1_0
gsave
fill
grestore
stroke
grestore
gsave
334.8 217.4 25.1 25.1 clipbox
162.297 170.95 p1_0
gsave
fill
grestore
stroke
grestore
gsave
334.8 217.4 25.1 25.1 clipbox
119.488 138.475 p1_0
gsave
fill
grestore
stroke
grestore
gsave
334.8 217.4 25.1 25.1 clipbox
149.544 149.882 p1_0
gsave
fill
grestore
stroke
grestore
gsave
334.8 217.4 25.1 25.1 clipbox
126.858 145.31 p1_0
gsave
fill
grestore
stroke
grestore
gsave
334.8 217.4 25.1 25.1 clipbox
124.337 143.29 p1_0
gsave
fill
grestore
stroke
grestore
gsave
334.8 217.4 25.1 25.1 clipbox
118.648 137.549 p1_0
gsave
fill
grestore
stroke
grestore
gsave
334.8 217.4 25.1 25.1 clipbox
113.956 132.326 p1_0
gsave
fill
grestore
stroke
grestore
gsave
334.8 217.4 25.1 25.1 clipbox
170.211 202.331 p1_0
gsave
fill
grestore
stroke
grestore
gsave
334.8 217.4 25.1 25.1 clipbox
111.095 129.571 p1_0
gsave
fill
grestore
stroke
grestore
gsave
334.8 217.4 25.1 25.1 clipbox
142.446 149.726 p1_0
gsave
fill
grestore
stroke
grestore
gsave
334.8 217.4 25.1 25.1 clipbox
133.525 148.815 p1_0
gsave
fill
grestore
stroke
grestore
gsave
334.8 217.4 25.1 25.1 clipbox
85.5712 159.078 p1_0
gsave
fill
grestore
stroke
grestore
gsave
334.8 217.4 25.1 25.1 clipbox
115.793 134.338 p1_0
gsave
fill
grestore
stroke
grestore
gsave
334.8 217.4 25.1 25.1 clipbox
126.472 145.024 p1_0
gsave
fill
grestore
stroke
grestore
gsave
334.8 217.4 25.1 25.1 clipbox
162.578 171.932 p1_0
gsave
fill
grestore
stroke
grestore
gsave
334.8 217.4 25.1 25.1 clipbox
152.314 151.124 p1_0
gsave
fill
grestore
stroke
grestore
gsave
334.8 217.4 25.1 25.1 clipbox
86.3758 157.363 p1_0
gsave
fill
grestore
stroke
grestore
gsave
334.8 217.4 25.1 25.1 clipbox
222.928 152.793 p1_0
gsave
fill
grestore
stroke
grestore
gsave
334.8 217.4 25.1 25.1 clipbox
171.116 87.1502 p1_0
gsave
fill
grestore
stroke
grestore
gsave
334.8 217.4 25.1 25.1 clipbox
189.736 100.463 p1_0
gsave
fill
grestore
stroke
grestore
gsave
334.8 217.4 25.1 25.1 clipbox
213.162 165.227 p1_0
gsave
fill
grestore
stroke
grestore
gsave
334.8 217.4 25.1 25.1 clipbox
171.754 87.6864 p1_0
gsave
fill
grestore
stroke
grestore
gsave
334.8 217.4 25.1 25.1 clipbox
200.351 120.54 p1_0
gsave
fill
grestore
stroke
grestore
gsave
334.8 217.4 25.1 25.1 clipbox
178.806 99.7869 p1_0
gsave
fill
grestore
stroke
grestore
gsave
334.8 217.4 25.1 25.1 clipbox
176.403 95.439 p1_0
gsave
fill
grestore
stroke
grestore
gsave
334.8 217.4 25.1 25.1 clipbox
170.938 87.0356 p1_0
gsave
fill
grestore
stroke
grestore
gsave
334.8 217.4 25.1 25.1 clipbox
166.267 90.2043 p1_0
gsave
fill
grestore
stroke
grestore
gsave
334.8 217.4 25.1 25.1 clipbox
221.018 153.361 p1_0
gsave
fill
grestore
stroke
grestore
gsave
334.8 217.4 25.1 25.1 clipbox
163.32 97.8982 p1_0
gsave
fill
grestore
stroke
grestore
gsave
334.8 217.4 25.1 25.1 clipbox
193.63 100.541 p1_0
gsave
fill
grestore
stroke
grestore
gsave
334.8 217.4 25.1 25.1 clipbox
185.181 103.542 p1_0
gsave
fill
grestore
stroke
grestore
gsave
334.8 217.4 25.1 25.1 clipbox
140.243 108.697 p1_0
gsave
fill
grestore
stroke
grestore
gsave
334.8 217.4 25.1 25.1 clipbox
168.121 87.4893 p1_0
gsave
fill
grestore
stroke
grestore
gsave
334.8 217.4 25.1 25.1 clipbox
178.438 99.1893 p1_0
gsave
fill
grestore
stroke
grestore
gsave
334.8 217.4 25.1 25.1 clipbox
213.447 165.114 p1_0
gsave
fill
grestore
stroke
grestore
gsave
334.8 217.4 25.1 25.1 clipbox
203.052 134.271 p1_0
gsave
fill
grestore
stroke
grestore
gsave
334.8 217.4 25.1 25.1 clipbox
140.874 110.164 p1_0
gsave
fill
grestore
stroke
grestore
gsave
334.8 217.4 25.1 25.1 clipbox
173.106 207.668 p1_0
gsave
fill
grestore
stroke
grestore
gsave
334.8 217.4 25.1 25.1 clipbox
119.717 138.748 p1_0
gsave
fill
grestore
stroke
grestore
gsave
334.8 217.4 25.1 25.1 clipbox
139.198 150.855 p1_0
gsave
fill
grestore
stroke
grestore
gsave
334.8 217.4 25.1 25.1 clipbox
163.241 169.005 p1_0
gsave
fill
grestore
stroke
grestore
gsave
334.8 217.4 25.1 25.1 clipbox
120.374 139.504 p1_0
gsave
fill
grestore
stroke
grestore
gsave
334.8 217.4 25.1 25.1 clipbox
150.45 150.104 p1_0
gsave
fill
grestore
stroke
grestore
gsave
334.8 217.4 25.1 25.1 clipbox
127.74 146.499 p1_0
gsave
fill
grestore
stroke
grestore
gsave
334.8 217.4 25.1 25.1 clipbox
125.22 144.454 p1_0
gsave
fill
grestore
stroke
grestore
gsave
334.8 217.4 25.1 25.1 clipbox
119.535 138.536 p1_0
gsave
fill
grestore
stroke
grestore
gsave
334.8 217.4 25.1 25.1 clipbox
114.856 132.942 p1_0
gsave
fill
grestore
stroke
grestore
gsave
334.8 217.4 25.1 25.1 clipbox
171.154 200.528 p1_0
gsave
fill
grestore
stroke
grestore
gsave
334.8 217.4 25.1 25.1 clipbox
112.01 129.835 p1_0
gsave
fill
grestore
stroke
grestore
gsave
334.8 217.4 25.1 25.1 clipbox
143.337 150.668 p1_0
gsave
fill
grestore
stroke
grestore
gsave
334.8 217.4 25.1 25.1 clipbox
134.409 150.002 p1_0
gsave
fill
grestore
stroke
grestore
gsave
334.8 217.4 25.1 25.1 clipbox
86.6291 157.124 p1_0
gsave
fill
grestore
stroke
grestore
gsave
334.8 217.4 25.1 25.1 clipbox
116.687 135.129 p1_0
gsave
fill
grestore
stroke
grestore
gsave
334.8 217.4 25.1 25.1 clipbox
127.354 146.211 p1_0
gsave
fill
grestore
stroke
grestore
gsave
334.8 217.4 25.1 25.1 clipbox
163.522 169.957 p1_0
gsave
fill
grestore
stroke
grestore
gsave
334.8 217.4 25.1 25.1 clipbox
153.229 150.899 p1_0
gsave
fill
grestore
stroke
grestore
gsave
334.8 217.4 25.1 25.1 clipbox
87.436 155.331 p1_0
gsave
fill
grestore
stroke
grestore
gsave
334.8 217.4 25.1 25.1 clipbox
219.83 153.346 p1_0
gsave
fill
grestore
stroke
grestore
gsave
334.8 217.4 25.1 25.1 clipbox
167.979 88.0988 p1_0
gsave
fill
grestore
stroke
grestore
gsave
334.8 217.4 25.1 25.1 clipbox
186.641 99.3755 p1_0
gsave
fill
grestore
stroke
grestore
gsave
334.8 217.4 25.1 25.1 clipbox
210.017 165.337 p1_0
gsave
fill
grestore
stroke
grestore
gsave
334.8 217.4 25.1 25.1 clipbox
168.625 88.2286 p1_0
gsave
fill
grestore
stroke
grestore
gsave
334.8 217.4 25.1 25.1 clipbox
197.244 124.467 p1_0
gsave
fill
grestore
stroke
grestore
gsave
334.8 217.4 25.1 25.1 clipbox
175.716 96.5211 p1_0
gsave
fill
grestore
stroke
grestore
gsave
334.8 217.4 25.1 25.1 clipbox
173.306 93.1493 p1_0
gsave
fill
grestore
stroke
grestore
gsave
334.8 217.4 25.1 25.1 clipbox
167.799 88.0956 p1_0
gsave
fill
grestore
stroke
grestore
gsave
334.8 217.4 25.1 25.1 clipbox
163.071 93.5881 p1_0
gsave
fill
grestore
stroke
grestore
gsave
334.8 217.4 25.1 25.1 clipbox
217.909 153.439 p1_0
gsave
fill
grestore
stroke
grestore
gsave
334.8 217.4 25.1 25.1 clipbox
160.09 101.905 p1_0
gsave
fill
grestore
stroke
grestore
gsave
334.8 217.4 25.1 25.1 clipbox
190.533 101.957 p1_0
gsave
fill
grestore
stroke
grestore
gsave
334.8 217.4 25.1 25.1 clipbox
182.089 100.274 p1_0
gsave
fill
grestore
stroke
grestore
gsave
334.8 217.4 25.1 25.1 clipbox
137.018 108.757 p1_0
gsave
fill
grestore
stroke
grestore
gsave
334.8 217.4 25.1 25.1 clipbox
164.949 90.1206 p1_0
gsave
fill
grestore
stroke
grestore
gsave
334.8 217.4 25.1 25.1 clipbox
175.347 96.04 p1_0
gsave
fill
grestore
stroke
grestore
gsave
334.8 217.4 25.1 25.1 clipbox
210.302 165.148 p1_0
gsave
fill
grestore
stroke
grestore
gsave
334.8 217.4 25.1 25.1 clipbox
199.936 138.02 p1_0
gsave
fill
grestore
stroke
grestore
gsave
334.8 217.4 25.1 25.1 clipbox
137.651 110.102 p1_0
gsave
fill
grestore
stroke
grestore
gsave
334.8 217.4 25.1 25.1 clipbox
294.572 178.324 p1_0
gsave
fill
grestore
stroke
grestore
gsave
334.8 217.4 25.1 25.1 clipbox
242.899 122.788 p1_0
gsave
fill
grestore
stroke
grestore
gsave
334.8 217.4 25.1 25.1 clipbox
261.287 135.603 p1_0
gsave
fill
grestore
stroke
grestore
gsave
334.8 217.4 25.1 25.1 clipbox
283.476 139.013 p1_0
gsave
fill
grestore
stroke
grestore
gsave
334.8 217.4 25.1 25.1 clipbox
243.54 123.609 p1_0
gsave
fill
grestore
stroke
grestore
gsave
334.8 217.4 25.1 25.1 clipbox
271.353 132.438 p1_0
gsave
fill
grestore
stroke
grestore
gsave
334.8 217.4 25.1 25.1 clipbox
250.628 130.657 p1_0
gsave
fill
grestore
stroke
grestore
gsave
334.8 217.4 25.1 25.1 clipbox
248.224 128.654 p1_0
gsave
fill
grestore
stroke
grestore
gsave
334.8 217.4 25.1 25.1 clipbox
242.72 122.553 p1_0
gsave
fill
grestore
stroke
grestore
gsave
334.8 217.4 25.1 25.1 clipbox
238.126 115.714 p1_0
gsave
fill
grestore
stroke
grestore
gsave
334.8 217.4 25.1 25.1 clipbox
292.335 169.524 p1_0
gsave
fill
grestore
stroke
grestore
gsave
334.8 217.4 25.1 25.1 clipbox
235.334 111.047 p1_0
gsave
fill
grestore
stroke
grestore
gsave
334.8 217.4 25.1 25.1 clipbox
265.028 135.399 p1_0
gsave
fill
grestore
stroke
grestore
gsave
334.8 217.4 25.1 25.1 clipbox
256.884 134.378 p1_0
gsave
fill
grestore
stroke
grestore
gsave
334.8 217.4 25.1 25.1 clipbox
213.701 122.417 p1_0
gsave
fill
grestore
stroke
grestore
gsave
334.8 217.4 25.1 25.1 clipbox
239.927 118.564 p1_0
gsave
fill
grestore
stroke
grestore
gsave
334.8 217.4 25.1 25.1 clipbox
250.261 130.374 p1_0
gsave
fill
grestore
stroke
grestore
gsave
334.8 217.4 25.1 25.1 clipbox
283.773 139.738 p1_0
gsave
fill
grestore
stroke
grestore
gsave
334.8 217.4 25.1 25.1 clipbox
273.833 131.146 p1_0
gsave
fill
grestore
stroke
grestore
gsave
334.8 217.4 25.1 25.1 clipbox
214.325 120.346 p1_0
gsave
fill
grestore
stroke
grestore
gsave
334.8 217.4 25.1 25.1 clipbox
179.512 196.239 p1_0
gsave
fill
grestore
stroke
grestore
gsave
334.8 217.4 25.1 25.1 clipbox
125.788 146.231 p1_0
gsave
fill
grestore
stroke
grestore
gsave
334.8 217.4 25.1 25.1 clipbox
145.301 158.165 p1_0
gsave
fill
grestore
stroke
grestore
gsave
334.8 217.4 25.1 25.1 clipbox
169.618 158.681 p1_0
gsave
fill
grestore
stroke
grestore
gsave
334.8 217.4 25.1 25.1 clipbox
126.446 146.992 p1_0
gsave
fill
grestore
stroke
grestore
gsave
334.8 217.4 25.1 25.1 clipbox
156.593 154.897 p1_0
gsave
fill
grestore
stroke
grestore
gsave
334.8 217.4 25.1 25.1 clipbox
133.849 153.407 p1_0
gsave
fill
grestore
stroke
grestore
gsave
334.8 217.4 25.1 25.1 clipbox
131.317 151.593 p1_0
gsave
fill
grestore
stroke
grestore
gsave
334.8 217.4 25.1 25.1 clipbox
125.605 146.013 p1_0
gsave
fill
grestore
stroke
grestore
gsave
334.8 217.4 25.1 25.1 clipbox
120.945 139.505 p1_0
gsave
fill
grestore
stroke
grestore
gsave
334.8 217.4 25.1 25.1 clipbox
177.573 187.512 p1_0
gsave
fill
grestore
stroke
grestore
gsave
334.8 217.4 25.1 25.1 clipbox
118.15 134.895 p1_0
gsave
fill
grestore
stroke
grestore
gsave
334.8 217.4 25.1 25.1 clipbox
149.436 158.045 p1_0
gsave
fill
grestore
stroke
grestore
gsave
334.8 217.4 25.1 25.1 clipbox
140.524 156.891 p1_0
gsave
fill
grestore
stroke
grestore
gsave
334.8 217.4 25.1 25.1 clipbox
93.8495 143.207 p1_0
gsave
fill
grestore
stroke
grestore
gsave
334.8 217.4 25.1 25.1 clipbox
122.761 142.253 p1_0
gsave
fill
grestore
stroke
grestore
gsave
334.8 217.4 25.1 25.1 clipbox
133.462 153.15 p1_0
gsave
fill
grestore
stroke
grestore
gsave
334.8 217.4 25.1 25.1 clipbox
169.903 159.323 p1_0
gsave
fill
grestore
stroke
grestore
gsave
334.8 217.4 25.1 25.1 clipbox
159.414 153.283 p1_0
gsave
fill
grestore
stroke
grestore
gsave
334.8 217.4 25.1 25.1 clipbox
94.656 141.158 p1_0
gsave
fill
grestore
stroke
grestore
gsave
334.8 217.4 25.1 25.1 clipbox
203.08 160.522 p1_0
gsave
fill
grestore
stroke
grestore
gsave
334.8 217.4 25.1 25.1 clipbox
150.44 117.205 p1_0
gsave
fill
grestore
stroke
grestore
gsave
334.8 217.4 25.1 25.1 clipbox
169.609 121.205 p1_0
gsave
fill
grestore
stroke
grestore
gsave
334.8 217.4 25.1 25.1 clipbox
193.032 160.302 p1_0
gsave
fill
grestore
stroke
grestore
gsave
334.8 217.4 25.1 25.1 clipbox
151.131 116.062 p1_0
gsave
fill
grestore
stroke
grestore
gsave
334.8 217.4 25.1 25.1 clipbox
180.185 154.451 p1_0
gsave
fill
grestore
stroke
grestore
gsave
334.8 217.4 25.1 25.1 clipbox
158.626 109.42 p1_0
gsave
fill
grestore
stroke
grestore
gsave
334.8 217.4 25.1 25.1 clipbox
156.111 110.37 p1_0
gsave
fill
grestore
stroke
grestore
gsave
334.8 217.4 25.1 25.1 clipbox
150.248 117.536 p1_0
gsave
fill
grestore
stroke
grestore
gsave
334.8 217.4 25.1 25.1 clipbox
145.239 127.318 p1_0
gsave
fill
grestore
stroke
grestore
gsave
334.8 217.4 25.1 25.1 clipbox
201.119 156.114 p1_0
gsave
fill
grestore
stroke
grestore
gsave
334.8 217.4 25.1 25.1 clipbox
142.171 133.16 p1_0
gsave
fill
grestore
stroke
grestore
gsave
334.8 217.4 25.1 25.1 clipbox
173.476 132.046 p1_0
gsave
fill
grestore
stroke
grestore
gsave
334.8 217.4 25.1 25.1 clipbox
165.088 113.064 p1_0
gsave
fill
grestore
stroke
grestore
gsave
334.8 217.4 25.1 25.1 clipbox
119.528 111.05 p1_0
gsave
fill
grestore
stroke
grestore
gsave
334.8 217.4 25.1 25.1 clipbox
147.212 123.301 p1_0
gsave
fill
grestore
stroke
grestore
gsave
334.8 217.4 25.1 25.1 clipbox
158.244 109.479 p1_0
gsave
fill
grestore
stroke
grestore
gsave
334.8 217.4 25.1 25.1 clipbox
193.322 159.837 p1_0
gsave
fill
grestore
stroke
grestore
gsave
334.8 217.4 25.1 25.1 clipbox
182.883 161.352 p1_0
gsave
fill
grestore
stroke
grestore
gsave
334.8 217.4 25.1 25.1 clipbox
120.211 111.043 p1_0
gsave
fill
grestore
stroke
grestore

end
showpage
